351.3698630, 0.0060827
352.2831050, 0.0060827
355.9360731, 0.0060827
361.4155251, 0.0060827
363.4703196, 0.0060827
367.5799087, 0.0072993
370.0913242, 0.0085158
376.4840183, 0.0182482
379.9086758, 0.0255474
383.3333333, 0.0352798
385.8447489, 0.0450122
388.3561644, 0.0547445
393.6073059, 0.0620438
398.1735160, 0.0535280
402.7397260, 0.0377129
406.1643836, 0.0279805
408.6757991, 0.0170316
412.5570776, 0.0109489
413.9269406, 0.0060827
419.8630137, 0.0121655
420.5479452, 0.0133820
426.0273973, 0.0182482
430.1369863, 0.0206813
432.1917808, 0.0206813
436.5296804, 0.0255474
437.8995434, 0.0267640
441.5525114, 0.0340633
444.0639269, 0.0389294
448.8584475, 0.0498783
455.0228311, 0.0669100
457.9908676, 0.0754258
461.4155251, 0.0863747
465.0684932, 0.0997567
469.6347032, 0.1204380
472.1461187, 0.1362530
474.4292237, 0.1520681
476.9406393, 0.1715328
479.2237443, 0.1897810
481.7351598, 0.2068127
483.7899543, 0.2250608
486.3013699, 0.2457421
488.3561644, 0.2688564
490.1826484, 0.2919708
491.5525114, 0.3114355
494.5205479, 0.3430657
496.3470320, 0.3588808
498.1735160, 0.3783455
499.5433790, 0.3941606
500.6849315, 0.4087591
502.5114155, 0.4306569
504.5662100, 0.4537713
506.1643836, 0.4756691
507.3059361, 0.4939173
508.6757991, 0.5109489
509.8173516, 0.5316302
511.4155251, 0.5510949
513.0136986, 0.5693431
514.6118721, 0.5888078
516.2100457, 0.6107056
517.3515982, 0.6253041
518.4931507, 0.6423358
520.7762557, 0.6654501
523.9726027, 0.6946472
526.0273973, 0.7177616
527.8538813, 0.7396594
528.9954338, 0.7579075
530.5936073, 0.7749392
532.8767123, 0.7956204
534.7031963, 0.8150852
536.5296804, 0.8321168
537.4429224, 0.8442822
539.2694064, 0.8637470
541.3242009, 0.8832117
543.8356164, 0.8990268
547.0319635, 0.9148418
550.0000000, 0.9294404
553.6529680, 0.9440389
556.6210046, 0.9574209
559.8173516, 0.9671533
561.6438356, 0.9708029
566.8949772, 0.9768856
569.8630137, 0.9805353
574.8858447, 0.9829684
575.7990868, 0.9829684
578.9954338, 0.9829684
582.4200913, 0.9817518
586.7579909, 0.9817518
590.6392694, 0.9793187
594.7488584, 0.9781022
598.4018265, 0.9683698
602.9680365, 0.9525547
606.3926941, 0.9379562
610.5022831, 0.9245742
613.6986301, 0.9111922
617.3515982, 0.8856448
619.1780822, 0.8698297
621.4611872, 0.8515815
623.7442922, 0.8333333
626.9406393, 0.8102190
629.6803653, 0.7883212
632.1917808, 0.7688564
636.0730594, 0.7408759
638.1278539, 0.7250608
640.8675799, 0.7043796
642.6940639, 0.6861314
644.9771689, 0.6703163
646.5753425, 0.6605839
647.9452055, 0.6532847
