352.2831050, 0.0145985
353.6529680, 0.0145985
357.0776256, 0.0158151
359.1324201, 0.0182482
361.4155251, 0.0218978
362.3287671, 0.0218978
365.9817352, 0.0377129
368.0365297, 0.0644769
369.6347032, 0.0924574
371.0045662, 0.1289538
372.3744292, 0.1678832
372.8310502, 0.1982968
372.8310502, 0.2141119
373.0593607, 0.2250608
373.9726027, 0.2360097
375.1141553, 0.2433090
376.7123288, 0.2420925
378.0821918, 0.2347932
379.2237443, 0.2214112
381.2785388, 0.1970803
382.4200913, 0.1751825
383.1050228, 0.1630170
384.7031963, 0.1435523
385.8447489, 0.1289538
387.6712329, 0.1082725
389.0410959, 0.0985401
391.7808219, 0.0839416
393.6073059, 0.0717762
394.5205479, 0.0608273
395.4337900, 0.0535280
397.4885845, 0.0450122
400.9132420, 0.0340633
402.5114155, 0.0291971
405.0228311, 0.0255474
408.4474886, 0.0255474
410.9589041, 0.0218978
413.4703196, 0.0231144
415.9817352, 0.0255474
419.8630137, 0.0316302
421.6894977, 0.0352798
423.0593607, 0.0389294
426.7123288, 0.0523114
428.9954338, 0.0644769
431.0502283, 0.0766423
433.5616438, 0.0936740
435.6164384, 0.1082725
437.4429224, 0.1301703
438.8127854, 0.1447689
439.9543379, 0.1569343
442.6940639, 0.1836983
444.7488584, 0.2031630
446.3470320, 0.2250608
447.7168950, 0.2408759
449.5433790, 0.2603406
451.1415525, 0.2834550
452.0547945, 0.2968370
452.9680365, 0.3126521
453.8812785, 0.3260341
454.5662100, 0.3430657
455.4794521, 0.3564477
457.3059361, 0.3807786
458.9041096, 0.4014599
459.8173516, 0.4160584
460.7305936, 0.4306569
461.4155251, 0.4391727
462.5570776, 0.4598540
463.6986301, 0.4781022
464.8401826, 0.4963504
466.4383562, 0.5170316
467.8082192, 0.5328467
468.9497717, 0.5486618
470.3196347, 0.5717762
471.2328767, 0.5888078
472.6027397, 0.6094891
473.7442922, 0.6338200
474.4292237, 0.6447689
476.0273973, 0.6703163
477.8538813, 0.6946472
478.7671233, 0.7080292
479.9086758, 0.7274939
480.8219178, 0.7420925
481.9634703, 0.7566910
482.4200913, 0.7664234
483.7899543, 0.7834550
485.3881279, 0.8041363
486.3013699, 0.8211679
487.4429224, 0.8381995
488.1278539, 0.8503650
489.2694064, 0.8613139
490.6392694, 0.8734793
491.5525114, 0.8856448
491.7808219, 0.8892944
493.3789954, 0.9038929
494.9771689, 0.9111922
495.2054795, 0.9221411
496.3470320, 0.9294404
496.8036530, 0.9403893
497.2602740, 0.9464720
498.6301370, 0.9574209
499.7716895, 0.9659367
501.3698630, 0.9732360
502.5114155, 0.9793187
504.1095890, 0.9805353
506.6210046, 0.9793187
509.8173516, 0.9793187
512.1004566, 0.9805353
513.9269406, 0.9781022
515.9817352, 0.9695864
517.5799087, 0.9610706
519.4063927, 0.9501217
521.2328767, 0.9379562
522.8310502, 0.9233577
524.2009132, 0.9136253
525.5707763, 0.9026764
526.9406393, 0.8905109
528.0821918, 0.8771290
528.9954338, 0.8673966
530.3652968, 0.8503650
532.4200913, 0.8309002
533.3333333, 0.8138686
533.5616438, 0.8114355
534.4748858, 0.8017032
536.3013699, 0.7846715
537.6712329, 0.7688564
538.1278539, 0.7627737
539.0410959, 0.7518248
539.7260274, 0.7445255
540.6392694, 0.7347932
541.3242009, 0.7262774
542.4657534, 0.7104623
543.6073059, 0.6970803
545.4337900, 0.6788321
546.3470320, 0.6666667
547.7168950, 0.6508516
550.4566210, 0.6277372
552.7397260, 0.6009732
553.8812785, 0.5851582
555.2511416, 0.5766423
556.1643836, 0.5596107
556.8493151, 0.5401460
557.9908676, 0.5279805
560.0456621, 0.5085158
561.4155251, 0.4951338
563.0136986, 0.4793187
563.9269406, 0.4683698
565.2968037, 0.4537713
566.8949772, 0.4391727
568.0365297, 0.4294404
570.0913242, 0.4111922
571.2328767, 0.4014599
571.6894977, 0.3941606
573.5159817, 0.3746959
574.6575342, 0.3625304
575.1141553, 0.3564477
576.9406393, 0.3430657
578.0821918, 0.3345499
580.1369863, 0.3199513
580.5936073, 0.3150852
582.6484018, 0.3029197
584.4748858, 0.2834550
585.3881279, 0.2785888
586.9863014, 0.2652068
587.8995434, 0.2566910
589.9543379, 0.2469586
591.7808219, 0.2372263
593.1506849, 0.2262774
594.2922374, 0.2189781
596.3470320, 0.2080292
597.4885845, 0.2043796
601.1415525, 0.1897810
602.5114155, 0.1836983
605.2511416, 0.1715328
607.5342466, 0.1605839
609.3607306, 0.1557178
611.1872146, 0.1484185
613.0136986, 0.1411192
615.0684932, 0.1326034
616.4383562, 0.1277372
618.0365297, 0.1228710
619.8630137, 0.1167883
622.1461187, 0.1107056
624.2009132, 0.1034063
626.2557078, 0.0985401
628.5388128, 0.0924574
630.5936073, 0.0900243
632.8767123, 0.0851582
635.3881279, 0.0815085
636.9863014, 0.0778589
638.5844749, 0.0766423
639.9543379, 0.0742092
642.6940639, 0.0705596
644.5205479, 0.0669100
646.5753425, 0.0669100
647.7168950, 0.0681265
648.8584475, 0.0656934
650.0000000, 0.0608273
