2.95238	2.83146	0.05663
2.94537	2.70124	0.05402
2.93839	2.29092	0.04582
2.93144	2.19691	0.04394
2.92453	1.91283	0.03826
2.91765	1.76016	0.0352
2.9108	1.72593	0.03452
2.90398	1.38724	0.02774
2.8972	1.33416	0.02668
2.89044	1.36818	0.02736
2.88372	1.20735	0.02415
2.87703	1.1091	0.02218
2.87037	1.10988	0.0222
2.86374	0.99868	0.01997
2.85714	0.96614	0.01932
2.85057	0.78931	0.01579
2.84404	0.82382	0.01648
2.83753	0.7078	0.01416
2.83105	0.74732	0.01495
2.8246	0.73895	0.01478
2.81818	0.66518	0.0133
2.81179	0.55052	0.01101
2.80543	0.5239	0.01048
2.7991	0.53073	0.01061
2.79279	0.55525	0.0111
2.78652	0.47421	0.00948
2.78027	0.55804	0.01116
2.77405	0.42141	0.00843
2.76786	0.54278	0.01086
2.76169	0.4908	0.00982
2.75556	0.47011	0.0094
2.74945	0.4042	0.00808
2.74336	0.48024	0.0096
2.73731	0.43578	0.00872
2.73128	0.39274	0.00785
2.72527	0.34567	0.00691
2.7193	0.39771	0.00795
2.71335	0.39155	0.00783
2.70742	0.44767	0.00895
2.70153	0.4816	0.00963
2.69565	0.50546	0.01011
2.6898	0.50777	0.01016
2.68398	0.41577	0.00832
2.67819	0.4235	0.00847
2.67241	0.51369	0.01027
2.66667	0.49485	0.0099
2.66094	0.39344	0.00787
2.65525	0.48358	0.00967
2.64957	0.5136	0.01027
2.64392	0.44266	0.00885
2.6383	0.47749	0.00955
2.6327	0.51382	0.01028
2.62712	0.51841	0.01037
2.62156	0.49487	0.0099
2.61603	0.49679	0.00994
2.61053	0.57324	0.01146
2.60504	0.49408	0.00988
2.59958	0.51815	0.01036
2.59414	0.5392	0.01078
2.58873	0.58637	0.01173
2.58333	0.6389	0.01278
2.57796	0.57769	0.01155
2.57261	0.54887	0.01098
2.56729	0.63794	0.01276
2.56198	0.49454	0.00989
2.5567	0.54256	0.01085
2.55144	0.54459	0.01089
2.5462	0.56997	0.0114
2.54098	0.60835	0.01217
2.53579	0.54799	0.01096
2.53061	0.55919	0.01118
2.52546	0.54289	0.01086
2.52033	0.58503	0.0117
2.51521	0.66899	0.01338
2.51012	0.5523	0.01105
2.50505	0.5219	0.01044
2.5	0.50731	0.01015
2.49497	0.58953	0.01179
2.48996	0.58843	0.01177
2.48497	0.69209	0.01384
2.48	0.5174	0.01035
2.47505	0.54024	0.0108
2.47012	0.6132	0.01226
2.46521	0.56752	0.01135
2.46032	0.63417	0.01268
2.45545	0.5125	0.01025
2.45059	0.48339	0.00967
2.44576	0.57683	0.01154
2.44094	0.54909	0.01098
2.43615	0.57202	0.01144
2.43137	0.5013	0.01003
2.42661	0.69115	0.01382
2.42188	0.61789	0.01236
2.41715	0.57442	0.01149
2.41245	0.5518	0.01104
2.40777	0.43563	0.00871
2.4031	0.47356	0.00947
2.39845	0.509	0.01018
2.39382	0.48447	0.00969
2.38921	0.46808	0.00936
2.38462	0.55401	0.01108
2.38004	0.50349	0.01007
2.37548	0.49184	0.00984
2.37094	0.45524	0.0091
2.36641	0.45788	0.00916
2.3619	0.43345	0.00867
2.35741	0.41937	0.00839
2.35294	0.53862	0.01077
2.34848	0.5552	0.0111
2.34405	0.43507	0.0087
2.33962	0.4696	0.00939
2.33522	0.44427	0.00889
2.33083	0.44494	0.0089
2.32645	0.46007	0.0092
2.3221	0.40184	0.00804
2.31776	0.50371	0.01007
2.31343	0.58628	0.01173
2.30912	0.37736	0.00755
2.30483	0.316	0.00632
2.30056	0.36304	0.00726
2.2963	0.50687	0.01014
2.29205	0.35429	0.00709
2.28782	0.41658	0.00833
2.28361	0.40451	0.00809
2.27941	0.43866	0.00877
2.27523	0.34904	0.00698
2.27106	0.38124	0.00762
2.26691	0.47201	0.00944
2.26277	0.36075	0.00721
2.25865	0.46195	0.00924
2.25455	0.45086	0.00902
2.25045	0.32725	0.00654
2.24638	0.39108	0.00782
2.24231	0.35429	0.00709
2.23827	0.24844	0.00497
2.23423	0.35625	0.00712
2.23022	0.357	0.00714
2.22621	0.3306	0.00661
2.22222	0.2963	0.00593
2.21825	0.24394	0.00488
2.21429	0.32452	0.00649
2.21034	0.27082	0.00542
2.20641	0.25201	0.00504
2.20249	0.20801	0.00416
2.19858	0.37075	0.00741
2.19469	0.39934	0.00799
2.19081	0.31671	0.00633
2.18695	0.2518	0.00504
2.1831	0.32806	0.00656
2.17926	0.25679	0.00514
2.17544	0.31613	0.00632
2.17163	0.36062	0.00721
2.16783	0.30627	0.00613
2.16405	0.38289	0.00766
2.16028	0.21961	0.00439
2.15652	0.40545	0.00811
2.15278	0.40803	0.00816
2.14905	0.29564	0.00591
2.14533	0.26631	0.00533
2.14162	0.34367	0.00687
2.13793	0.24752	0.00495
2.13425	0.29298	0.00586
2.13058	0.28797	0.00576
2.12693	0.29034	0.00581
2.12329	0.28971	0.00579
2.11966	0.48033	0.00961
2.11604	0.28535	0.00571
2.11244	0.33244	0.00665
2.10884	0.2865	0.00573
2.10526	0.28329	0.00567
2.10169	0.26723	0.00534
2.09814	0.31913	0.00638
2.09459	0.23209	0.00464
2.09106	0.42369	0.00847
2.08754	0.39306	0.00786
2.08403	0.33257	0.00665
2.08054	0.2711	0.00542
2.07705	0.29961	0.00599
2.07358	0.45097	0.00902
2.07012	0.3645	0.00729
2.06667	0.42629	0.00853
2.06323	0.305	0.0061
2.0598	0.42421	0.00848
2.05638	0.26701	0.00534
2.05298	0.32368	0.00647
2.04959	0.4525	0.00905
2.0462	0.28696	0.00574
2.04283	0.38102	0.00762
2.03947	0.37616	0.00752
2.03612	0.36407	0.00728
2.03279	0.55184	0.01104
2.02946	0.37807	0.00756
2.02614	0.34748	0.00695
2.02284	0.32742	0.00655
2.01954	0.34181	0.00684
2.01626	0.42975	0.0086
2.01299	0.40139	0.00803
2.00972	0.31835	0.00637
2.00647	0.42133	0.00843
2.00323	0.2865	0.00573
2	0.35129	0.00703
1.99678	0.31638	0.00633
1.99357	0.39618	0.00792
1.99037	0.51516	0.0103
1.98718	0.40886	0.00818
1.984	0.37101	0.00742
1.98083	0.45679	0.00914
1.97767	0.36957	0.00739
1.97452	0.40676	0.00814
1.97138	0.38259	0.00765
1.96825	0.50096	0.01002
1.96513	0.43515	0.0087
1.96203	0.39129	0.00783
1.95893	0.43996	0.0088
1.95584	0.40466	0.00809
1.95276	0.48801	0.00976
1.94969	0.4246	0.00849
1.94662	0.40996	0.0082
1.94357	0.47616	0.00952
1.94053	0.48108	0.00962
1.9375	0.46864	0.00937
1.93448	0.46028	0.00921
1.93146	0.51026	0.01021
1.92846	0.49448	0.00989
1.92547	0.5313	0.01063
1.92248	0.51205	0.01024
1.9195	0.3322	0.00664
1.91654	0.43905	0.00878
1.91358	0.63652	0.01273
1.91063	0.54563	0.01091
1.90769	0.51435	0.01029
1.90476	0.44814	0.00896
1.90184	0.54106	0.01082
1.89893	0.59973	0.01199
1.89602	0.53606	0.01072
1.89313	0.52265	0.01045
1.89024	0.5326	0.01065
1.88737	0.54903	0.01098
1.8845	0.45032	0.00901
1.88164	0.46192	0.00924
1.87879	0.54773	0.01095
1.87595	0.40856	0.00817
1.87311	0.45897	0.00918
1.87029	0.4901	0.0098
1.86747	0.47237	0.00945
1.86466	0.54134	0.01083
1.86186	0.53823	0.01076
1.85907	0.46066	0.00921
1.85629	0.54416	0.01088
1.85351	0.53785	0.01076
1.85075	0.47829	0.00957
1.84799	0.47132	0.00943
1.84524	0.59286	0.01186
1.8425	0.50347	0.01007
1.83976	0.59044	0.01181
1.83704	0.59317	0.01186
1.83432	0.39337	0.00787
1.83161	0.41284	0.00826
1.82891	0.49581	0.00992
1.82622	0.52502	0.0105
1.82353	0.63471	0.01269
1.82085	0.47405	0.00948
1.81818	0.53568	0.01071
1.81552	0.53452	0.01069
1.81287	0.49633	0.00993
1.81022	0.48667	0.00973
1.80758	0.50487	0.0101
1.80495	0.6336	0.01267
1.80233	0.58392	0.01168
1.79971	0.63826	0.01277
1.7971	0.70842	0.01417
1.7945	0.60025	0.012
1.79191	0.62688	0.01254
1.78932	0.47411	0.00948
1.78674	0.55029	0.01101
1.78417	0.51508	0.0103
1.78161	0.55286	0.01106
1.77905	0.59258	0.01185
1.7765	0.41941	0.00839
1.77396	0.48976	0.0098
1.77143	0.5774	0.01155
1.7689	0.586	0.01172
1.76638	0.46389	0.00928
1.76387	0.47668	0.00953
1.76136	0.46694	0.00934
1.75887	0.49666	0.00993
1.75637	0.35506	0.0071
1.75389	0.68559	0.01371
1.75141	0.41485	0.0083
1.74894	0.54943	0.01099
1.74648	0.53238	0.01065
1.74402	0.5704	0.01141
1.74157	0.61377	0.01228
1.73913	0.52919	0.01058
1.73669	0.64473	0.01289
1.73427	0.52847	0.01057
1.73184	0.57638	0.01153
1.72943	0.50369	0.01007
1.72702	0.6881	0.01376
1.72462	0.46788	0.00936
1.72222	0.46788	0.00936
1.71983	0.42497	0.0085
1.71745	0.43445	0.00869
1.71508	0.34613	0.00692
1.71271	0.46294	0.00926
1.71034	0.38387	0.00768
1.70799	0.34474	0.00689
1.70564	0.41231	0.00825
1.7033	0.46788	0.00936
1.70096	0.42497	0.0085
1.69863	0.43445	0.00869
1.69631	0.34613	0.00692
1.69399	0.46294	0.00926
1.69168	0.38387	0.00768
1.68937	0.34474	0.00689
1.68707	0.41231	0.00825
1.68478	0.42497	0.0085
1.6825	0.43445	0.00869
1.68022	0.34613	0.00692
1.67794	0.46294	0.00926
1.67568	0.38387	0.00768
1.67341	0.34474	0.00689
1.67116	0.41231	0.00825
1.66891	0.38316	0.00766
1.66667	0.27728	0.00555
1.66443	0.39621	0.00792
1.6622	0.49503	0.0099
1.65997	0.3441	0.00688
1.65775	0.41662	0.00833
1.65554	0.31845	0.00637
1.65333	0.37007	0.0074
1.65113	0.30815	0.00616
1.64894	0.36028	0.00721
1.64675	0.28754	0.00575
1.64456	0.34427	0.00689
1.64238	0.2851	0.0057
1.64021	0.22844	0.00457
1.63804	0.29661	0.00593
1.63588	0.3458	0.00692
1.63373	0.33728	0.00675
1.63158	0.31415	0.00628
1.62943	0.42393	0.00848
1.6273	0.38271	0.00765
1.62516	0.29886	0.00598
1.62304	0.32112	0.00642
1.62092	0.22631	0.00453
1.6188	0.33222	0.00664
1.61669	0.28422	0.00568
1.61458	0.33725	0.00675
1.61248	0.27645	0.00553
1.61039	0.18246	0.00365
1.6083	0.2777	0.00555
1.60622	0.35109	0.00702
1.60414	0.18234	0.00365
1.60207	0.23012	0.0046
1.6	0.30261	0.00605
1.59794	0.26422	0.00528
1.59588	0.22852	0.00457
1.59383	0.37222	0.00744
1.59178	0.2508	0.00502
1.58974	0.21056	0.00421
1.58771	0.24867	0.00497
1.58568	0.26957	0.00539
1.58365	0.15844	0.00317
1.58163	0.29352	0.00587
1.57962	0.30219	0.00604
1.57761	0.24127	0.00483
1.5756	0.16439	0.00329
1.5736	0.2098	0.0042
1.57161	0.22166	0.00443
1.56962	0.21595	0.00432
1.56764	0.22905	0.00458
1.56566	0.2174	0.00435
1.56368	0.23775	0.00475
1.56171	0.21603	0.00432
1.55975	0.18097	0.00362
1.55779	0.20434	0.00409
1.55583	0.16447	0.00329
1.55388	0.12635	0.00253
1.55194	0.1996	0.00399
1.55	0.17744	0.00355
1.54806	0.23314	0.00466
1.54613	0.19992	0.004
1.54421	0.13116	0.00262
1.54229	0.23266	0.00465
1.54037	0.1561	0.00312
1.53846	0.18885	0.00378
1.53656	0.09871	0.00197
1.53465	0.12331	0.00247
1.53276	0.22439	0.00449
1.53086	0.16519	0.0033
1.52898	0.1483	0.00297
1.52709	0.18168	0.00363
1.52522	0.24298	0.00486
1.52334	0.21154	0.00423
1.52147	0.21148	0.00423
1.51961	0.12096	0.00242
1.51775	0.32961	0.00659
1.51589	0.06459	0.00129
1.51404	0.14015	0.0028
1.5122	0.10891	0.00218
1.51035	0.29899	0.00598
1.50852	0.15637	0.00313
1.50668	0.14579	0.00292
1.50485	0.10815	0.00216
1.50303	0.11122	0.00222
1.50121	0.18499	0.0037
1.4994	0.09786	0.00196
1.49758	0.1193	0.00239
1.49578	0.08051	0.00161
1.49398	0.17086	0.00342
1.49218	0.20586	0.00412
1.49038	0.09033	0.00181
1.4886	-0.00789	-1.57746E-4
1.48681	0.22188	0.00444
1.48503	0.17906	0.00358
1.48325	0.12092	0.00242
1.48148	0.146	0.00292
1.47971	0.16969	0.00339
1.47795	0.08464	0.00169
1.47619	0.14178	0.00284
1.47444	0.19618	0.00392
1.47268	0.16275	0.00326
1.47094	0.14937	0.00299
1.46919	0.12797	0.00256
1.46746	0.08068	0.00161
1.46572	0.20512	0.0041
1.46399	0.00184	3.6844E-5
1.46226	0.10504	0.0021
1.46054	0.16339	0.00327
1.45882	0.11833	0.00237
1.45711	0.12209	0.00244
1.4554	0.04198	8.39604E-4
1.45369	0.04402	8.80474E-4
1.45199	0.11556	0.00231
1.45029	0.14107	0.00282
1.4486	0.17134	0.00343
1.44691	0.10995	0.0022
1.44522	0.0204	4.07968E-4
1.44354	0.08722	0.00174
1.44186	0.12873	0.00257
1.44019	0.15482	0.0031
1.43852	0.08117	0.00162
1.43685	0.12414	0.00248
1.43519	0.06568	0.00131
1.43353	0.10478	0.0021
1.43187	0.07762	0.00155
1.43022	0.11409	0.00228
1.42857	0.01698	3.39648E-4
1.42693	0.13481	0.0027
1.42529	0.13106	0.00262
1.42365	0.14538	0.00291
1.42202	0.12978	0.0026
1.42039	0.07809	0.00156
1.41876	0.04893	9.78684E-4
1.41714	0.04607	9.21344E-4
1.41553	0.07462	0.00149
1.41391	0.11986	0.0024
1.4123	0.04884	9.76854E-4
1.41069	0.03817	7.63476E-4
1.40909	0.0214	4.27976E-4
1.40749	0.03477	6.954E-4
1.4059	0.10818	0.00216
1.4043	0.12962	0.00259
1.40271	0.08957	0.00179
1.40113	0.08075	0.00161
1.39955	0.09412	0.00188
1.39797	0.15948	0.00319
1.3964	0.04121	8.24232E-4
1.39483	0.10743	0.00215
1.39326	0.03054	6.10854E-4
1.39169	0.09374	0.00187
1.39013	0.05755	0.00115
1.38858	0.02681	5.3619E-4
1.38702	0.03351	6.70146E-4
1.38547	0.06624	0.00132
1.38393	0.08799	0.00176
1.38239	0.12284	0.00246
1.38085	0.06197	0.00124
1.37931	0.01219	2.43756E-4
1.37778	-0.00279	-5.5754E-5
