3.54286	-0.00206
3.5378	8.784E-4
3.53276	-5.49E-5
3.52774	0.00236
3.52273	0.00226
3.51773	0.00179
3.51275	-0.00104
3.50778	0.00201
3.50282	1.586E-4
3.49788	0.00193
3.49296	3.416E-4
3.48805	0.00152
3.48315	-2.806E-4
3.47826	0.00187
3.47339	6.588E-4
3.46853	0.00176
3.46369	0.00262
3.45886	7.137E-4
3.45404	0.0021
3.44924	0.00129
3.44444	0.00336
3.43967	0.00547
3.4349	0.00875
3.43015	0.00672
3.42541	0.00666
3.42069	0.01018
3.41598	0.01126
3.41128	0.01492
3.40659	0.01716
3.40192	0.02322
3.39726	0.02743
3.39261	0.03742
3.38798	0.05287
3.38336	0.08837
3.37875	0.15887
3.37415	0.25424
3.36957	0.36058
3.36499	0.51934
3.36043	0.92261
3.35589	1.54317
3.35135	1.39704
3.34683	0.73692
3.34232	0.47097
3.33782	0.40652
3.33333	0.4585
3.32886	0.64636
3.3244	1.03125
3.31995	1.95612
3.31551	3.4356
3.31108	4.57845
3.30667	4.9533
3.30226	4.60096
3.29787	4.05272
3.29349	3.37286
3.28912	2.65038
3.28477	2.29612
3.28042	2.09299
3.27609	2.05924
3.27177	2.14478
3.26746	2.1319
3.26316	2.23245
3.25887	2.25789
3.25459	2.26913
3.25033	2.31254
3.24607	2.3051
3.24183	2.31849
3.2376	2.31809
3.23338	2.24722
3.22917	2.1015
3.22497	1.89922
3.22078	1.54484
3.2166	1.35043
3.21244	1.14759
3.20828	1.08485
3.20413	1.03296
3.2	0.98214
3.19588	0.99539
3.19176	0.9733
3.18766	0.97651
3.18357	0.9958
3.17949	0.97233
3.17542	1.0166
3.17136	1.00953
3.16731	1.02049
3.16327	1.03727
3.15924	0.98948
3.15522	0.93926
3.15121	0.87883
3.14721	0.76964
3.14322	0.69733
3.13924	0.60619
3.13527	0.56055
3.13131	0.52603
3.12736	0.47485
3.12343	0.45526
3.1195	0.4434
3.11558	0.4333
3.11167	0.43067
3.10777	0.4258
3.10388	0.41487
3.1	0.41538
3.09613	0.40542
3.09227	0.40073
3.08842	0.38056
3.08458	0.35414
3.08075	0.34857
3.07692	0.30729
3.07311	0.28521
3.06931	0.26269
3.06551	0.23531
3.06173	0.23106
3.05795	0.21071
3.05419	0.20244
3.05043	0.19666
3.04668	0.18565
3.04294	0.17583
3.03922	0.18072
3.0355	0.16831
3.03178	0.16313
3.02808	0.16413
3.02439	0.15246
3.02071	0.1429
3.01703	0.14077
3.01337	0.13239
3.00971	0.12744
3.00606	0.11949
3.00242	0.11158
2.99879	0.10955
2.99517	0.09656
2.99156	0.09076
2.98795	0.08538
2.98436	0.08073
2.98077	0.07986
2.97719	0.07504
2.97362	0.0691
2.97006	0.0692
2.96651	0.06914
2.96296	0.06369
2.95943	0.06278
2.9559	0.05957
2.95238	0.05768
2.94887	0.05391
2.94537	0.05193
2.94187	0.04698
2.93839	0.04576
2.93491	0.04556
2.93144	0.04208
2.92798	0.0375
2.92453	0.03562
2.92108	0.03493
2.91765	0.03071
2.91422	0.0355
2.9108	0.03328
2.90739	0.02777
2.90398	0.02857
2.90058	0.0278
2.8972	0.02472
2.89382	0.02461
2.89044	0.02314
2.88708	0.02193
2.88372	0.0213
2.88037	0.02084
2.87703	0.0225
2.8737	0.01951
2.87037	0.01882
2.86705	0.01865
2.86374	0.01894
2.86044	0.01614
2.85714	0.01709
2.85386	0.01635
2.85057	0.01759
2.8473	0.01206
2.84404	0.00966
2.84078	0.01386
2.83753	0.01399
2.83429	0.01271
2.83105	0.01456
2.82782	0.01155
2.8246	0.01158
2.82139	0.01037
2.81818	0.01011
2.81498	0.0106
2.81179	0.01293
2.80861	0.00764
