<?xml version="1.0" encoding="UTF-8" standalone="no"?>
<!-- Created with Inkscape (http://www.inkscape.org/) -->

<svg
   xmlns:dc="http://purl.org/dc/elements/1.1/"
   xmlns:cc="http://creativecommons.org/ns#"
   xmlns:rdf="http://www.w3.org/1999/02/22-rdf-syntax-ns#"
   xmlns:svg="http://www.w3.org/2000/svg"
   xmlns="http://www.w3.org/2000/svg"
   xmlns:xlink="http://www.w3.org/1999/xlink"
   xmlns:sodipodi="http://sodipodi.sourceforge.net/DTD/sodipodi-0.dtd"
   xmlns:inkscape="http://www.inkscape.org/namespaces/inkscape"
   width="150mm"
   height="60mm"
   viewBox="0 0 150 60"
   version="1.1"
   id="svg8"
   inkscape:version="0.92.2 (5c3e80d, 2017-08-06)"
   sodipodi:docname="_layout_jpk_lying.svg">
  <defs
     id="defs2">
    <marker
       inkscape:isstock="true"
       style="overflow:visible;"
       id="marker4931"
       refX="0.0"
       refY="0.0"
       orient="auto"
       inkscape:stockid="Arrow1Mend">
      <path
         transform="scale(0.4) rotate(180) translate(10,0)"
         style="fill-rule:evenodd;stroke:#ffffff;stroke-width:1pt;stroke-opacity:1;fill:#ffffff;fill-opacity:1"
         d="M 0.0,0.0 L 5.0,-5.0 L -12.5,0.0 L 5.0,5.0 L 0.0,0.0 z "
         id="path4929" />
    </marker>
    <clipPath
       clipPathUnits="userSpaceOnUse"
       id="clipPath878">
      <rect
         style="opacity:0.25;fill:#00ff00;fill-opacity:1;stroke:#000000;stroke-width:0.26458332;stroke-miterlimit:4;stroke-dasharray:0.26458331, 0.26458331;stroke-dashoffset:0;stroke-opacity:1"
         id="rect880"
         width="59.095146"
         height="59.095146"
         x="9.0063162"
         y="237.3652" />
    </clipPath>
  </defs>
  <sodipodi:namedview
     id="base"
     pagecolor="#ffffff"
     bordercolor="#666666"
     borderopacity="1.0"
     inkscape:pageopacity="0.0"
     inkscape:pageshadow="2"
     inkscape:zoom="1.9412134"
     inkscape:cx="273.07547"
     inkscape:cy="113.71549"
     inkscape:document-units="mm"
     inkscape:current-layer="layer2"
     showgrid="false"
     inkscape:window-width="1858"
     inkscape:window-height="1177"
     inkscape:window-x="54"
     inkscape:window-y="-8"
     inkscape:window-maximized="1" />
  <metadata
     id="metadata5">
    <rdf:RDF>
      <cc:Work
         rdf:about="">
        <dc:format>image/svg+xml</dc:format>
        <dc:type
           rdf:resource="http://purl.org/dc/dcmitype/StillImage" />
        <dc:title></dc:title>
      </cc:Work>
    </rdf:RDF>
  </metadata>
  <g
     inkscape:label="Bitmaps"
     inkscape:groupmode="layer"
     id="layer1"
     transform="translate(0,-237)"
     style="display:inline">
    <image
       sodipodi:absref="C:\Repa\dip\img\svg\bitmaps/qi-fit-2018.04.05-17.27.56.763_reference-force-height-default_512_plain.png"
       xlink:href="bitmaps/qi-fit-2018.04.05-17.27.56.763_reference-force-height-default_512_plain.png"
       width="59.095146"
       height="59.095146"
       preserveAspectRatio="none"
       id="image840"
       x="76.210533"
       y="237.3652" />
    <image
       sodipodi:absref="C:\Repa\dip\img\svg\bitmaps/20180411_529_green1b_100um_SE_deg55.tif"
       xlink:href="bitmaps/20180411_529_green1b_100um_SE_deg55.tif"
       transform="matrix(1.0385486,0,0,1,-4.051348,0)"
       clip-path="url(#clipPath878)"
       width="59.095146"
       height="66.02037"
       preserveAspectRatio="none"
       id="image851"
       x="9.0063162"
       y="237.3652" />
    <image
       sodipodi:absref="C:\Repa\dip\img\svg\bitmaps/colorscale.png"
       xlink:href="bitmaps/colorscale.png"
       style="stroke:none;stroke-width:10;stroke-miterlimit:4;stroke-dasharray:none"
       width="5.2916665"
       height="46.529087"
       preserveAspectRatio="none"
       id="image890"
       x="140.60176"
       y="243.64822" />
    <rect
       style="opacity:1;fill:none;fill-opacity:1;stroke:#000000;stroke-width:0.15;stroke-miterlimit:4;stroke-dasharray:none;stroke-dashoffset:0;stroke-opacity:1"
       id="rect915"
       width="5.2916665"
       height="46.529087"
       x="140.60175"
       y="243.64822" />
  </g>
  <g
     inkscape:groupmode="layer"
     id="layer2"
     inkscape:label="Labels"
     transform="translate(0,10)"
     style="display:inline">
    <rect
       style="opacity:1;fill:#ffffff;fill-opacity:1;stroke:#ffffff;stroke-width:0.19842908;stroke-miterlimit:4;stroke-dasharray:none;stroke-dashoffset:0;stroke-opacity:1"
       id="rect5279"
       width="11.426606"
       height="0.59743494"
       x="78.74025"
       y="46.750072" />
    <rect
       y="47.036209"
       x="7.7560859"
       height="0.61080164"
       width="11.714048"
       id="rect942"
       style="opacity:1;fill:#ffffff;fill-opacity:1;stroke:#ffffff;stroke-width:0.20314446;stroke-miterlimit:4;stroke-dasharray:none;stroke-dashoffset:0;stroke-opacity:1" />
    <text
       id="text946"
       y="45.294628"
       x="13.259215"
       style="font-style:normal;font-weight:normal;font-size:10.90431786px;line-height:1.25;font-family:sans-serif;text-align:center;letter-spacing:0px;word-spacing:0px;text-anchor:middle;fill:#000000;fill-opacity:1;stroke:none;stroke-width:0.27260795"
       xml:space="preserve"><tspan
         style="font-size:3.63477278px;text-align:center;text-anchor:middle;fill:#000000;stroke-width:0.27260795"
         y="45.294628"
         x="13.259214"
         id="tspan944"
         sodipodi:role="line">\color{white}$20~\si{\micro\metre}$</tspan></text>
    <text
       xml:space="preserve"
       style="font-style:normal;font-weight:normal;font-size:10.90431786px;line-height:1.25;font-family:sans-serif;text-align:center;letter-spacing:0px;word-spacing:0px;text-anchor:middle;fill:#000000;fill-opacity:1;stroke:none;stroke-width:0.27260795"
       x="84.16761"
       y="45.294628"
       id="text876"><tspan
         sodipodi:role="line"
         id="tspan874"
         x="84.16761"
         y="45.294628"
         style="font-size:3.63477278px;text-align:center;text-anchor:middle;fill:#000000;stroke-width:0.27260795">\color{white}$2~\si{\micro\metre}$</tspan></text>
    <text
       xml:space="preserve"
       style="font-style:normal;font-weight:normal;font-size:10.90431786px;line-height:1.25;font-family:sans-serif;text-align:center;letter-spacing:0px;word-spacing:0px;text-anchor:middle;display:inline;fill:#000000;fill-opacity:1;stroke:none;stroke-width:0.27260795"
       x="143.21951"
       y="-6.5548925"
       id="text876-2"><tspan
         sodipodi:role="line"
         id="tspan874-7"
         x="143.21951"
         y="-6.5548925"
         style="font-size:3.63477278px;text-align:center;text-anchor:middle;fill:#000000;stroke-width:0.27260795">$1.9~\si{\micro\metre}$</tspan></text>
    <text
       id="text913"
       y="48.187008"
       x="143.21951"
       style="font-style:normal;font-weight:normal;font-size:10.90431786px;line-height:1.25;font-family:sans-serif;text-align:center;letter-spacing:0px;word-spacing:0px;text-anchor:middle;display:inline;fill:#000000;fill-opacity:1;stroke:none;stroke-width:0.27260795"
       xml:space="preserve"><tspan
         style="font-size:3.63477278px;text-align:center;text-anchor:middle;fill:#000000;stroke-width:0.27260795"
         y="48.187008"
         x="143.21951"
         id="tspan911"
         sodipodi:role="line">$0~\si{\micro\metre}$</tspan></text>
    <g
       id="g4612"
       transform="matrix(0.68671012,0,0,0.68671012,30.559428,8.1595857)">
      <path
         inkscape:connector-curvature="0"
         id="path4606"
         d="m 86.408995,22.306136 3.126876,3.126876"
         style="fill:#ffffff;stroke:#ffffff;stroke-width:0.5;stroke-linecap:butt;stroke-linejoin:miter;stroke-miterlimit:4;stroke-dasharray:none;stroke-opacity:1" />
      <path
         style="fill:#ffffff;stroke:#ffffff;stroke-width:0.5;stroke-linecap:butt;stroke-linejoin:miter;stroke-miterlimit:4;stroke-dasharray:none;stroke-opacity:1"
         d="m 89.535872,22.306136 -3.126876,3.126876"
         id="path4608"
         inkscape:connector-curvature="0" />
    </g>
    <text
       id="text4628"
       y="28.666283"
       x="88.392845"
       style="font-style:normal;font-weight:normal;font-size:10.90431786px;line-height:1.25;font-family:sans-serif;text-align:center;letter-spacing:0px;word-spacing:0px;text-anchor:middle;fill:#000000;fill-opacity:1;stroke:none;stroke-width:0.27260795"
       xml:space="preserve"><tspan
         style="font-size:3.63477278px;text-align:center;text-anchor:middle;fill:#000000;stroke-width:0.27260795"
         y="28.666283"
         x="88.392845"
         id="tspan4626"
         sodipodi:role="line">\color{white}1</tspan></text>
    <g
       transform="matrix(0.68671012,0,0,0.68671012,50.667774,10.805419)"
       id="g4642">
      <path
         style="fill:#ffffff;stroke:#ffffff;stroke-width:0.5;stroke-linecap:butt;stroke-linejoin:miter;stroke-miterlimit:4;stroke-dasharray:none;stroke-opacity:1"
         d="m 86.408995,22.306136 3.126876,3.126876"
         id="path4638"
         inkscape:connector-curvature="0" />
      <path
         inkscape:connector-curvature="0"
         id="path4640"
         d="m 89.535872,22.306136 -3.126876,3.126876"
         style="fill:#ffffff;stroke:#ffffff;stroke-width:0.5;stroke-linecap:butt;stroke-linejoin:miter;stroke-miterlimit:4;stroke-dasharray:none;stroke-opacity:1" />
    </g>
    <text
       xml:space="preserve"
       style="font-style:normal;font-weight:normal;font-size:10.90431786px;line-height:1.25;font-family:sans-serif;text-align:center;letter-spacing:0px;word-spacing:0px;text-anchor:middle;fill:#000000;fill-opacity:1;stroke:none;stroke-width:0.27260795"
       x="108.50117"
       y="31.312119"
       id="text4646"><tspan
         sodipodi:role="line"
         id="tspan4644"
         x="108.50117"
         y="31.312119"
         style="font-size:3.63477278px;text-align:center;text-anchor:middle;fill:#000000;stroke-width:0.27260795">\color{white}2</tspan></text>
    <g
       id="g4652"
       transform="matrix(0.68671012,0,0,0.68671012,68.659452,13.451254)">
      <path
         inkscape:connector-curvature="0"
         id="path4648"
         d="m 86.408995,22.306136 3.126876,3.126876"
         style="fill:#ffffff;stroke:#ffffff;stroke-width:0.5;stroke-linecap:butt;stroke-linejoin:miter;stroke-miterlimit:4;stroke-dasharray:none;stroke-opacity:1" />
      <path
         style="fill:#ffffff;stroke:#ffffff;stroke-width:0.5;stroke-linecap:butt;stroke-linejoin:miter;stroke-miterlimit:4;stroke-dasharray:none;stroke-opacity:1"
         d="m 89.535872,22.306136 -3.126876,3.126876"
         id="path4650"
         inkscape:connector-curvature="0" />
    </g>
    <text
       id="text4656"
       y="33.957954"
       x="126.49282"
       style="font-style:normal;font-weight:normal;font-size:10.90431786px;line-height:1.25;font-family:sans-serif;text-align:center;letter-spacing:0px;word-spacing:0px;text-anchor:middle;fill:#000000;fill-opacity:1;stroke:none;stroke-width:0.27260795"
       xml:space="preserve"><tspan
         style="font-size:3.63477278px;text-align:center;text-anchor:middle;fill:#000000;stroke-width:0.27260795"
         y="33.957954"
         x="126.49282"
         id="tspan4654"
         sodipodi:role="line">\color{white}3</tspan></text>
    <rect
       style="opacity:1;fill:none;fill-opacity:1;stroke:#ffffff;stroke-width:0.44234744;stroke-miterlimit:4;stroke-dasharray:none;stroke-dashoffset:0;stroke-opacity:1"
       id="rect4658"
       width="7.8266335"
       height="6.7362504"
       x="39.49757"
       y="31.434654" />
  </g>
</svg>
