<?xml version="1.0" encoding="UTF-8" standalone="no"?>
<!-- Created with Inkscape (http://www.inkscape.org/) -->

<svg
   xmlns:dc="http://purl.org/dc/elements/1.1/"
   xmlns:cc="http://creativecommons.org/ns#"
   xmlns:rdf="http://www.w3.org/1999/02/22-rdf-syntax-ns#"
   xmlns:svg="http://www.w3.org/2000/svg"
   xmlns="http://www.w3.org/2000/svg"
   xmlns:sodipodi="http://sodipodi.sourceforge.net/DTD/sodipodi-0.dtd"
   xmlns:inkscape="http://www.inkscape.org/namespaces/inkscape"
   width="150.96054mm"
   height="65mm"
   viewBox="0 0 150.96054 65.000001"
   version="1.1"
   id="svg8"
   inkscape:version="0.92.2 (5c3e80d, 2017-08-06)"
   sodipodi:docname="batch_reactor.svg">
  <defs
     id="defs2">
    <inkscape:path-effect
       effect="bspline"
       id="path-effect1770"
       is_visible="true"
       weight="33.333333"
       steps="2"
       helper_size="0"
       apply_no_weight="true"
       apply_with_weight="true"
       only_selected="false" />
    <marker
       inkscape:isstock="true"
       style="overflow:visible"
       id="marker16026"
       refX="0"
       refY="0"
       orient="auto"
       inkscape:stockid="Arrow2Mend">
      <path
         transform="scale(-0.6)"
         d="M 8.7185878,4.0337352 -2.2072895,0.01601326 8.7185884,-4.0017078 c -1.7454984,2.3720609 -1.7354408,5.6174519 -6e-7,8.035443 z"
         style="fill:#000000;fill-opacity:1;fill-rule:evenodd;stroke:#000000;stroke-width:0.625;stroke-linejoin:round;stroke-opacity:1"
         id="path16024"
         inkscape:connector-curvature="0" />
    </marker>
    <marker
       inkscape:isstock="true"
       style="overflow:visible"
       id="marker13162"
       refX="0"
       refY="0"
       orient="auto"
       inkscape:stockid="Arrow2Mend">
      <path
         transform="scale(-0.6)"
         d="M 8.7185878,4.0337352 -2.2072895,0.01601326 8.7185884,-4.0017078 c -1.7454984,2.3720609 -1.7354408,5.6174519 -6e-7,8.035443 z"
         style="fill:#000000;fill-opacity:1;fill-rule:evenodd;stroke:#000000;stroke-width:0.625;stroke-linejoin:round;stroke-opacity:1"
         id="path13160"
         inkscape:connector-curvature="0" />
    </marker>
    <marker
       inkscape:isstock="true"
       style="overflow:visible"
       id="marker12666"
       refX="0"
       refY="0"
       orient="auto"
       inkscape:stockid="Arrow2Mend">
      <path
         transform="scale(-0.6)"
         d="M 8.7185878,4.0337352 -2.2072895,0.01601326 8.7185884,-4.0017078 c -1.7454984,2.3720609 -1.7354408,5.6174519 -6e-7,8.035443 z"
         style="fill:#000000;fill-opacity:1;fill-rule:evenodd;stroke:#000000;stroke-width:0.625;stroke-linejoin:round;stroke-opacity:1"
         id="path12664"
         inkscape:connector-curvature="0" />
    </marker>
    <marker
       inkscape:stockid="Arrow2Mend"
       orient="auto"
       refY="0"
       refX="0"
       id="marker12186"
       style="overflow:visible"
       inkscape:isstock="true"
       inkscape:collect="always">
      <path
         inkscape:connector-curvature="0"
         id="path12184"
         style="fill:#000000;fill-opacity:1;fill-rule:evenodd;stroke:#000000;stroke-width:0.625;stroke-linejoin:round;stroke-opacity:1"
         d="M 8.7185878,4.0337352 -2.2072895,0.01601326 8.7185884,-4.0017078 c -1.7454984,2.3720609 -1.7354408,5.6174519 -6e-7,8.035443 z"
         transform="scale(-0.6)" />
    </marker>
    <marker
       inkscape:stockid="Arrow2Mend"
       orient="auto"
       refY="0"
       refX="0"
       id="marker11678"
       style="overflow:visible"
       inkscape:isstock="true"
       inkscape:collect="always">
      <path
         inkscape:connector-curvature="0"
         id="path11676"
         style="fill:#000000;fill-opacity:1;fill-rule:evenodd;stroke:#000000;stroke-width:0.625;stroke-linejoin:round;stroke-opacity:1"
         d="M 8.7185878,4.0337352 -2.2072895,0.01601326 8.7185884,-4.0017078 c -1.7454984,2.3720609 -1.7354408,5.6174519 -6e-7,8.035443 z"
         transform="scale(-0.6)" />
    </marker>
    <marker
       inkscape:stockid="Arrow2Mend"
       orient="auto"
       refY="0"
       refX="0"
       id="marker8786"
       style="overflow:visible"
       inkscape:isstock="true">
      <path
         id="path8784"
         style="fill:#000000;fill-opacity:1;fill-rule:evenodd;stroke:#000000;stroke-width:0.625;stroke-linejoin:round;stroke-opacity:1"
         d="M 8.7185878,4.0337352 -2.2072895,0.01601326 8.7185884,-4.0017078 c -1.7454984,2.3720609 -1.7354408,5.6174519 -6e-7,8.035443 z"
         transform="scale(-0.6)"
         inkscape:connector-curvature="0" />
    </marker>
    <marker
       inkscape:isstock="true"
       style="overflow:visible"
       id="marker8024"
       refX="0"
       refY="0"
       orient="auto"
       inkscape:stockid="Arrow2Mend">
      <path
         transform="scale(-0.6)"
         d="M 8.7185878,4.0337352 -2.2072895,0.01601326 8.7185884,-4.0017078 c -1.7454984,2.3720609 -1.7354408,5.6174519 -6e-7,8.035443 z"
         style="fill:#000000;fill-opacity:1;fill-rule:evenodd;stroke:#000000;stroke-width:0.625;stroke-linejoin:round;stroke-opacity:1"
         id="path8022"
         inkscape:connector-curvature="0" />
    </marker>
    <marker
       inkscape:stockid="Arrow2Lstart"
       orient="auto"
       refY="0"
       refX="0"
       id="Arrow2Lstart"
       style="overflow:visible"
       inkscape:isstock="true">
      <path
         id="path5924"
         style="fill:#000000;fill-opacity:1;fill-rule:evenodd;stroke:#000000;stroke-width:0.625;stroke-linejoin:round;stroke-opacity:1"
         d="M 8.7185878,4.0337352 -2.2072895,0.01601326 8.7185884,-4.0017078 c -1.7454984,2.3720609 -1.7354408,5.6174519 -6e-7,8.035443 z"
         transform="matrix(1.1,0,0,1.1,1.1,0)"
         inkscape:connector-curvature="0" />
    </marker>
    <marker
       inkscape:stockid="ExperimentalArrow"
       orient="auto-start-reverse"
       refY="3"
       refX="5"
       id="ExperimentalArrow"
       inkscape:isstock="true">
      <path
         id="path6159"
         d="M 10,3 0,6 V 0 Z"
         style="fill:context-stroke;stroke:#000000;stroke-opacity:1"
         inkscape:connector-curvature="0" />
    </marker>
    <marker
       inkscape:stockid="Tail"
       orient="auto"
       refY="0"
       refX="0"
       id="Tail"
       style="overflow:visible"
       inkscape:isstock="true">
      <g
         id="g5954"
         transform="scale(-1.2)"
         style="fill:#000000;fill-opacity:1;stroke:#000000;stroke-opacity:1">
        <path
           id="path6348"
           d="M -3.8048674,-3.9585227 0.54352094,0"
           style="fill:#000000;fill-opacity:1;fill-rule:evenodd;stroke:#000000;stroke-width:0.80000001;stroke-linecap:round;stroke-opacity:1"
           inkscape:connector-curvature="0" />
        <path
           id="path6350"
           d="M -1.2866832,-3.9585227 3.0617053,0"
           style="fill:#000000;fill-opacity:1;fill-rule:evenodd;stroke:#000000;stroke-width:0.80000001;stroke-linecap:round;stroke-opacity:1"
           inkscape:connector-curvature="0" />
        <path
           id="path5946"
           d="M 1.3053582,-3.9585227 5.6537466,0"
           style="fill:#000000;fill-opacity:1;fill-rule:evenodd;stroke:#000000;stroke-width:0.80000001;stroke-linecap:round;stroke-opacity:1"
           inkscape:connector-curvature="0" />
        <path
           id="path5948"
           d="M -3.8048674,4.1775838 0.54352094,0.21974226"
           style="fill:#000000;fill-opacity:1;fill-rule:evenodd;stroke:#000000;stroke-width:0.80000001;stroke-linecap:round;stroke-opacity:1"
           inkscape:connector-curvature="0" />
        <path
           id="path5950"
           d="M -1.2866832,4.1775838 3.0617053,0.21974226"
           style="fill:#000000;fill-opacity:1;fill-rule:evenodd;stroke:#000000;stroke-width:0.80000001;stroke-linecap:round;stroke-opacity:1"
           inkscape:connector-curvature="0" />
        <path
           id="path5952"
           d="M 1.3053582,4.1775838 5.6537466,0.21974226"
           style="fill:#000000;fill-opacity:1;fill-rule:evenodd;stroke:#000000;stroke-width:0.80000001;stroke-linecap:round;stroke-opacity:1"
           inkscape:connector-curvature="0" />
      </g>
    </marker>
    <marker
       inkscape:stockid="Arrow1Mend"
       orient="auto"
       refY="0"
       refX="0"
       id="marker6268"
       style="overflow:visible"
       inkscape:isstock="true">
      <path
         inkscape:connector-curvature="0"
         id="path6266"
         d="M 0,0 5,-5 -12.5,0 5,5 Z"
         style="fill:#000000;fill-opacity:1;fill-rule:evenodd;stroke:#000000;stroke-width:1.00000003pt;stroke-opacity:1"
         transform="matrix(-0.4,0,0,-0.4,-4,0)" />
    </marker>
    <marker
       inkscape:stockid="Arrow2Lend"
       orient="auto"
       refY="0"
       refX="0"
       id="Arrow2Lend"
       style="overflow:visible"
       inkscape:isstock="true">
      <path
         id="path5927"
         style="fill:#000000;fill-opacity:1;fill-rule:evenodd;stroke:#000000;stroke-width:0.625;stroke-linejoin:round;stroke-opacity:1"
         d="M 8.7185878,4.0337352 -2.2072895,0.01601326 8.7185884,-4.0017078 c -1.7454984,2.3720609 -1.7354408,5.6174519 -6e-7,8.035443 z"
         transform="matrix(-1.1,0,0,-1.1,-1.1,0)"
         inkscape:connector-curvature="0" />
    </marker>
    <marker
       inkscape:isstock="true"
       style="overflow:visible"
       id="marker6906"
       refX="0"
       refY="0"
       orient="auto"
       inkscape:stockid="Arrow1Mend">
      <path
         transform="matrix(-0.4,0,0,-0.4,-4,0)"
         style="fill:#000000;fill-opacity:1;fill-rule:evenodd;stroke:#000000;stroke-width:1.00000003pt;stroke-opacity:1"
         d="M 0,0 5,-5 -12.5,0 5,5 Z"
         id="path6904"
         inkscape:connector-curvature="0" />
    </marker>
    <marker
       inkscape:stockid="Arrow1Send"
       orient="auto"
       refY="0"
       refX="0"
       id="Arrow1Send"
       style="overflow:visible"
       inkscape:isstock="true">
      <path
         id="path4571"
         d="M 0,0 5,-5 -12.5,0 5,5 Z"
         style="fill:#000000;fill-opacity:1;fill-rule:evenodd;stroke:#000000;stroke-width:1.00000003pt;stroke-opacity:1"
         transform="matrix(-0.2,0,0,-0.2,-1.2,0)"
         inkscape:connector-curvature="0" />
    </marker>
    <marker
       inkscape:stockid="Arrow1Mend"
       orient="auto"
       refY="0"
       refX="0"
       id="Arrow1Mend"
       style="overflow:visible"
       inkscape:isstock="true">
      <path
         id="path4565"
         d="M 0,0 5,-5 -12.5,0 5,5 Z"
         style="fill:#000000;fill-opacity:1;fill-rule:evenodd;stroke:#000000;stroke-width:1.00000003pt;stroke-opacity:1"
         transform="matrix(-0.4,0,0,-0.4,-4,0)"
         inkscape:connector-curvature="0" />
    </marker>
    <marker
       inkscape:isstock="true"
       style="overflow:visible"
       id="marker9022-7"
       refX="0"
       refY="0"
       orient="auto"
       inkscape:stockid="Arrow2Mend">
      <path
         inkscape:connector-curvature="0"
         transform="scale(-0.6)"
         d="M 8.7185878,4.0337352 -2.2072895,0.01601326 8.7185884,-4.0017078 c -1.7454984,2.3720609 -1.7354408,5.6174519 -6e-7,8.035443 z"
         style="fill:#000000;fill-opacity:1;fill-rule:evenodd;stroke:#000000;stroke-width:0.625;stroke-linejoin:round;stroke-opacity:1"
         id="path9020-0" />
    </marker>
    <inkscape:path-effect
       only_selected="false"
       apply_with_weight="true"
       apply_no_weight="true"
       helper_size="0"
       steps="2"
       weight="33.333333"
       is_visible="true"
       id="path-effect5119"
       effect="bspline" />
    <mask
       maskUnits="userSpaceOnUse"
       id="mask1786">
      <rect
         style="fill:#b8e3eb;fill-opacity:1;stroke:none;stroke-width:0.76980036;stroke-miterlimit:4;stroke-dasharray:none;stroke-opacity:1"
         id="rect1788"
         width="58.06065"
         height="32.796844"
         x="49.553978"
         y="17.547071"
         d="M 49.553978,17.547071 H 107.61463 V 50.343916 H 49.553978 Z" />
    </mask>
  </defs>
  <sodipodi:namedview
     id="base"
     pagecolor="#ffffff"
     bordercolor="#666666"
     borderopacity="1.0"
     inkscape:pageopacity="0.0"
     inkscape:pageshadow="2"
     inkscape:zoom="2.7281746"
     inkscape:cx="265.11896"
     inkscape:cy="122.02232"
     inkscape:document-units="mm"
     inkscape:current-layer="layer3"
     showgrid="false"
     fit-margin-top="0"
     fit-margin-left="0"
     fit-margin-right="0"
     fit-margin-bottom="0"
     inkscape:window-width="1858"
     inkscape:window-height="1177"
     inkscape:window-x="54"
     inkscape:window-y="-8"
     inkscape:window-maximized="1" />
  <metadata
     id="metadata5">
    <rdf:RDF>
      <cc:Work
         rdf:about="">
        <dc:format>image/svg+xml</dc:format>
        <dc:type
           rdf:resource="http://purl.org/dc/dcmitype/StillImage" />
        <dc:title />
      </cc:Work>
    </rdf:RDF>
  </metadata>
  <g
     inkscape:groupmode="layer"
     id="layer2"
     inkscape:label="Background" />
  <g
     inkscape:groupmode="layer"
     id="layer5"
     inkscape:label="Seed layer rectangle"
     style="display:inline"
     transform="translate(0,-25)" />
  <g
     inkscape:groupmode="layer"
     id="layer4"
     inkscape:label="Seed layer"
     transform="translate(0,-25)"
     style="display:inline" />
  <g
     inkscape:groupmode="layer"
     id="layer3"
     inkscape:label="Substrate"
     transform="translate(0,5)"
     style="display:inline">
    <rect
       style="fill:#b3b3b3;fill-opacity:1;stroke:none;stroke-width:0.59142298;stroke-miterlimit:4;stroke-dasharray:none;stroke-opacity:1"
       id="rect5002"
       width="93.42688"
       height="7.7631545"
       x="31.455292"
       y="50.572884" />
    <rect
       y="50.572884"
       x="41.917892"
       height="3.5765567"
       width="72.501671"
       id="rect5004"
       style="fill:#cf4f55;fill-opacity:1;stroke:none;stroke-width:0.35363051;stroke-miterlimit:4;stroke-dasharray:none;stroke-opacity:1" />
  </g>
  <g
     inkscape:groupmode="layer"
     id="layer6"
     inkscape:label="Arm"
     transform="translate(0,-20)">
    <path
       inkscape:original-d="m 55.065637,75.21542 c 15.402747,-0.0012 30.804159,-0.0012 46.204273,0 2.36498,-0.06282 4.40171,-0.0012 6.60061,0 0.001,-2.200208 0.001,-4.401738 0,-6.600612 0.001,-13.194633 0.001,-26.403759 0,-39.603662 0.001,-2.201299 0.001,-4.401735 0,-6.600606 2.20021,-0.0013 4.40173,-0.0013 6.60063,0 -24.186412,-0.0013 -48.403184,-0.0013 -72.606736,0 2.201649,-0.0013 4.401722,-0.0013 6.600612,0 0.07499,2.090874 0.0012,4.399082 0,6.600606 0.0012,13.20782 0.0012,26.401121 0,39.603662 0.0012,2.199099 0.0012,4.399083 0,6.600612 2.202844,-0.0012 4.401721,-0.0012 6.600611,0 z"
       inkscape:path-effect="#path-effect5119"
       inkscape:connector-curvature="0"
       id="path5117"
       d="m 61.667566,75.21542 c 8.800818,0 24.20223,0 33.084777,0 8.882547,0 10.919277,0 12.018727,-1.100104 1.09945,-1.100104 1.09945,-3.301634 1.09945,-10.998388 0,-7.696753 0,-20.905879 0,-28.60648 0,-7.700601 0,-9.901037 1.10011,-11.000473 1.1001,-1.099435 3.30162,-1.099435 -7.69214,-1.099435 -10.993752,0 -35.210524,0 -46.211475,0 -11.000952,0 -8.800879,0 -7.701434,1.045437 1.099445,1.045437 1.099445,3.353645 1.099445,11.058317 0,7.704672 0,20.897973 0,28.598793 0,7.70082 0,9.900804 1.101422,11.001568 1.101422,1.100765 3.300299,1.100765 12.101118,1.100765 z"
       style="fill:#f1f9fb;fill-opacity:1;stroke:#4ab8cc;stroke-width:0.63344222;stroke-linecap:butt;stroke-linejoin:miter;stroke-miterlimit:4;stroke-dasharray:none;stroke-opacity:1" />
    <path
       style="fill:#b8e3eb;fill-opacity:1;stroke:#4ab8cc;stroke-width:0.5;stroke-linecap:butt;stroke-linejoin:miter;stroke-miterlimit:4;stroke-dasharray:none;stroke-opacity:1"
       d="m 66.494547,49.399465 c 6.946821,0 19.10374,0 26.115073,0 7.011332,0 8.619,0 9.48683,-0.868354 0.86784,-0.868353 0.86784,-2.606104 0.86784,-8.681444 0,-6.07534 0,-16.501805 0,-22.580182 0,-6.078376 0,-7.8152641 0.86836,-8.6830904 0.86835,-0.8678262 2.60609,-0.8678262 -6.071697,-0.8678262 -8.677786,0 -27.793002,0 -36.476471,0 -8.68347,0 -6.946869,0 -6.079035,0.8252032 0.867833,0.8252033 0.867833,2.6471594 0.867833,8.7287494 0,6.081591 0,16.495564 0,22.574113 0,6.07855 0,7.815081 0.869395,8.683956 0.869394,0.868875 2.605051,0.868875 9.551872,0.868875 z"
       id="path1768"
       inkscape:connector-curvature="0"
       inkscape:path-effect="#path-effect1770"
       inkscape:original-d="m 61.283394,49.399465 c 12.157974,-10e-4 24.314893,-10e-4 36.470783,0 1.866775,-0.04959 3.474443,-10e-4 5.210113,0 10e-4,-1.736707 10e-4,-3.474458 0,-5.210113 10e-4,-10.415025 10e-4,-20.84149 0,-31.260674 10e-4,-1.737569 10e-4,-3.4744571 0,-5.2101096 1.73671,-0.00103 3.47445,-0.00103 5.21012,0 -19.091243,-0.00103 -38.206459,-0.00103 -57.311243,0 1.737845,-0.00103 3.474446,-0.00103 5.210113,0 0.05919,1.6504065 0.001,3.4723626 0,5.2101096 0.001,10.425434 0.001,20.839407 0,31.260674 0.001,1.735832 0.001,3.472363 0,5.210113 1.738789,-10e-4 3.474446,-10e-4 5.210114,0 z"
       mask="url(#mask1786)"
       transform="matrix(1.2668844,0,0,1.2668844,-22.573341,12.632006)" />
    <rect
       style="display:inline;fill:#ffe680;fill-opacity:1;stroke:none;stroke-width:1.38047087;stroke-miterlimit:4;stroke-dasharray:none;stroke-opacity:1"
       id="rect11344"
       width="17.517433"
       height="1.5440904"
       x="69.364754"
       y="50.386086"
       transform="rotate(0.26871402)" />
    <path
       style="display:inline;fill:none;stroke:#4d4d4d;stroke-width:0.85267019;stroke-linecap:butt;stroke-linejoin:miter;stroke-miterlimit:4;stroke-dasharray:none;stroke-opacity:1"
       d="M 89.17234,74.334083 H 64.946967 V 50.334631 h 24.599247"
       id="path11342"
       inkscape:connector-curvature="0"
       sodipodi:nodetypes="cc" />
    <g
       id="g11901"
       transform="matrix(1.1115837,0,0,1.1115837,47.743594,21.075411)"
       style="fill:#cf4f55;fill-opacity:1">
      <circle
         r="0.54259992"
         cy="18.203455"
         cx="12.573029"
         id="path11812"
         style="fill:#cf4f55;fill-opacity:1;stroke:none;stroke-width:0.10827204;stroke-miterlimit:4;stroke-dasharray:none;stroke-opacity:1" />
      <circle
         style="fill:#cf4f55;fill-opacity:1;stroke:none;stroke-width:0.10827204;stroke-miterlimit:4;stroke-dasharray:none;stroke-opacity:1"
         id="circle11814"
         cx="13.639459"
         cy="18.23731"
         r="0.54259992" />
      <circle
         r="0.54259992"
         cy="19.066755"
         cx="13.140099"
         id="circle11816"
         style="fill:#cf4f55;fill-opacity:1;stroke:none;stroke-width:0.10827204;stroke-miterlimit:4;stroke-dasharray:none;stroke-opacity:1" />
      <circle
         style="fill:#cf4f55;fill-opacity:1;stroke:none;stroke-width:0.10827204;stroke-miterlimit:4;stroke-dasharray:none;stroke-opacity:1"
         id="circle11818"
         cx="14.189601"
         cy="19.083683"
         r="0.54259992" />
      <circle
         r="0.54259992"
         cy="18.584322"
         cx="14.892091"
         id="circle11820"
         style="fill:#cf4f55;fill-opacity:1;stroke:none;stroke-width:0.10827204;stroke-miterlimit:4;stroke-dasharray:none;stroke-opacity:1" />
      <circle
         style="fill:#cf4f55;fill-opacity:1;stroke:none;stroke-width:0.10827204;stroke-miterlimit:4;stroke-dasharray:none;stroke-opacity:1"
         id="circle11822"
         cx="14.282702"
         cy="19.972374"
         r="0.54259992" />
      <circle
         r="0.54259992"
         cy="19.566114"
         cx="15.188322"
         id="circle11824"
         style="fill:#cf4f55;fill-opacity:1;stroke:none;stroke-width:0.10827204;stroke-miterlimit:4;stroke-dasharray:none;stroke-opacity:1" />
      <circle
         style="fill:#cf4f55;fill-opacity:1;stroke:none;stroke-width:0.10827204;stroke-miterlimit:4;stroke-dasharray:none;stroke-opacity:1"
         id="circle11826"
         cx="15.954133"
         cy="19.009211"
         r="0.54259992" />
      <circle
         r="0.54259992"
         cy="19.930054"
         cx="16.20397"
         id="circle11828"
         style="fill:#cf4f55;fill-opacity:1;stroke:none;stroke-width:0.10827204;stroke-miterlimit:4;stroke-dasharray:none;stroke-opacity:1" />
      <circle
         style="fill:#cf4f55;fill-opacity:1;stroke:none;stroke-width:0.10827204;stroke-miterlimit:4;stroke-dasharray:none;stroke-opacity:1"
         id="circle11830"
         cx="16.935926"
         cy="19.212339"
         r="0.54259992" />
      <circle
         r="0.54259992"
         cy="18.220381"
         cx="16.610229"
         id="circle11832"
         style="fill:#cf4f55;fill-opacity:1;stroke:none;stroke-width:0.10827204;stroke-miterlimit:4;stroke-dasharray:none;stroke-opacity:1" />
      <circle
         style="fill:#cf4f55;fill-opacity:1;stroke:none;stroke-width:0.10827204;stroke-miterlimit:4;stroke-dasharray:none;stroke-opacity:1"
         id="circle11834"
         cx="17.566631"
         cy="18.46583"
         r="0.54259992" />
      <circle
         r="0.54259992"
         cy="19.337595"
         cx="17.981354"
         id="circle11836"
         style="fill:#cf4f55;fill-opacity:1;stroke:none;stroke-width:0.10827204;stroke-miterlimit:4;stroke-dasharray:none;stroke-opacity:1" />
      <circle
         style="fill:#cf4f55;fill-opacity:1;stroke:none;stroke-width:0.10827204;stroke-miterlimit:4;stroke-dasharray:none;stroke-opacity:1"
         id="circle11838"
         cx="11.565845"
         cy="18.152672"
         r="0.54259992" />
      <circle
         r="0.54259992"
         cy="18.152672"
         cx="11.565845"
         id="circle11840"
         style="fill:#cf4f55;fill-opacity:1;stroke:none;stroke-width:0.10827204;stroke-miterlimit:4;stroke-dasharray:none;stroke-opacity:1" />
    </g>
    <g
       id="g11914"
       transform="matrix(1.1115837,0,0,1.1115837,42.04678,43.312388)"
       style="fill:#cf4f55;fill-opacity:1">
      <circle
         r="0.54259992"
         cy="22.325291"
         cx="12.242943"
         id="circle11842"
         style="fill:#cf4f55;fill-opacity:1;stroke:none;stroke-width:0.10827204;stroke-miterlimit:4;stroke-dasharray:none;stroke-opacity:1" />
      <circle
         r="0.54259992"
         cy="22.587666"
         cx="13.2332"
         id="circle11844"
         style="fill:#cf4f55;fill-opacity:1;stroke:none;stroke-width:0.10827204;stroke-miterlimit:4;stroke-dasharray:none;stroke-opacity:1" />
      <circle
         style="fill:#cf4f55;fill-opacity:1;stroke:none;stroke-width:0.10827204;stroke-miterlimit:4;stroke-dasharray:none;stroke-opacity:1"
         id="circle11846"
         cx="13.537894"
         cy="23.535603"
         r="0.54259992" />
      <circle
         r="0.54259992"
         cy="22.790794"
         cx="14.214993"
         id="circle11848"
         style="fill:#cf4f55;fill-opacity:1;stroke:none;stroke-width:0.10827204;stroke-miterlimit:4;stroke-dasharray:none;stroke-opacity:1" />
      <circle
         style="fill:#cf4f55;fill-opacity:1;stroke:none;stroke-width:0.10827204;stroke-miterlimit:4;stroke-dasharray:none;stroke-opacity:1"
         id="circle11850"
         cx="13.944154"
         cy="21.82593"
         r="0.54259992" />
      <circle
         style="fill:#cf4f55;fill-opacity:1;stroke:none;stroke-width:0.10827204;stroke-miterlimit:4;stroke-dasharray:none;stroke-opacity:1"
         id="circle11852"
         cx="15.20525"
         cy="22.943144"
         r="0.54259992" />
      <circle
         style="fill:#cf4f55;fill-opacity:1;stroke:none;stroke-width:0.10827204;stroke-miterlimit:4;stroke-dasharray:none;stroke-opacity:1"
         id="circle11854"
         cx="12.3699"
         cy="21.428135"
         r="0.54259992" />
      <circle
         r="0.54259992"
         cy="24.212704"
         cx="13.004679"
         id="circle11856"
         style="fill:#cf4f55;fill-opacity:1;stroke:none;stroke-width:0.10827204;stroke-miterlimit:4;stroke-dasharray:none;stroke-opacity:1" />
      <circle
         style="fill:#cf4f55;fill-opacity:1;stroke:none;stroke-width:0.10827204;stroke-miterlimit:4;stroke-dasharray:none;stroke-opacity:1"
         id="circle11858"
         cx="14.765136"
         cy="21.318108"
         r="0.54259992" />
      <circle
         r="0.54259992"
         cy="22.232189"
         cx="15.873883"
         id="circle11860"
         style="fill:#cf4f55;fill-opacity:1;stroke:none;stroke-width:0.10827204;stroke-miterlimit:4;stroke-dasharray:none;stroke-opacity:1" />
      <circle
         style="fill:#cf4f55;fill-opacity:1;stroke:none;stroke-width:0.10827204;stroke-miterlimit:4;stroke-dasharray:none;stroke-opacity:1"
         id="circle11862"
         cx="14.934409"
         cy="22.113697"
         r="0.54259992" />
    </g>
    <g
       id="g11927"
       transform="matrix(1.1115837,0,0,1.1115837,67.542689,16.561324)"
       style="fill:#cf4f55;fill-opacity:1">
      <circle
         style="fill:#cf4f55;fill-opacity:1;stroke:none;stroke-width:0.10827204;stroke-miterlimit:4;stroke-dasharray:none;stroke-opacity:1"
         id="circle11864"
         cx="18.252192"
         cy="22.790794"
         r="0.54259992" />
      <circle
         r="0.54259992"
         cy="21.82593"
         cx="17.981354"
         id="circle11866"
         style="fill:#cf4f55;fill-opacity:1;stroke:none;stroke-width:0.10827204;stroke-miterlimit:4;stroke-dasharray:none;stroke-opacity:1" />
      <circle
         r="0.54259992"
         cy="22.943144"
         cx="19.242449"
         id="circle11868"
         style="fill:#cf4f55;fill-opacity:1;stroke:none;stroke-width:0.10827204;stroke-miterlimit:4;stroke-dasharray:none;stroke-opacity:1" />
      <circle
         r="0.54259992"
         cy="21.174225"
         cx="19.437115"
         id="circle11870"
         style="fill:#cf4f55;fill-opacity:1;stroke:none;stroke-width:0.10827204;stroke-miterlimit:4;stroke-dasharray:none;stroke-opacity:1" />
      <circle
         style="fill:#cf4f55;fill-opacity:1;stroke:none;stroke-width:0.10827204;stroke-miterlimit:4;stroke-dasharray:none;stroke-opacity:1"
         id="circle11872"
         cx="19.911083"
         cy="22.232189"
         r="0.54259992" />
      <circle
         r="0.54259992"
         cy="23.721806"
         cx="17.989817"
         id="circle11874"
         style="fill:#cf4f55;fill-opacity:1;stroke:none;stroke-width:0.10827204;stroke-miterlimit:4;stroke-dasharray:none;stroke-opacity:1" />
      <circle
         r="0.54259992"
         cy="22.553812"
         cx="17.245008"
         id="circle11876"
         style="fill:#cf4f55;fill-opacity:1;stroke:none;stroke-width:0.10827204;stroke-miterlimit:4;stroke-dasharray:none;stroke-opacity:1" />
      <circle
         r="0.54259992"
         cy="22.003668"
         cx="18.988539"
         id="circle11878"
         style="fill:#cf4f55;fill-opacity:1;stroke:none;stroke-width:0.10827204;stroke-miterlimit:4;stroke-dasharray:none;stroke-opacity:1" />
      <circle
         style="fill:#cf4f55;fill-opacity:1;stroke:none;stroke-width:0.10827204;stroke-miterlimit:4;stroke-dasharray:none;stroke-opacity:1"
         id="circle11880"
         cx="20.427372"
         cy="21.4366"
         r="0.54259992" />
      <circle
         r="0.54259992"
         cy="23.797981"
         cx="19.454044"
         id="circle11882"
         style="fill:#cf4f55;fill-opacity:1;stroke:none;stroke-width:0.10827204;stroke-miterlimit:4;stroke-dasharray:none;stroke-opacity:1" />
      <circle
         style="fill:#cf4f55;fill-opacity:1;stroke:none;stroke-width:0.10827204;stroke-miterlimit:4;stroke-dasharray:none;stroke-opacity:1"
         id="circle11884"
         cx="17.913645"
         cy="20.818748"
         r="0.54259992" />
    </g>
    <g
       transform="matrix(0.38984649,1.0409794,-1.0409794,0.38984649,95.459981,21.820812)"
       id="g11951"
       style="fill:#cf4f55;fill-opacity:1">
      <circle
         style="fill:#cf4f55;fill-opacity:1;stroke:none;stroke-width:0.10827204;stroke-miterlimit:4;stroke-dasharray:none;stroke-opacity:1"
         id="circle11929"
         cx="12.242943"
         cy="22.325291"
         r="0.54259992" />
      <circle
         style="fill:#cf4f55;fill-opacity:1;stroke:none;stroke-width:0.10827204;stroke-miterlimit:4;stroke-dasharray:none;stroke-opacity:1"
         id="circle11931"
         cx="13.2332"
         cy="22.587666"
         r="0.54259992" />
      <circle
         r="0.54259992"
         cy="23.535603"
         cx="13.537894"
         id="circle11933"
         style="fill:#cf4f55;fill-opacity:1;stroke:none;stroke-width:0.10827204;stroke-miterlimit:4;stroke-dasharray:none;stroke-opacity:1" />
      <circle
         style="fill:#cf4f55;fill-opacity:1;stroke:none;stroke-width:0.10827204;stroke-miterlimit:4;stroke-dasharray:none;stroke-opacity:1"
         id="circle11935"
         cx="14.214993"
         cy="22.790794"
         r="0.54259992" />
      <circle
         r="0.54259992"
         cy="21.82593"
         cx="13.944154"
         id="circle11937"
         style="fill:#cf4f55;fill-opacity:1;stroke:none;stroke-width:0.10827204;stroke-miterlimit:4;stroke-dasharray:none;stroke-opacity:1" />
      <circle
         r="0.54259992"
         cy="22.943144"
         cx="15.20525"
         id="circle11939"
         style="fill:#cf4f55;fill-opacity:1;stroke:none;stroke-width:0.10827204;stroke-miterlimit:4;stroke-dasharray:none;stroke-opacity:1" />
      <circle
         r="0.54259992"
         cy="21.428135"
         cx="12.3699"
         id="circle11941"
         style="fill:#cf4f55;fill-opacity:1;stroke:none;stroke-width:0.10827204;stroke-miterlimit:4;stroke-dasharray:none;stroke-opacity:1" />
      <circle
         style="fill:#cf4f55;fill-opacity:1;stroke:none;stroke-width:0.10827204;stroke-miterlimit:4;stroke-dasharray:none;stroke-opacity:1"
         id="circle11943"
         cx="13.004679"
         cy="24.212704"
         r="0.54259992" />
      <circle
         r="0.54259992"
         cy="21.318108"
         cx="14.765136"
         id="circle11945"
         style="fill:#cf4f55;fill-opacity:1;stroke:none;stroke-width:0.10827204;stroke-miterlimit:4;stroke-dasharray:none;stroke-opacity:1" />
      <circle
         style="fill:#cf4f55;fill-opacity:1;stroke:none;stroke-width:0.10827204;stroke-miterlimit:4;stroke-dasharray:none;stroke-opacity:1"
         id="circle11947"
         cx="15.873883"
         cy="22.232189"
         r="0.54259992" />
      <circle
         r="0.54259992"
         cy="22.113697"
         cx="14.934409"
         id="circle11949"
         style="fill:#cf4f55;fill-opacity:1;stroke:none;stroke-width:0.10827204;stroke-miterlimit:4;stroke-dasharray:none;stroke-opacity:1" />
    </g>
    <g
       transform="matrix(0.94079011,0.59205775,-0.59205775,0.94079011,94.090725,36.519667)"
       id="g11983"
       style="fill:#cf4f55;fill-opacity:1">
      <circle
         style="fill:#cf4f55;fill-opacity:1;stroke:none;stroke-width:0.10827204;stroke-miterlimit:4;stroke-dasharray:none;stroke-opacity:1"
         id="circle11953"
         cx="12.573029"
         cy="18.203455"
         r="0.54259992" />
      <circle
         r="0.54259992"
         cy="18.23731"
         cx="13.639459"
         id="circle11955"
         style="fill:#cf4f55;fill-opacity:1;stroke:none;stroke-width:0.10827204;stroke-miterlimit:4;stroke-dasharray:none;stroke-opacity:1" />
      <circle
         style="fill:#cf4f55;fill-opacity:1;stroke:none;stroke-width:0.10827204;stroke-miterlimit:4;stroke-dasharray:none;stroke-opacity:1"
         id="circle11957"
         cx="13.140099"
         cy="19.066755"
         r="0.54259992" />
      <circle
         r="0.54259992"
         cy="19.083683"
         cx="14.189601"
         id="circle11959"
         style="fill:#cf4f55;fill-opacity:1;stroke:none;stroke-width:0.10827204;stroke-miterlimit:4;stroke-dasharray:none;stroke-opacity:1" />
      <circle
         style="fill:#cf4f55;fill-opacity:1;stroke:none;stroke-width:0.10827204;stroke-miterlimit:4;stroke-dasharray:none;stroke-opacity:1"
         id="circle11961"
         cx="14.892091"
         cy="18.584322"
         r="0.54259992" />
      <circle
         r="0.54259992"
         cy="19.972374"
         cx="14.282702"
         id="circle11963"
         style="fill:#cf4f55;fill-opacity:1;stroke:none;stroke-width:0.10827204;stroke-miterlimit:4;stroke-dasharray:none;stroke-opacity:1" />
      <circle
         style="fill:#cf4f55;fill-opacity:1;stroke:none;stroke-width:0.10827204;stroke-miterlimit:4;stroke-dasharray:none;stroke-opacity:1"
         id="circle11965"
         cx="15.188322"
         cy="19.566114"
         r="0.54259992" />
      <circle
         r="0.54259992"
         cy="19.009211"
         cx="15.954133"
         id="circle11967"
         style="fill:#cf4f55;fill-opacity:1;stroke:none;stroke-width:0.10827204;stroke-miterlimit:4;stroke-dasharray:none;stroke-opacity:1" />
      <circle
         style="fill:#cf4f55;fill-opacity:1;stroke:none;stroke-width:0.10827204;stroke-miterlimit:4;stroke-dasharray:none;stroke-opacity:1"
         id="circle11969"
         cx="16.20397"
         cy="19.930054"
         r="0.54259992" />
      <circle
         r="0.54259992"
         cy="19.212339"
         cx="16.935926"
         id="circle11971"
         style="fill:#cf4f55;fill-opacity:1;stroke:none;stroke-width:0.10827204;stroke-miterlimit:4;stroke-dasharray:none;stroke-opacity:1" />
      <circle
         style="fill:#cf4f55;fill-opacity:1;stroke:none;stroke-width:0.10827204;stroke-miterlimit:4;stroke-dasharray:none;stroke-opacity:1"
         id="circle11973"
         cx="16.610229"
         cy="18.220381"
         r="0.54259992" />
      <circle
         r="0.54259992"
         cy="18.46583"
         cx="17.566631"
         id="circle11975"
         style="fill:#cf4f55;fill-opacity:1;stroke:none;stroke-width:0.10827204;stroke-miterlimit:4;stroke-dasharray:none;stroke-opacity:1" />
      <circle
         style="fill:#cf4f55;fill-opacity:1;stroke:none;stroke-width:0.10827204;stroke-miterlimit:4;stroke-dasharray:none;stroke-opacity:1"
         id="circle11977"
         cx="17.981354"
         cy="19.337595"
         r="0.54259992" />
      <circle
         r="0.54259992"
         cy="18.152672"
         cx="11.565845"
         id="circle11979"
         style="fill:#cf4f55;fill-opacity:1;stroke:none;stroke-width:0.10827204;stroke-miterlimit:4;stroke-dasharray:none;stroke-opacity:1" />
      <circle
         style="fill:#cf4f55;fill-opacity:1;stroke:none;stroke-width:0.10827204;stroke-miterlimit:4;stroke-dasharray:none;stroke-opacity:1"
         id="circle11981"
         cx="11.565845"
         cy="18.152672"
         r="0.54259992" />
    </g>
    <g
       transform="matrix(1.1115837,0,0,1.1115837,60.988171,46.827947)"
       id="g12007"
       style="fill:#cf4f55;fill-opacity:1">
      <circle
         r="0.54259992"
         cy="22.790794"
         cx="18.252192"
         id="circle11985"
         style="fill:#cf4f55;fill-opacity:1;stroke:none;stroke-width:0.10827204;stroke-miterlimit:4;stroke-dasharray:none;stroke-opacity:1" />
      <circle
         style="fill:#cf4f55;fill-opacity:1;stroke:none;stroke-width:0.10827204;stroke-miterlimit:4;stroke-dasharray:none;stroke-opacity:1"
         id="circle11987"
         cx="17.981354"
         cy="21.82593"
         r="0.54259992" />
      <circle
         style="fill:#cf4f55;fill-opacity:1;stroke:none;stroke-width:0.10827204;stroke-miterlimit:4;stroke-dasharray:none;stroke-opacity:1"
         id="circle11989"
         cx="19.242449"
         cy="22.943144"
         r="0.54259992" />
      <circle
         style="fill:#cf4f55;fill-opacity:1;stroke:none;stroke-width:0.10827204;stroke-miterlimit:4;stroke-dasharray:none;stroke-opacity:1"
         id="circle11991"
         cx="19.437115"
         cy="21.174225"
         r="0.54259992" />
      <circle
         r="0.54259992"
         cy="22.232189"
         cx="19.911083"
         id="circle11993"
         style="fill:#cf4f55;fill-opacity:1;stroke:none;stroke-width:0.10827204;stroke-miterlimit:4;stroke-dasharray:none;stroke-opacity:1" />
      <circle
         style="fill:#cf4f55;fill-opacity:1;stroke:none;stroke-width:0.10827204;stroke-miterlimit:4;stroke-dasharray:none;stroke-opacity:1"
         id="circle11995"
         cx="17.989817"
         cy="23.721806"
         r="0.54259992" />
      <circle
         style="fill:#cf4f55;fill-opacity:1;stroke:none;stroke-width:0.10827204;stroke-miterlimit:4;stroke-dasharray:none;stroke-opacity:1"
         id="circle11997"
         cx="17.245008"
         cy="22.553812"
         r="0.54259992" />
      <circle
         style="fill:#cf4f55;fill-opacity:1;stroke:none;stroke-width:0.10827204;stroke-miterlimit:4;stroke-dasharray:none;stroke-opacity:1"
         id="circle11999"
         cx="18.988539"
         cy="22.003668"
         r="0.54259992" />
      <circle
         r="0.54259992"
         cy="21.4366"
         cx="20.427372"
         id="circle12001"
         style="fill:#cf4f55;fill-opacity:1;stroke:none;stroke-width:0.10827204;stroke-miterlimit:4;stroke-dasharray:none;stroke-opacity:1" />
      <circle
         style="fill:#cf4f55;fill-opacity:1;stroke:none;stroke-width:0.10827204;stroke-miterlimit:4;stroke-dasharray:none;stroke-opacity:1"
         id="circle12003"
         cx="19.454044"
         cy="23.797981"
         r="0.54259992" />
      <circle
         r="0.54259992"
         cy="20.818748"
         cx="17.913645"
         id="circle12005"
         style="fill:#cf4f55;fill-opacity:1;stroke:none;stroke-width:0.10827204;stroke-miterlimit:4;stroke-dasharray:none;stroke-opacity:1" />
    </g>
    <g
       transform="matrix(0.40555141,1.0349621,-1.0349621,0.40555141,69.439433,24.737271)"
       id="g12031"
       style="fill:#cf4f55;fill-opacity:1">
      <circle
         r="0.54259992"
         cy="22.790794"
         cx="18.252192"
         id="circle12009"
         style="fill:#cf4f55;fill-opacity:1;stroke:none;stroke-width:0.10827204;stroke-miterlimit:4;stroke-dasharray:none;stroke-opacity:1" />
      <circle
         style="fill:#cf4f55;fill-opacity:1;stroke:none;stroke-width:0.10827204;stroke-miterlimit:4;stroke-dasharray:none;stroke-opacity:1"
         id="circle12011"
         cx="17.981354"
         cy="21.82593"
         r="0.54259992" />
      <circle
         style="fill:#cf4f55;fill-opacity:1;stroke:none;stroke-width:0.10827204;stroke-miterlimit:4;stroke-dasharray:none;stroke-opacity:1"
         id="circle12013"
         cx="19.242449"
         cy="22.943144"
         r="0.54259992" />
      <circle
         style="fill:#cf4f55;fill-opacity:1;stroke:none;stroke-width:0.10827204;stroke-miterlimit:4;stroke-dasharray:none;stroke-opacity:1"
         id="circle12015"
         cx="19.437115"
         cy="21.174225"
         r="0.54259992" />
      <circle
         r="0.54259992"
         cy="22.232189"
         cx="19.911083"
         id="circle12017"
         style="fill:#cf4f55;fill-opacity:1;stroke:none;stroke-width:0.10827204;stroke-miterlimit:4;stroke-dasharray:none;stroke-opacity:1" />
      <circle
         style="fill:#cf4f55;fill-opacity:1;stroke:none;stroke-width:0.10827204;stroke-miterlimit:4;stroke-dasharray:none;stroke-opacity:1"
         id="circle12019"
         cx="17.989817"
         cy="23.721806"
         r="0.54259992" />
      <circle
         style="fill:#cf4f55;fill-opacity:1;stroke:none;stroke-width:0.10827204;stroke-miterlimit:4;stroke-dasharray:none;stroke-opacity:1"
         id="circle12021"
         cx="17.245008"
         cy="22.553812"
         r="0.54259992" />
      <circle
         style="fill:#cf4f55;fill-opacity:1;stroke:none;stroke-width:0.10827204;stroke-miterlimit:4;stroke-dasharray:none;stroke-opacity:1"
         id="circle12023"
         cx="18.988539"
         cy="22.003668"
         r="0.54259992" />
      <circle
         r="0.54259992"
         cy="21.4366"
         cx="20.427372"
         id="circle12025"
         style="fill:#cf4f55;fill-opacity:1;stroke:none;stroke-width:0.10827204;stroke-miterlimit:4;stroke-dasharray:none;stroke-opacity:1" />
      <circle
         style="fill:#cf4f55;fill-opacity:1;stroke:none;stroke-width:0.10827204;stroke-miterlimit:4;stroke-dasharray:none;stroke-opacity:1"
         id="circle12027"
         cx="19.454044"
         cy="23.797981"
         r="0.54259992" />
      <circle
         r="0.54259992"
         cy="20.818748"
         cx="17.913645"
         id="circle12029"
         style="fill:#cf4f55;fill-opacity:1;stroke:none;stroke-width:0.10827204;stroke-miterlimit:4;stroke-dasharray:none;stroke-opacity:1" />
    </g>
    <rect
       style="fill:#cf4f55;fill-opacity:1;stroke:none;stroke-width:0.60249192;stroke-miterlimit:4;stroke-dasharray:none;stroke-opacity:1"
       id="rect12033"
       width="3.7188537"
       height="0.39411765"
       x="-55.734177"
       y="75.864861"
       transform="rotate(-89.806623)" />
    <rect
       transform="rotate(-89.806623)"
       y="76.784874"
       x="-55.734177"
       height="0.39411765"
       width="3.7188537"
       id="rect12039"
       style="fill:#cf4f55;fill-opacity:1;stroke:none;stroke-width:0.60249192;stroke-miterlimit:4;stroke-dasharray:none;stroke-opacity:1" />
    <rect
       style="fill:#cf4f55;fill-opacity:1;stroke:none;stroke-width:0.60249192;stroke-miterlimit:4;stroke-dasharray:none;stroke-opacity:1"
       id="rect12041"
       width="3.7188537"
       height="0.39411765"
       x="-55.734177"
       y="74.944855"
       transform="rotate(-89.806623)" />
    <rect
       transform="rotate(-89.806623)"
       y="74.024841"
       x="-55.734177"
       height="0.39411765"
       width="3.7188537"
       id="rect12043"
       style="fill:#cf4f55;fill-opacity:1;stroke:none;stroke-width:0.60249192;stroke-miterlimit:4;stroke-dasharray:none;stroke-opacity:1" />
    <rect
       style="fill:#cf4f55;fill-opacity:1;stroke:none;stroke-width:0.60249192;stroke-miterlimit:4;stroke-dasharray:none;stroke-opacity:1"
       id="rect12045"
       width="3.7188537"
       height="0.39411765"
       x="-55.734177"
       y="73.104836"
       transform="rotate(-89.806623)" />
    <rect
       transform="rotate(-89.806623)"
       y="72.184822"
       x="-55.734177"
       height="0.39411765"
       width="3.7188537"
       id="rect12047"
       style="fill:#cf4f55;fill-opacity:1;stroke:none;stroke-width:0.60249192;stroke-miterlimit:4;stroke-dasharray:none;stroke-opacity:1" />
    <rect
       style="fill:#cf4f55;fill-opacity:1;stroke:none;stroke-width:0.60249192;stroke-miterlimit:4;stroke-dasharray:none;stroke-opacity:1"
       id="rect12049"
       width="3.7188537"
       height="0.39411765"
       x="-55.734177"
       y="71.264801"
       transform="rotate(-89.806623)" />
    <rect
       transform="rotate(-89.806623)"
       y="70.344795"
       x="-55.734177"
       height="0.39411765"
       width="3.7188537"
       id="rect12051"
       style="fill:#cf4f55;fill-opacity:1;stroke:none;stroke-width:0.60249192;stroke-miterlimit:4;stroke-dasharray:none;stroke-opacity:1" />
    <rect
       style="fill:#cf4f55;fill-opacity:1;stroke:none;stroke-width:0.60249192;stroke-miterlimit:4;stroke-dasharray:none;stroke-opacity:1"
       id="rect12053"
       width="3.7188537"
       height="0.39411765"
       x="-55.734177"
       y="77.70488"
       transform="rotate(-89.806623)" />
    <rect
       transform="rotate(-89.806623)"
       y="78.624908"
       x="-55.734177"
       height="0.39411765"
       width="3.7188537"
       id="rect12055"
       style="fill:#cf4f55;fill-opacity:1;stroke:none;stroke-width:0.60249192;stroke-miterlimit:4;stroke-dasharray:none;stroke-opacity:1" />
    <rect
       style="fill:#cf4f55;fill-opacity:1;stroke:none;stroke-width:0.60249192;stroke-miterlimit:4;stroke-dasharray:none;stroke-opacity:1"
       id="rect12057"
       width="3.7188537"
       height="0.39411765"
       x="-55.734177"
       y="80.464905"
       transform="rotate(-89.806623)" />
    <rect
       transform="rotate(-89.806623)"
       y="82.304924"
       x="-55.734177"
       height="0.39411765"
       width="3.7188537"
       id="rect12059"
       style="fill:#cf4f55;fill-opacity:1;stroke:none;stroke-width:0.60249192;stroke-miterlimit:4;stroke-dasharray:none;stroke-opacity:1" />
    <rect
       style="fill:#cf4f55;fill-opacity:1;stroke:none;stroke-width:0.60249192;stroke-miterlimit:4;stroke-dasharray:none;stroke-opacity:1"
       id="rect12091"
       width="3.7188537"
       height="0.39411765"
       x="-55.734177"
       y="85.06498"
       transform="rotate(-89.806623)" />
    <rect
       transform="rotate(-89.806623)"
       y="84.144951"
       x="-55.734177"
       height="0.39411765"
       width="3.7188537"
       id="rect12093"
       style="fill:#cf4f55;fill-opacity:1;stroke:none;stroke-width:0.60249192;stroke-miterlimit:4;stroke-dasharray:none;stroke-opacity:1" />
    <rect
       style="fill:#cf4f55;fill-opacity:1;stroke:none;stroke-width:0.60249192;stroke-miterlimit:4;stroke-dasharray:none;stroke-opacity:1"
       id="rect12095"
       width="3.7188537"
       height="0.39411765"
       x="-55.734177"
       y="83.224945"
       transform="rotate(-89.806623)" />
    <rect
       transform="rotate(-89.806623)"
       y="81.384918"
       x="-55.734177"
       height="0.39411765"
       width="3.7188537"
       id="rect12097"
       style="fill:#cf4f55;fill-opacity:1;stroke:none;stroke-width:0.60249192;stroke-miterlimit:4;stroke-dasharray:none;stroke-opacity:1" />
    <rect
       style="fill:#cf4f55;fill-opacity:1;stroke:none;stroke-width:0.60249192;stroke-miterlimit:4;stroke-dasharray:none;stroke-opacity:1"
       id="rect12099"
       width="3.7188537"
       height="0.39411765"
       x="-55.734177"
       y="79.544914"
       transform="rotate(-89.806623)" />
  </g>
  <g
     inkscape:groupmode="layer"
     id="layer1"
     inkscape:label="Labels"
     style="display:inline">
    <text
       xml:space="preserve"
       style="font-style:normal;font-variant:normal;font-weight:normal;font-stretch:normal;font-size:3.09532595px;line-height:5.80373621px;font-family:sans-serif;-inkscape-font-specification:sans-serif;text-align:end;letter-spacing:0px;word-spacing:0px;text-anchor:end;fill:#000000;fill-opacity:1;stroke:none;stroke-width:0.23214944"
       x="81.58519"
       y="62.46244"
       id="text11384"><tspan
         sodipodi:role="line"
         id="tspan11382"
         x="81.58519"
         y="62.46244"
         style="text-align:end;text-anchor:end;stroke-width:0.23214944">heater</tspan></text>
    <path
       transform="translate(0,-20)"
       style="fill:none;stroke:#000000;stroke-width:0.23214944px;stroke-linecap:butt;stroke-linejoin:miter;stroke-opacity:1;marker-end:url(#marker11678)"
       d="M 43.355957,59.998369 63.983066,55.889106"
       id="path11668"
       inkscape:connector-curvature="0"
       sodipodi:nodetypes="cc" />
    <text
       id="text12170"
       y="11.788685"
       x="42.994396"
       style="font-style:normal;font-variant:normal;font-weight:normal;font-stretch:normal;font-size:3.09532595px;line-height:5.80373621px;font-family:sans-serif;-inkscape-font-specification:sans-serif;text-align:end;letter-spacing:0px;word-spacing:0px;text-anchor:end;fill:#000000;fill-opacity:1;stroke:none;stroke-width:0.23214944"
       xml:space="preserve"><tspan
         style="text-align:end;text-anchor:end;stroke-width:0.23214944"
         y="11.788685"
         x="42.994396"
         id="tspan12168"
         sodipodi:role="line">homogeneous nucleation</tspan></text>
    <path
       sodipodi:nodetypes="cc"
       inkscape:connector-curvature="0"
       id="path12182"
       d="M 112.49702,35.662374 86.31819,33.323875"
       style="fill:none;stroke:#000000;stroke-width:0.23251504;stroke-linecap:butt;stroke-linejoin:miter;stroke-miterlimit:4;stroke-dasharray:none;stroke-opacity:1;marker-end:url(#marker12186)" />
    <path
       transform="translate(0,-20)"
       style="fill:none;stroke:#000000;stroke-width:0.23251504;stroke-linecap:butt;stroke-linejoin:miter;stroke-miterlimit:4;stroke-dasharray:none;stroke-opacity:1;marker-end:url(#marker12666)"
       d="m 43.274282,30.717961 17.4397,9.825469"
       id="path12662"
       inkscape:connector-curvature="0"
       sodipodi:nodetypes="cc" />
    <text
       xml:space="preserve"
       style="font-style:normal;font-variant:normal;font-weight:normal;font-stretch:normal;font-size:3.09532595px;line-height:5.80373621px;font-family:sans-serif;-inkscape-font-specification:sans-serif;letter-spacing:0px;word-spacing:0px;fill:#000000;fill-opacity:1;stroke:none;stroke-width:0.23214944"
       x="113.14864"
       y="36.468178"
       id="text13150"><tspan
         sodipodi:role="line"
         id="tspan13148"
         x="113.14864"
         y="36.468178"
         style="text-align:start;text-anchor:start;stroke-width:0.23214944">substrate</tspan></text>
    <path
       sodipodi:nodetypes="cc"
       inkscape:connector-curvature="0"
       id="path13158"
       d="M 43.259938,21.692746 73.279542,32.500185"
       style="fill:none;stroke:#000000;stroke-width:0.23214944px;stroke-linecap:butt;stroke-linejoin:miter;stroke-opacity:1;marker-end:url(#marker13162)" />
    <text
       xml:space="preserve"
       style="font-style:normal;font-variant:normal;font-weight:normal;font-stretch:normal;font-size:3.09532595px;line-height:5.80373621px;font-family:sans-serif;-inkscape-font-specification:sans-serif;text-align:end;letter-spacing:0px;word-spacing:0px;text-anchor:end;fill:#000000;fill-opacity:1;stroke:none;stroke-width:0.23214944"
       x="42.994396"
       y="22.528301"
       id="text15992"><tspan
         sodipodi:role="line"
         id="tspan15990"
         x="42.994396"
         y="22.528301"
         style="text-align:end;text-anchor:end;stroke-width:0.23214944">heterogeneous nucleation</tspan></text>
    <text
       id="text15996"
       y="40.969017"
       x="42.878021"
       style="font-style:normal;font-variant:normal;font-weight:normal;font-stretch:normal;font-size:3.09532595px;line-height:5.80373621px;font-family:sans-serif;-inkscape-font-specification:sans-serif;text-align:end;letter-spacing:0px;word-spacing:0px;text-anchor:end;fill:#000000;fill-opacity:1;stroke:none;stroke-width:0.23214944"
       xml:space="preserve"><tspan
         style="text-align:end;text-anchor:end;stroke-width:0.23214944"
         y="40.969017"
         x="42.878021"
         id="tspan15994"
         sodipodi:role="line">sample stage</tspan></text>
    <text
       xml:space="preserve"
       style="font-style:normal;font-variant:normal;font-weight:normal;font-stretch:normal;font-size:3.09532595px;line-height:5.80373621px;font-family:sans-serif;-inkscape-font-specification:sans-serif;letter-spacing:0px;word-spacing:0px;fill:#000000;fill-opacity:1;stroke:none;stroke-width:0.23214944"
       x="113.32449"
       y="21.570469"
       id="text13150-5"><tspan
         sodipodi:role="line"
         id="tspan13148-1"
         x="113.32449"
         y="21.570469"
         style="text-align:start;text-anchor:start;stroke-width:0.23214944">growth solution</tspan></text>
    <path
       style="fill:none;stroke:#000000;stroke-width:0.23251504;stroke-linecap:butt;stroke-linejoin:miter;stroke-miterlimit:4;stroke-dasharray:none;stroke-opacity:1;marker-end:url(#marker16026)"
       d="m 112.83359,20.937063 -8.70043,3.045334"
       id="path16022"
       inkscape:connector-curvature="0"
       sodipodi:nodetypes="cc" />
  </g>
</svg>
