<?xml version="1.0" encoding="UTF-8" standalone="no"?>
<!-- Created with Inkscape (http://www.inkscape.org/) -->

<svg
   xmlns:osb="http://www.openswatchbook.org/uri/2009/osb"
   xmlns:dc="http://purl.org/dc/elements/1.1/"
   xmlns:cc="http://creativecommons.org/ns#"
   xmlns:rdf="http://www.w3.org/1999/02/22-rdf-syntax-ns#"
   xmlns:svg="http://www.w3.org/2000/svg"
   xmlns="http://www.w3.org/2000/svg"
   xmlns:xlink="http://www.w3.org/1999/xlink"
   xmlns:sodipodi="http://sodipodi.sourceforge.net/DTD/sodipodi-0.dtd"
   xmlns:inkscape="http://www.inkscape.org/namespaces/inkscape"
   width="150mm"
   height="70mm"
   viewBox="0 0 150 70"
   version="1.1"
   id="svg8"
   inkscape:version="0.92.0 r15299"
   sodipodi:docname="bruker_schema.svg"
   inkscape:export-filename="C:\Syncs\Main\Responsible\phd\epfl_roke\pre\img\bruker_schema_new.png"
   inkscape:export-xdpi="249.84364"
   inkscape:export-ydpi="249.84364">
  <sodipodi:namedview
     id="base"
     pagecolor="#ffffff"
     bordercolor="#666666"
     borderopacity="1.0"
     inkscape:pageopacity="0.0"
     inkscape:pageshadow="2"
     inkscape:zoom="2.3912432"
     inkscape:cx="287.34536"
     inkscape:cy="132.09115"
     inkscape:document-units="mm"
     inkscape:current-layer="layer5"
     showgrid="false"
     inkscape:window-width="1920"
     inkscape:window-height="1017"
     inkscape:window-x="1912"
     inkscape:window-y="-8"
     inkscape:window-maximized="1"
     inkscape:measure-start="0,0"
     inkscape:measure-end="0,0" />
  <defs
     id="defs2">
    <linearGradient
       osb:paint="solid"
       id="linearGradient9236">
      <stop
         id="stop9234"
         offset="0"
         style="stop-color:#80b3ff;stop-opacity:1;" />
    </linearGradient>
    <linearGradient
       osb:paint="solid"
       id="linearGradient4692">
      <stop
         id="stop4690"
         offset="0"
         style="stop-color:#80b3ff;stop-opacity:1;" />
    </linearGradient>
    <clipPath
       clipPathUnits="userSpaceOnUse"
       id="clipPath4704">
      <rect
         ry="1.2447518"
         y="65.220688"
         x="154.63126"
         height="13.277352"
         width="19.394325"
         id="rect4706"
         style="display:inline;opacity:1;fill:none;fill-opacity:1;stroke:#808080;stroke-width:0.47099516;stroke-linejoin:round;stroke-miterlimit:4;stroke-dasharray:none;stroke-dashoffset:0;stroke-opacity:1" />
    </clipPath>
    <clipPath
       clipPathUnits="userSpaceOnUse"
       id="clipPath4708">
      <rect
         style="display:inline;opacity:1;fill:none;fill-opacity:1;stroke:#808080;stroke-width:0.47099516;stroke-linejoin:round;stroke-miterlimit:4;stroke-dasharray:none;stroke-dashoffset:0;stroke-opacity:1"
         id="rect4710"
         width="19.394325"
         height="13.277352"
         x="174.5864"
         y="65.338226"
         ry="1.2447518" />
    </clipPath>
  </defs>
  <metadata
     id="metadata5">
    <rdf:RDF>
      <cc:Work
         rdf:about="">
        <dc:format>image/svg+xml</dc:format>
        <dc:type
           rdf:resource="http://purl.org/dc/dcmitype/StillImage" />
        <dc:title></dc:title>
      </cc:Work>
    </rdf:RDF>
  </metadata>
  <g
     inkscape:groupmode="layer"
     id="layer6"
     inkscape:label="Background_hack"
     style="display:inline"
     transform="translate(0,15)"
     sodipodi:insensitive="true">
    <rect
       style="display:inline;opacity:1;fill:#ffffff;fill-opacity:1;stroke:none;stroke-width:0.30410892;stroke-linejoin:bevel;stroke-miterlimit:4;stroke-dasharray:0.91232673, 0.91232673;stroke-dashoffset:3.00472426;stroke-opacity:1"
       id="rect4957"
       width="159.33134"
       height="73.958496"
       x="-3.6388798"
       y="-16.928366" />
  </g>
  <g
     inkscape:groupmode="layer"
     id="layer7"
     inkscape:label="bitmaps"
     style="display:inline">
    <image
       sodipodi:absref="C:\Repa\dip\img\svg\bitmaps\qi-fit-2017.11.28-15.31.27.233_measure-slope-1.png"
       xlink:href="bitmaps\qi-fit-2017.11.28-15.31.27.233_measure-slope-1.png"
       transform="matrix(1.2979232,0,0,1.2979232,-83.874458,-81.575873)"
       clip-path="url(#clipPath4704)"
       width="19.955143"
       height="19.876812"
       preserveAspectRatio="none"
       style="image-rendering:optimizeSpeed"
       id="image4639"
       x="154.07043"
       y="58.621231" />
    <image
       sodipodi:absref="C:\Repa\dip\img\svg\bitmaps\qi-fit-2017.11.28-15.31.27.233_adhesion-1.png"
       xlink:href="bitmaps\qi-fit-2017.11.28-15.31.27.233_adhesion-1.png"
       transform="matrix(1.2979232,0,0,1.2979232,-109.23636,-44.577706)"
       clip-path="url(#clipPath4708)"
       width="19.955143"
       height="19.994347"
       preserveAspectRatio="none"
       style="image-rendering:optimizeSpeed"
       id="image4699"
       x="174.02557"
       y="58.621231" />
  </g>
  <g
     style="display:inline"
     transform="translate(0,-227)"
     id="layer1"
     inkscape:groupmode="layer"
     inkscape:label="Bitmap">
    <image
       sodipodi:absref="C:\Syncs\Main\Responsible\phd\epfl_roke\pre2\svg\bruker_back.png"
       xlink:href="C:\Syncs\Main\Responsible\phd\epfl_roke\pre2\svg\bruker_back.png"
       y="231.29941"
       x="1.5874981"
       id="image4803"
       style="image-rendering:optimizeSpeed"
       preserveAspectRatio="none"
       height="56.623554"
       width="66.698929" />
  </g>
  <g
     transform="translate(0,-10)"
     style="display:inline"
     inkscape:label="Kabely"
     id="layer2"
     inkscape:groupmode="layer">
    <path
       sodipodi:nodetypes="ccccc"
       inkscape:connector-curvature="0"
       id="path4516"
       d="m 19.932818,28.399131 v -6.761344 l 48.373391,-0.02662 v 8.497085 l 6.593095,-0.05179"
       style="display:inline;fill:none;stroke:#808080;stroke-width:0.35;stroke-linecap:butt;stroke-linejoin:round;stroke-miterlimit:4;stroke-dasharray:none;stroke-opacity:1" />
    <path
       sodipodi:nodetypes="cc"
       inkscape:connector-curvature="0"
       id="path4518"
       d="M 77.981921,53.786363 V 39.033249"
       style="display:inline;fill:none;stroke:#808080;stroke-width:0.35;stroke-linecap:butt;stroke-linejoin:round;stroke-miterlimit:4;stroke-dasharray:none;stroke-opacity:1" />
    <path
       sodipodi:nodetypes="cc"
       inkscape:connector-curvature="0"
       id="path4514"
       d="m 64.861571,57.392621 h 10.09974"
       style="display:inline;fill:none;stroke:#808080;stroke-width:0.35;stroke-linecap:butt;stroke-linejoin:round;stroke-miterlimit:4;stroke-dasharray:none;stroke-opacity:1" />
    <path
       sodipodi:nodetypes="ccc"
       inkscape:connector-curvature="0"
       id="path6232"
       d="m 122.25603,30.192773 v 3.868932 l -22.699454,0"
       style="display:inline;fill:none;stroke:#808080;stroke-width:0.35;stroke-linecap:butt;stroke-linejoin:miter;stroke-miterlimit:4;stroke-dasharray:none;stroke-opacity:1" />
    <path
       sodipodi:nodetypes="ccc"
       inkscape:connector-curvature="0"
       id="path6234"
       d="m 100.13321,70.524403 h 21.88648 v -3.082308"
       style="display:inline;fill:none;stroke:#808080;stroke-width:0.35;stroke-linecap:butt;stroke-linejoin:miter;stroke-miterlimit:4;stroke-dasharray:none;stroke-opacity:1" />
    <g
       transform="matrix(0.91811928,0,0,0.91811928,0.82383087,10.434788)"
       id="g6242"
       style="display:inline;fill:none;stroke:#808080;stroke-width:0.38121408;stroke-miterlimit:4;stroke-dasharray:none;stroke-opacity:1">
      <path
         style="fill:none;stroke:#808080;stroke-width:0.38121408;stroke-linecap:butt;stroke-linejoin:round;stroke-miterlimit:4;stroke-dasharray:none;stroke-opacity:1"
         d="m 34.360477,65.907313 v 4.02872"
         id="path4506"
         inkscape:connector-curvature="0" />
      <path
         style="fill:none;stroke:#808080;stroke-width:0.38121408;stroke-linecap:butt;stroke-linejoin:round;stroke-miterlimit:4;stroke-dasharray:none;stroke-opacity:1"
         d="M 40.34911,70.123155 H 28.371843"
         id="path4508"
         inkscape:connector-curvature="0" />
      <path
         style="fill:none;stroke:#808080;stroke-width:0.38121408;stroke-linecap:butt;stroke-linejoin:round;stroke-miterlimit:4;stroke-dasharray:none;stroke-opacity:1"
         d="m 32.128349,71.841669 h 4.464255"
         id="path4510"
         inkscape:connector-curvature="0" />
      <path
         sodipodi:nodetypes="ccccc"
         style="fill:none;stroke:#808080;stroke-width:0.38121408;stroke-linecap:butt;stroke-linejoin:miter;stroke-miterlimit:4;stroke-dasharray:none;stroke-opacity:1"
         d="m 34.360476,71.847572 -0.0022,2.272398 h 39.352773 l -0.108149,-6.264139 7.934727,-0.05412"
         id="path6236"
         inkscape:connector-curvature="0" />
      <path
         inkscape:connector-curvature="0"
         id="path4905"
         d="m 84.093362,54.255684 -0.108149,7.591112"
         style="fill:none;stroke:#808080;stroke-width:0.38121408;stroke-linecap:butt;stroke-linejoin:miter;stroke-miterlimit:4;stroke-dasharray:none;stroke-opacity:1"
         sodipodi:nodetypes="cc" />
    </g>
  </g>
  <g
     transform="translate(0,-10)"
     style="display:inline"
     inkscape:label="Boxes"
     id="layer3"
     inkscape:groupmode="layer">
    <rect
       style="opacity:1;fill:none;fill-opacity:1;stroke:#808080;stroke-width:0.61131555;stroke-linejoin:round;stroke-miterlimit:4;stroke-dasharray:none;stroke-dashoffset:0;stroke-opacity:1"
       id="rect4638"
       width="25.172342"
       height="17.232983"
       x="116.82504"
       y="13.075571"
       ry="1.6155922" />
    <path
       inkscape:connector-curvature="0"
       id="path4688"
       d="m 125.60033,34.478268 c 0.6393,-0.357064 1.18024,-1.021752 1.49834,-1.841081 0.21347,-0.549964 0.35582,-1.221183 0.39108,-1.844281 l 0.0161,-0.27758 h 1.74639 1.74642 l 0.0163,0.286325 c 0.0343,0.604531 0.19327,1.35066 0.39805,1.866971 0.32353,0.81575 0.8912,1.49224 1.54757,1.844215 l 0.16288,0.08732 -3.87109,3.77e-4 -3.87112,3.78e-4 0.21956,-0.122654 z"
       style="opacity:1;fill:#808080;fill-opacity:1;stroke:#808080;stroke-width:0.55730522;stroke-linejoin:round;stroke-miterlimit:4;stroke-dasharray:none;stroke-dashoffset:0;stroke-opacity:1" />
    <rect
       ry="1.6155922"
       y="50.226299"
       x="117.3634"
       height="17.232983"
       width="25.172342"
       id="rect9682"
       style="opacity:1;fill:none;fill-opacity:1;stroke:#808080;stroke-width:0.61131555;stroke-linejoin:round;stroke-miterlimit:4;stroke-dasharray:none;stroke-dashoffset:0;stroke-opacity:1" />
    <path
       style="opacity:1;fill:#808080;fill-opacity:1;stroke:#808080;stroke-width:0.55730522;stroke-linejoin:round;stroke-miterlimit:4;stroke-dasharray:none;stroke-dashoffset:0;stroke-opacity:1"
       d="m 125.60033,71.636613 c 0.6393,-0.357062 1.18024,-1.02175 1.49834,-1.84108 0.21347,-0.549963 0.35582,-1.221181 0.39108,-1.844281 l 0.0161,-0.277581 h 1.74639 1.74642 l 0.0163,0.286326 c 0.0343,0.604532 0.19327,1.35066 0.39805,1.866969 0.32353,0.81575 0.8912,1.492244 1.54757,1.844219 l 0.16288,0.08732 -3.87109,3.78e-4 -3.87112,3.76e-4 0.21956,-0.12264 z"
       id="path6312"
       inkscape:connector-curvature="0" />
  </g>
  <g
     transform="translate(0,-10)"
     style="display:inline"
     inkscape:label="Displaye"
     id="layer4"
     inkscape:groupmode="layer" />
  <g
     transform="translate(0,-10)"
     style="display:inline"
     inkscape:label="Labels"
     id="layer5"
     inkscape:groupmode="layer">
    <rect
       style="display:inline;opacity:1;fill:#784421;fill-opacity:0.40392157;stroke:#808080;stroke-width:0.47842586;stroke-linejoin:round;stroke-miterlimit:4;stroke-dasharray:none;stroke-dashoffset:0;stroke-opacity:1"
       id="rect4507"
       width="24.435759"
       height="10.88327"
       x="75.155563"
       y="28.12962"
       ry="1.0203066" />
    <rect
       style="display:inline;opacity:1;fill:#eaffa0;fill-opacity:1;stroke:#808080;stroke-width:0.36724773;stroke-linejoin:round;stroke-miterlimit:4;stroke-dasharray:none;stroke-dashoffset:0;stroke-opacity:1"
       id="rect4534"
       width="1.5336109"
       height="0.25560182"
       x="91.952576"
       y="29.670002"
       ry="0.12780091" />
    <rect
       ry="0.12780091"
       y="29.670002"
       x="94.381752"
       height="0.25560182"
       width="1.5336109"
       id="rect4536"
       style="display:inline;opacity:1;fill:#eaffa0;fill-opacity:1;stroke:#808080;stroke-width:0.36724773;stroke-linejoin:round;stroke-miterlimit:4;stroke-dasharray:none;stroke-dashoffset:0;stroke-opacity:1" />
    <rect
       style="display:inline;opacity:1;fill:#eaffa0;fill-opacity:1;stroke:#808080;stroke-width:0.36724773;stroke-linejoin:round;stroke-miterlimit:4;stroke-dasharray:none;stroke-dashoffset:0;stroke-opacity:1"
       id="rect4538"
       width="1.5336109"
       height="0.25560182"
       x="96.810966"
       y="29.670002"
       ry="0.12780091" />
    <rect
       ry="0.12780091"
       y="30.641684"
       x="94.381805"
       height="0.25560182"
       width="1.5336109"
       id="rect4540"
       style="display:inline;opacity:1;fill:#eaffa0;fill-opacity:1;stroke:#808080;stroke-width:0.36724773;stroke-linejoin:round;stroke-miterlimit:4;stroke-dasharray:none;stroke-dashoffset:0;stroke-opacity:1" />
    <rect
       style="display:inline;opacity:1;fill:#eaffa0;fill-opacity:1;stroke:#808080;stroke-width:0.36724773;stroke-linejoin:round;stroke-miterlimit:4;stroke-dasharray:none;stroke-dashoffset:0;stroke-opacity:1"
       id="rect4542"
       width="1.5336109"
       height="0.25560182"
       x="96.810966"
       y="30.641684"
       ry="0.12780091" />
    <rect
       style="display:inline;opacity:1;fill:#eaffa0;fill-opacity:1;stroke:#808080;stroke-width:0.36724773;stroke-linejoin:round;stroke-miterlimit:4;stroke-dasharray:none;stroke-dashoffset:0;stroke-opacity:1"
       id="rect4544"
       width="1.5336109"
       height="0.25560182"
       x="91.952629"
       y="30.641684"
       ry="0.12780091" />
    <rect
       ry="0.12780091"
       y="31.613359"
       x="91.952576"
       height="0.25560182"
       width="1.5336109"
       id="rect4546"
       style="display:inline;opacity:1;fill:#eaffa0;fill-opacity:1;stroke:#808080;stroke-width:0.36724773;stroke-linejoin:round;stroke-miterlimit:4;stroke-dasharray:none;stroke-dashoffset:0;stroke-opacity:1" />
    <rect
       style="display:inline;opacity:1;fill:#eaffa0;fill-opacity:1;stroke:#808080;stroke-width:0.36724773;stroke-linejoin:round;stroke-miterlimit:4;stroke-dasharray:none;stroke-dashoffset:0;stroke-opacity:1"
       id="rect4548"
       width="1.5336109"
       height="0.25560182"
       x="94.381752"
       y="31.613359"
       ry="0.12780091" />
    <rect
       ry="0.12780091"
       y="31.613359"
       x="96.810966"
       height="0.25560182"
       width="1.5336109"
       id="rect4550"
       style="display:inline;opacity:1;fill:#eaffa0;fill-opacity:1;stroke:#808080;stroke-width:0.36724773;stroke-linejoin:round;stroke-miterlimit:4;stroke-dasharray:none;stroke-dashoffset:0;stroke-opacity:1" />
    <rect
       style="display:inline;opacity:1;fill:#eaffa0;fill-opacity:1;stroke:#808080;stroke-width:0.36724773;stroke-linejoin:round;stroke-miterlimit:4;stroke-dasharray:none;stroke-dashoffset:0;stroke-opacity:1"
       id="rect4552"
       width="1.5336109"
       height="0.25560182"
       x="94.381805"
       y="32.58503"
       ry="0.12780091" />
    <rect
       ry="0.12780091"
       y="32.58503"
       x="96.810966"
       height="0.25560182"
       width="1.5336109"
       id="rect4554"
       style="display:inline;opacity:1;fill:#eaffa0;fill-opacity:1;stroke:#808080;stroke-width:0.36724773;stroke-linejoin:round;stroke-miterlimit:4;stroke-dasharray:none;stroke-dashoffset:0;stroke-opacity:1" />
    <rect
       ry="0.12780091"
       y="32.58503"
       x="91.952629"
       height="0.25560182"
       width="1.5336109"
       id="rect4556"
       style="display:inline;opacity:1;fill:#eaffa0;fill-opacity:1;stroke:#808080;stroke-width:0.36724773;stroke-linejoin:round;stroke-miterlimit:4;stroke-dasharray:none;stroke-dashoffset:0;stroke-opacity:1" />
    <rect
       ry="0.12780091"
       y="29.670002"
       x="89.523354"
       height="0.25560182"
       width="1.5336109"
       id="rect4558"
       style="display:inline;opacity:1;fill:#eaffa0;fill-opacity:1;stroke:#808080;stroke-width:0.36724773;stroke-linejoin:round;stroke-miterlimit:4;stroke-dasharray:none;stroke-dashoffset:0;stroke-opacity:1" />
    <rect
       ry="0.12780091"
       y="30.641684"
       x="89.523392"
       height="0.25560182"
       width="1.5336109"
       id="rect4560"
       style="display:inline;opacity:1;fill:#eaffa0;fill-opacity:1;stroke:#808080;stroke-width:0.36724773;stroke-linejoin:round;stroke-miterlimit:4;stroke-dasharray:none;stroke-dashoffset:0;stroke-opacity:1" />
    <rect
       style="display:inline;opacity:1;fill:#eaffa0;fill-opacity:1;stroke:#808080;stroke-width:0.36724773;stroke-linejoin:round;stroke-miterlimit:4;stroke-dasharray:none;stroke-dashoffset:0;stroke-opacity:1"
       id="rect4562"
       width="1.5336109"
       height="0.25560182"
       x="89.523354"
       y="31.613359"
       ry="0.12780091" />
    <rect
       style="display:inline;opacity:1;fill:#eaffa0;fill-opacity:1;stroke:#808080;stroke-width:0.36724773;stroke-linejoin:round;stroke-miterlimit:4;stroke-dasharray:none;stroke-dashoffset:0;stroke-opacity:1"
       id="rect4564"
       width="1.5336109"
       height="0.25560182"
       x="89.523392"
       y="32.58503"
       ry="0.12780091" />
    <rect
       ry="0.12780091"
       y="33.556709"
       x="91.952576"
       height="0.25560182"
       width="1.5336109"
       id="rect4566"
       style="display:inline;opacity:1;fill:#eaffa0;fill-opacity:1;stroke:#808080;stroke-width:0.36724773;stroke-linejoin:round;stroke-miterlimit:4;stroke-dasharray:none;stroke-dashoffset:0;stroke-opacity:1" />
    <rect
       style="display:inline;opacity:1;fill:#eaffa0;fill-opacity:1;stroke:#808080;stroke-width:0.36724773;stroke-linejoin:round;stroke-miterlimit:4;stroke-dasharray:none;stroke-dashoffset:0;stroke-opacity:1"
       id="rect4568"
       width="1.5336109"
       height="0.25560182"
       x="94.381752"
       y="33.556709"
       ry="0.12780091" />
    <rect
       ry="0.12780091"
       y="33.556709"
       x="96.810966"
       height="0.25560182"
       width="1.5336109"
       id="rect4570"
       style="display:inline;opacity:1;fill:#eaffa0;fill-opacity:1;stroke:#808080;stroke-width:0.36724773;stroke-linejoin:round;stroke-miterlimit:4;stroke-dasharray:none;stroke-dashoffset:0;stroke-opacity:1" />
    <rect
       style="display:inline;opacity:1;fill:#eaffa0;fill-opacity:1;stroke:#808080;stroke-width:0.36724773;stroke-linejoin:round;stroke-miterlimit:4;stroke-dasharray:none;stroke-dashoffset:0;stroke-opacity:1"
       id="rect4590"
       width="1.5336109"
       height="0.25560182"
       x="89.523354"
       y="33.556709"
       ry="0.12780091" />
    <circle
       style="display:inline;opacity:1;fill:#eaffa0;fill-opacity:1;stroke:#808080;stroke-width:0.13771787;stroke-linejoin:round;stroke-miterlimit:4;stroke-dasharray:none;stroke-dashoffset:0;stroke-opacity:1"
       id="circle4598"
       cx="77.303688"
       cy="35.739716"
       r="0.3692027" />
    <circle
       r="0.3692027"
       cy="35.739716"
       cx="78.7612"
       id="circle4600"
       style="display:inline;opacity:1;fill:#eaffa0;fill-opacity:1;stroke:#808080;stroke-width:0.13771787;stroke-linejoin:round;stroke-miterlimit:4;stroke-dasharray:none;stroke-dashoffset:0;stroke-opacity:1" />
    <circle
       style="display:inline;opacity:1;fill:#eaffa0;fill-opacity:1;stroke:#808080;stroke-width:0.13771787;stroke-linejoin:round;stroke-miterlimit:4;stroke-dasharray:none;stroke-dashoffset:0;stroke-opacity:1"
       id="circle4602"
       cx="80.218704"
       cy="35.739716"
       r="0.3692027" />
    <circle
       r="0.3692027"
       cy="35.739716"
       cx="81.676216"
       id="circle4604"
       style="display:inline;opacity:1;fill:#eaffa0;fill-opacity:1;stroke:#808080;stroke-width:0.13771787;stroke-linejoin:round;stroke-miterlimit:4;stroke-dasharray:none;stroke-dashoffset:0;stroke-opacity:1" />
    <circle
       style="display:inline;opacity:1;fill:#eaffa0;fill-opacity:1;stroke:#808080;stroke-width:0.13771787;stroke-linejoin:round;stroke-miterlimit:4;stroke-dasharray:none;stroke-dashoffset:0;stroke-opacity:1"
       id="circle4606"
       cx="83.133751"
       cy="35.739716"
       r="0.3692027" />
    <circle
       r="0.3692027"
       cy="35.739716"
       cx="84.591263"
       id="circle4608"
       style="display:inline;opacity:1;fill:#eaffa0;fill-opacity:1;stroke:#808080;stroke-width:0.13771787;stroke-linejoin:round;stroke-miterlimit:4;stroke-dasharray:none;stroke-dashoffset:0;stroke-opacity:1" />
    <circle
       r="0.3692027"
       cy="35.739716"
       cx="86.048759"
       id="circle4610"
       style="display:inline;opacity:1;fill:#eaffa0;fill-opacity:1;stroke:#808080;stroke-width:0.13771787;stroke-linejoin:round;stroke-miterlimit:4;stroke-dasharray:none;stroke-dashoffset:0;stroke-opacity:1" />
    <circle
       style="display:inline;opacity:1;fill:#eaffa0;fill-opacity:1;stroke:#808080;stroke-width:0.13771787;stroke-linejoin:round;stroke-miterlimit:4;stroke-dasharray:none;stroke-dashoffset:0;stroke-opacity:1"
       id="circle4612"
       cx="87.506264"
       cy="35.739716"
       r="0.3692027" />
    <circle
       r="0.3692027"
       cy="35.739716"
       cx="88.963799"
       id="circle4614"
       style="display:inline;opacity:1;fill:#eaffa0;fill-opacity:1;stroke:#808080;stroke-width:0.13771787;stroke-linejoin:round;stroke-miterlimit:4;stroke-dasharray:none;stroke-dashoffset:0;stroke-opacity:1" />
    <circle
       style="display:inline;opacity:1;fill:#eaffa0;fill-opacity:1;stroke:#808080;stroke-width:0.13771787;stroke-linejoin:round;stroke-miterlimit:4;stroke-dasharray:none;stroke-dashoffset:0;stroke-opacity:1"
       id="circle4616"
       cx="90.421326"
       cy="35.739716"
       r="0.3692027" />
    <circle
       r="0.3692027"
       cy="37.197231"
       cx="77.303688"
       id="circle4618"
       style="display:inline;opacity:1;fill:#eaffa0;fill-opacity:1;stroke:#808080;stroke-width:0.13771787;stroke-linejoin:round;stroke-miterlimit:4;stroke-dasharray:none;stroke-dashoffset:0;stroke-opacity:1" />
    <circle
       style="display:inline;opacity:1;fill:#eaffa0;fill-opacity:1;stroke:#808080;stroke-width:0.13771787;stroke-linejoin:round;stroke-miterlimit:4;stroke-dasharray:none;stroke-dashoffset:0;stroke-opacity:1"
       id="circle4620"
       cx="78.7612"
       cy="37.197231"
       r="0.3692027" />
    <circle
       r="0.3692027"
       cy="37.197231"
       cx="80.218704"
       id="circle4622"
       style="display:inline;opacity:1;fill:#eaffa0;fill-opacity:1;stroke:#808080;stroke-width:0.13771787;stroke-linejoin:round;stroke-miterlimit:4;stroke-dasharray:none;stroke-dashoffset:0;stroke-opacity:1" />
    <circle
       style="display:inline;opacity:1;fill:#eaffa0;fill-opacity:1;stroke:#808080;stroke-width:0.13771787;stroke-linejoin:round;stroke-miterlimit:4;stroke-dasharray:none;stroke-dashoffset:0;stroke-opacity:1"
       id="circle4624"
       cx="81.676216"
       cy="37.197231"
       r="0.3692027" />
    <circle
       r="0.3692027"
       cy="37.197231"
       cx="83.133751"
       id="circle4626"
       style="display:inline;opacity:1;fill:#eaffa0;fill-opacity:1;stroke:#808080;stroke-width:0.13771787;stroke-linejoin:round;stroke-miterlimit:4;stroke-dasharray:none;stroke-dashoffset:0;stroke-opacity:1" />
    <circle
       style="display:inline;opacity:1;fill:#eaffa0;fill-opacity:1;stroke:#808080;stroke-width:0.13771787;stroke-linejoin:round;stroke-miterlimit:4;stroke-dasharray:none;stroke-dashoffset:0;stroke-opacity:1"
       id="circle4628"
       cx="84.591263"
       cy="37.197231"
       r="0.3692027" />
    <circle
       style="display:inline;opacity:1;fill:#eaffa0;fill-opacity:1;stroke:#808080;stroke-width:0.13771787;stroke-linejoin:round;stroke-miterlimit:4;stroke-dasharray:none;stroke-dashoffset:0;stroke-opacity:1"
       id="circle4630"
       cx="86.048759"
       cy="37.197231"
       r="0.3692027" />
    <circle
       r="0.3692027"
       cy="37.197231"
       cx="87.506264"
       id="circle4632"
       style="display:inline;opacity:1;fill:#eaffa0;fill-opacity:1;stroke:#808080;stroke-width:0.13771787;stroke-linejoin:round;stroke-miterlimit:4;stroke-dasharray:none;stroke-dashoffset:0;stroke-opacity:1" />
    <circle
       style="display:inline;opacity:1;fill:#eaffa0;fill-opacity:1;stroke:#808080;stroke-width:0.13771787;stroke-linejoin:round;stroke-miterlimit:4;stroke-dasharray:none;stroke-dashoffset:0;stroke-opacity:1"
       id="circle4634"
       cx="88.963799"
       cy="37.197231"
       r="0.3692027" />
    <circle
       r="0.3692027"
       cy="37.197231"
       cx="90.421326"
       id="circle4636"
       style="display:inline;opacity:1;fill:#eaffa0;fill-opacity:1;stroke:#808080;stroke-width:0.13771787;stroke-linejoin:round;stroke-miterlimit:4;stroke-dasharray:none;stroke-dashoffset:0;stroke-opacity:1" />
    <rect
       ry="0.20773974"
       y="29.641861"
       x="76.567841"
       height="2.2158904"
       width="11.912856"
       id="rect4511"
       style="display:inline;opacity:1;fill:#eaffa0;fill-opacity:1;stroke:#808080;stroke-width:0.1507315;stroke-linejoin:round;stroke-miterlimit:4;stroke-dasharray:none;stroke-dashoffset:0;stroke-opacity:1" />
    <text
       xml:space="preserve"
       style="font-style:normal;font-weight:normal;font-size:2.82222223px;line-height:1.25;font-family:sans-serif;text-align:center;letter-spacing:0px;word-spacing:0px;text-anchor:middle;fill:#000000;fill-opacity:1;stroke:none;stroke-width:0.24291903"
       x="87.260025"
       y="26.242302"
       id="text6264"><tspan
         sodipodi:role="line"
         id="tspan6262"
         x="87.260025"
         y="26.242302"
         style="font-size:2.82222223px;text-align:center;text-anchor:middle;stroke-width:0.24291903">AFM controller</tspan></text>
    <text
       xml:space="preserve"
       style="font-style:normal;font-weight:normal;font-size:2.82222223px;line-height:1.25;font-family:sans-serif;text-align:center;letter-spacing:0px;word-spacing:0px;text-anchor:middle;fill:#000000;fill-opacity:1;stroke:none;stroke-width:0.24291903"
       x="54.791367"
       y="51.304962"
       id="text6268"><tspan
         sodipodi:role="line"
         id="tspan6266"
         x="54.791367"
         y="51.304962"
         style="font-size:2.82222223px;text-align:center;text-anchor:middle;stroke-width:0.24291903">AFM probe</tspan></text>
    <text
       id="text6272"
       y="14.26891"
       x="3.9175045"
       style="font-style:normal;font-weight:normal;font-size:2.82222223px;line-height:1.25;font-family:sans-serif;text-align:start;letter-spacing:0px;word-spacing:0px;text-anchor:start;fill:#000000;fill-opacity:1;stroke:none;stroke-width:0.24291903"
       xml:space="preserve"><tspan
         style="font-size:2.82222223px;text-align:start;text-anchor:start;stroke-width:0.24291903"
         y="14.26891"
         x="3.9175045"
         id="tspan6270"
         sodipodi:role="line">signal</tspan></text>
    <text
       xml:space="preserve"
       style="font-style:normal;font-weight:normal;font-size:12.61161041px;line-height:1.25;font-family:sans-serif;text-align:center;letter-spacing:0px;word-spacing:0px;text-anchor:middle;fill:#000000;fill-opacity:1;stroke:none;stroke-width:0.31529027"
       x="130.03543"
       y="38.855614"
       id="text6280"><tspan
         sodipodi:role="line"
         id="tspan6278"
         x="130.03543"
         y="38.855614"
         style="font-size:2.82222223px;text-align:center;text-anchor:middle;stroke-width:0.31529027">topography</tspan></text>
    <text
       id="text6284"
       y="75.712181"
       x="130.48318"
       style="font-style:normal;font-weight:normal;font-size:12.61161041px;line-height:1.25;font-family:sans-serif;text-align:center;letter-spacing:0px;word-spacing:0px;text-anchor:middle;fill:#000000;fill-opacity:1;stroke:none;stroke-width:0.31529027"
       xml:space="preserve"><tspan
         style="font-size:2.82222223px;text-align:center;text-anchor:middle;stroke-width:0.31529027"
         y="75.712181"
         x="130.48318"
         id="tspan6282"
         sodipodi:role="line">current data</tspan></text>
    <text
       xml:space="preserve"
       style="font-style:normal;font-weight:normal;font-size:2.82222222px;line-height:1.25;font-family:sans-serif;text-align:end;letter-spacing:0px;word-spacing:0px;text-anchor:end;fill:#000000;fill-opacity:1;stroke:none;stroke-width:0.24291903;"
       x="17.449608"
       y="62.006161"
       id="text6288"><tspan
         sodipodi:role="line"
         id="tspan6286"
         x="17.449608"
         y="62.006161"
         style="font-size:2.82222222px;text-align:end;text-anchor:end;stroke-width:0.24291903;">sample</tspan></text>
    <rect
       style="display:inline;opacity:1;fill:#6c5d53;fill-opacity:0.40392157;stroke:#808080;stroke-width:0.36724773;stroke-linejoin:round;stroke-miterlimit:4;stroke-dasharray:none;stroke-dashoffset:0;stroke-opacity:1"
       id="rect4831"
       width="24.492332"
       height="6.3979974"
       x="75.706947"
       y="67.240532"
       ry="0.59981227" />
    <rect
       style="display:inline;opacity:1;fill:#eaffa0;fill-opacity:1;stroke:#808080;stroke-width:0.36724773;stroke-linejoin:round;stroke-miterlimit:4;stroke-dasharray:none;stroke-dashoffset:0;stroke-opacity:1"
       id="rect4833"
       width="1.5336109"
       height="0.25560182"
       x="90.189941"
       y="68.662811"
       ry="0.12780091" />
    <rect
       ry="0.12780091"
       y="68.662811"
       x="92.619118"
       height="0.25560182"
       width="1.5336109"
       id="rect4835"
       style="display:inline;opacity:1;fill:#eaffa0;fill-opacity:1;stroke:#808080;stroke-width:0.36724773;stroke-linejoin:round;stroke-miterlimit:4;stroke-dasharray:none;stroke-dashoffset:0;stroke-opacity:1" />
    <rect
       style="display:inline;opacity:1;fill:#eaffa0;fill-opacity:1;stroke:#808080;stroke-width:0.36724773;stroke-linejoin:round;stroke-miterlimit:4;stroke-dasharray:none;stroke-dashoffset:0;stroke-opacity:1"
       id="rect4837"
       width="1.5336109"
       height="0.25560182"
       x="95.048347"
       y="68.662811"
       ry="0.12780091" />
    <rect
       ry="0.12780091"
       y="69.634499"
       x="92.619194"
       height="0.25560182"
       width="1.5336109"
       id="rect4839"
       style="display:inline;opacity:1;fill:#eaffa0;fill-opacity:1;stroke:#808080;stroke-width:0.36724773;stroke-linejoin:round;stroke-miterlimit:4;stroke-dasharray:none;stroke-dashoffset:0;stroke-opacity:1" />
    <rect
       style="display:inline;opacity:1;fill:#eaffa0;fill-opacity:1;stroke:#808080;stroke-width:0.36724773;stroke-linejoin:round;stroke-miterlimit:4;stroke-dasharray:none;stroke-dashoffset:0;stroke-opacity:1"
       id="rect4841"
       width="1.5336109"
       height="0.25560182"
       x="95.048347"
       y="69.634499"
       ry="0.12780091" />
    <rect
       style="display:inline;opacity:1;fill:#eaffa0;fill-opacity:1;stroke:#808080;stroke-width:0.36724773;stroke-linejoin:round;stroke-miterlimit:4;stroke-dasharray:none;stroke-dashoffset:0;stroke-opacity:1"
       id="rect4843"
       width="1.5336109"
       height="0.25560182"
       x="90.189941"
       y="69.634499"
       ry="0.12780091" />
    <circle
       style="display:inline;opacity:1;fill:#eaffa0;fill-opacity:1;stroke:#808080;stroke-width:0.13771787;stroke-linejoin:round;stroke-miterlimit:4;stroke-dasharray:none;stroke-dashoffset:0;stroke-opacity:1"
       id="circle4845"
       cx="90.473938"
       cy="71.900429"
       r="0.3692027" />
    <circle
       r="0.3692027"
       cy="71.900429"
       cx="91.931458"
       id="circle4847"
       style="display:inline;opacity:1;fill:#eaffa0;fill-opacity:1;stroke:#808080;stroke-width:0.13771787;stroke-linejoin:round;stroke-miterlimit:4;stroke-dasharray:none;stroke-dashoffset:0;stroke-opacity:1" />
    <circle
       style="display:inline;opacity:1;fill:#eaffa0;fill-opacity:1;stroke:#808080;stroke-width:0.13771787;stroke-linejoin:round;stroke-miterlimit:4;stroke-dasharray:none;stroke-dashoffset:0;stroke-opacity:1"
       id="circle4849"
       cx="93.388954"
       cy="71.900429"
       r="0.3692027" />
    <rect
       ry="0.21012339"
       y="68.467537"
       x="77.009918"
       height="2.2413158"
       width="8.1394691"
       id="rect4851"
       style="display:inline;opacity:1;fill:#eaffa0;fill-opacity:1;stroke:#808080;stroke-width:0.12530591;stroke-linejoin:round;stroke-miterlimit:4;stroke-dasharray:none;stroke-dashoffset:0;stroke-opacity:1" />
    <g
       aria-label="KEITHLEY 237"
       style="font-style:normal;font-variant:normal;font-weight:normal;font-stretch:normal;font-size:4.58611107px;line-height:6.61458302px;font-family:'Courier New';-inkscape-font-specification:'Courier New';letter-spacing:0px;word-spacing:0px;display:inline;fill:#502d16;fill-opacity:1;stroke:none;stroke-width:0.26458332"
       id="text4920"
       transform="matrix(1.2454691,0,0,1.2454691,-37.374367,-20.250313)">
      <path
         d="m 92.047539,74.272729 v 0.117306 h 0.03824 q 0.03824,0 0.05426,0.01499 0.01654,0.01447 0.01654,0.03824 0,0.02325 -0.01654,0.03824 -0.01602,0.01447 -0.05426,0.01447 h -0.160714 q -0.03824,0 -0.05478,-0.01447 -0.01602,-0.01499 -0.01602,-0.03876 0,-0.02325 0.01654,-0.03772 0.01654,-0.01499 0.05426,-0.01499 h 0.01654 V 73.97559 h -0.01654 q -0.03824,0 -0.05478,-0.01447 -0.01602,-0.01499 -0.01602,-0.03876 0,-0.02377 0.01602,-0.03824 0.01654,-0.01499 0.05478,-0.01499 l 0.160714,5.16e-4 q 0.03824,0 0.05426,0.01447 0.01654,0.01447 0.01654,0.03824 0,0.02377 -0.01654,0.03876 -0.01602,0.01447 -0.05426,0.01447 h -0.03824 v 0.157096 l 0.188103,-0.161747 q -0.01654,-0.01189 -0.02274,-0.02222 -0.0062,-0.01033 -0.0062,-0.02532 0,-0.02429 0.01602,-0.03927 0.01654,-0.01499 0.05478,-0.01499 l 0.108004,5.16e-4 q 0.03824,0 0.05426,0.01447 0.01654,0.01447 0.01654,0.03824 0,0.02325 -0.01654,0.03824 -0.01602,0.01499 -0.05064,0.01499 l -0.19017,0.166398 q 0.05323,0.03049 0.09974,0.09302 0.04703,0.06253 0.0832,0.155029 h 0.02842 q 0.03772,0 0.05374,0.01499 0.01654,0.01447 0.01654,0.03824 0,0.02325 -0.01602,0.03824 -0.01602,0.01447 -0.05426,0.01447 h -0.09612 q -0.03307,-0.07906 -0.07235,-0.150896 -0.03204,-0.05839 -0.06098,-0.08475 -0.02842,-0.02687 -0.06821,-0.04289 z"
         style="font-weight:bold;font-size:1.0583334px;fill:#502d16;stroke-width:0.26458332"
         id="path953"
         inkscape:connector-curvature="0" />
      <path
         d="m 92.683676,74.234489 v 0.155546 h 0.270268 v -0.05736 q 0,-0.03824 0.01447,-0.05426 0.01499,-0.01654 0.03876,-0.01654 0.02325,0 0.03772,0.01654 0.01499,0.01602 0.01499,0.05426 v 0.163298 h -0.498678 q -0.03824,0 -0.05478,-0.01447 -0.01602,-0.01499 -0.01602,-0.03876 0,-0.02325 0.01654,-0.03772 0.01654,-0.01499 0.05426,-0.01499 h 0.01654 V 73.97559 h -0.01654 q -0.03824,0 -0.05478,-0.01447 -0.01602,-0.01499 -0.01602,-0.03876 0,-0.02377 0.01602,-0.03824 0.01654,-0.01499 0.05478,-0.01499 l 0.475423,5.16e-4 v 0.161231 q 0,0.03772 -0.01447,0.05426 -0.01447,0.01602 -0.03824,0.01602 -0.02377,0 -0.03876,-0.01602 -0.01447,-0.01602 -0.01447,-0.05426 v -0.05529 h -0.247014 v 0.152962 h 0.09302 q 0,-0.04134 0.0078,-0.05323 0.01602,-0.02532 0.04548,-0.02532 0.02325,0 0.03772,0.01654 0.01499,0.01602 0.01499,0.05426 v 0.121956 q 0,0.03462 -0.0083,0.04651 -0.01654,0.02429 -0.04444,0.02429 -0.02946,0 -0.04548,-0.02532 -0.0078,-0.01188 -0.0078,-0.05374 z"
         style="font-weight:bold;font-size:1.0583334px;fill:#502d16;stroke-width:0.26458332"
         id="path955"
         inkscape:connector-curvature="0" />
      <path
         d="m 93.48001,73.97559 v 0.414445 h 0.10697 q 0.03824,0 0.05426,0.01499 0.01654,0.01447 0.01654,0.03824 0,0.02325 -0.01654,0.03824 -0.01602,0.01447 -0.05426,0.01447 h -0.319877 q -0.03824,0 -0.05478,-0.01447 -0.01602,-0.01499 -0.01602,-0.03876 0,-0.02325 0.01602,-0.03772 0.01654,-0.01499 0.05478,-0.01499 h 0.10697 V 73.97559 h -0.10697 q -0.03824,0 -0.05478,-0.01447 -0.01602,-0.01499 -0.01602,-0.03876 0,-0.02377 0.01602,-0.03824 0.01654,-0.01499 0.05478,-0.01499 l 0.319877,5.16e-4 q 0.03824,0 0.05426,0.01447 0.01654,0.01447 0.01654,0.03824 0,0.02377 -0.01654,0.03876 -0.01602,0.01447 -0.05426,0.01447 z"
         style="font-weight:bold;font-size:1.0583334px;fill:#502d16;stroke-width:0.26458332"
         id="path957"
         inkscape:connector-curvature="0" />
      <path
         d="m 94.113046,73.97559 v 0.414445 h 0.07131 q 0.03824,0 0.05426,0.01499 0.01654,0.01447 0.01654,0.03824 0,0.02325 -0.01654,0.03824 -0.01602,0.01447 -0.05426,0.01447 h -0.248047 q -0.03824,0 -0.05478,-0.01447 -0.01602,-0.01499 -0.01602,-0.03876 0,-0.02325 0.01602,-0.03772 0.01654,-0.01499 0.05478,-0.01499 h 0.0708 V 73.97559 h -0.114722 v 0.100252 q 0,0.03824 -0.01499,0.05478 -0.01447,0.01602 -0.03824,0.01602 -0.02325,0 -0.03824,-0.01602 -0.01447,-0.01654 -0.01447,-0.05478 v -0.206705 l 0.548804,5.16e-4 v 0.206189 q 0,0.03824 -0.01499,0.05478 -0.01447,0.01602 -0.03824,0.01602 -0.02325,0 -0.03824,-0.01602 -0.01447,-0.01654 -0.01447,-0.05478 V 73.97559 Z"
         style="font-weight:bold;font-size:1.0583334px;fill:#502d16;stroke-width:0.26458332"
         id="path959"
         inkscape:connector-curvature="0" />
      <path
         d="m 94.812229,74.236556 h -0.226343 v 0.153479 h 0.01654 q 0.03824,0 0.05426,0.01499 0.01654,0.01447 0.01654,0.03824 0,0.02325 -0.01654,0.03824 -0.01602,0.01447 -0.05426,0.01447 h -0.129708 q -0.03824,0 -0.05478,-0.01447 -0.01602,-0.01499 -0.01602,-0.03876 0,-0.02894 0.02532,-0.04496 0.0124,-0.0083 0.05271,-0.0078 V 73.97559 q -0.02791,-0.0026 -0.04238,-0.01705 -0.01395,-0.01447 -0.01395,-0.03617 0,-0.02377 0.01602,-0.03824 0.01654,-0.01499 0.05478,-0.01499 l 0.108003,5.16e-4 q 0.03824,0 0.05426,0.01447 0.01654,0.01447 0.01654,0.03824 0,0.02377 -0.01654,0.03876 -0.01602,0.01447 -0.05426,0.01447 h -0.01654 v 0.155029 h 0.226343 V 73.97559 h -0.01654 q -0.03824,0 -0.05478,-0.01447 -0.01602,-0.01499 -0.01602,-0.03876 0,-0.02377 0.01602,-0.03824 0.01654,-0.01499 0.05478,-0.01499 l 0.108004,5.16e-4 q 0.03824,0 0.05426,0.01447 0.01654,0.01447 0.01654,0.03824 0,0.0217 -0.01447,0.03617 -0.01395,0.01447 -0.04186,0.01705 v 0.414445 q 0.04082,0 0.05271,0.0078 0.02532,0.01602 0.02532,0.04548 0,0.02325 -0.01654,0.03824 -0.01602,0.01447 -0.05426,0.01447 H 94.79568 q -0.03824,0 -0.05478,-0.01447 -0.01602,-0.01499 -0.01602,-0.03876 0,-0.02325 0.01654,-0.03772 0.01654,-0.01499 0.05426,-0.01499 h 0.01654 z"
         style="font-weight:bold;font-size:1.0583334px;fill:#502d16;stroke-width:0.26458332"
         id="path961"
         inkscape:connector-curvature="0" />
      <path
         d="m 95.286618,73.97559 v 0.414445 h 0.22841 v -0.100252 q 0,-0.03824 0.01447,-0.05426 0.01499,-0.01654 0.03876,-0.01654 0.02325,0 0.03772,0.01654 0.01499,0.01602 0.01499,0.05426 v 0.206189 H 95.11919 q -0.03824,0 -0.05478,-0.01447 -0.01602,-0.01499 -0.01602,-0.03876 0,-0.02325 0.01602,-0.03772 0.01654,-0.01499 0.05478,-0.01499 h 0.0615 V 73.97559 h -0.0615 q -0.03824,0 -0.05478,-0.01447 -0.01602,-0.01499 -0.01602,-0.03876 0,-0.02377 0.01602,-0.03824 0.01654,-0.01499 0.05478,-0.01499 l 0.229443,5.16e-4 q 0.03824,0 0.05426,0.01447 0.01654,0.01447 0.01654,0.03824 0,0.02377 -0.01654,0.03876 -0.01602,0.01447 -0.05426,0.01447 z"
         style="font-weight:bold;font-size:1.0583334px;fill:#502d16;stroke-width:0.26458332"
         id="path963"
         inkscape:connector-curvature="0" />
      <path
         d="m 95.856609,74.234489 v 0.155546 h 0.270268 v -0.05736 q 0,-0.03824 0.01447,-0.05426 0.01499,-0.01654 0.03876,-0.01654 0.02325,0 0.03772,0.01654 0.01499,0.01602 0.01499,0.05426 v 0.163298 h -0.498678 q -0.03824,0 -0.05478,-0.01447 -0.01602,-0.01499 -0.01602,-0.03876 0,-0.02325 0.01654,-0.03772 0.01654,-0.01499 0.05426,-0.01499 h 0.01654 V 73.97559 h -0.01654 q -0.03824,0 -0.05478,-0.01447 -0.01602,-0.01499 -0.01602,-0.03876 0,-0.02377 0.01602,-0.03824 0.01654,-0.01499 0.05478,-0.01499 l 0.475424,5.16e-4 v 0.161231 q 0,0.03772 -0.01447,0.05426 -0.01447,0.01602 -0.03824,0.01602 -0.02377,0 -0.03876,-0.01602 -0.01447,-0.01602 -0.01447,-0.05426 v -0.05529 h -0.247014 v 0.152962 h 0.09302 q 0,-0.04134 0.0078,-0.05323 0.01602,-0.02532 0.04547,-0.02532 0.02325,0 0.03772,0.01654 0.01499,0.01602 0.01499,0.05426 v 0.121956 q 0,0.03462 -0.0083,0.04651 -0.01654,0.02429 -0.04444,0.02429 -0.02946,0 -0.04547,-0.02532 -0.0078,-0.01188 -0.0078,-0.05374 z"
         style="font-weight:bold;font-size:1.0583334px;fill:#502d16;stroke-width:0.26458332"
         id="path965"
         inkscape:connector-curvature="0" />
      <path
         d="m 96.65346,74.232939 v 0.157096 h 0.07131 q 0.03824,0 0.05426,0.01499 0.01654,0.01447 0.01654,0.03824 0,0.02325 -0.01654,0.03824 -0.01602,0.01447 -0.05426,0.01447 h -0.24856 q -0.03772,0 -0.05426,-0.01447 -0.01602,-0.01499 -0.01602,-0.03876 0,-0.02325 0.01602,-0.03772 0.01654,-0.01499 0.05426,-0.01499 h 0.07131 V 74.232939 L 96.37234,73.97559 q -0.03514,0 -0.05168,-0.01499 -0.01602,-0.01499 -0.01602,-0.03824 0,-0.02377 0.01602,-0.03824 0.01654,-0.01499 0.05478,-0.01499 l 0.09612,5.16e-4 q 0.03824,0 0.05426,0.01447 0.01654,0.01447 0.01654,0.03824 0,0.03566 -0.04186,0.05323 l 0.100252,0.147795 0.09819,-0.147795 q -0.02325,-0.0088 -0.03307,-0.02222 -0.0098,-0.01344 -0.0098,-0.03101 0,-0.02377 0.01602,-0.03824 0.01654,-0.01447 0.05478,-0.01499 l 0.09974,5.16e-4 q 0.03824,0 0.05426,0.01447 0.01654,0.01447 0.01654,0.03824 0,0.02377 -0.01654,0.03876 -0.01654,0.01447 -0.05374,0.01447 z"
         style="font-weight:bold;font-size:1.0583334px;fill:#502d16;stroke-width:0.26458332"
         id="path967"
         inkscape:connector-curvature="0" />
      <path
         d="m 97.770188,74.390035 h 0.232027 q 0.01912,-0.0155 0.03617,-0.0155 0.02429,0 0.03824,0.01602 0.01447,0.01602 0.01447,0.05478 v 0.05064 h -0.482658 v -0.112138 q 0.286287,-0.236161 0.345715,-0.303858 0.02997,-0.03462 0.02997,-0.06563 0,-0.03876 -0.03411,-0.06821 -0.03359,-0.02997 -0.08992,-0.02997 -0.05684,0 -0.09457,0.03307 -0.01964,0.01757 -0.03152,0.05219 -0.0072,0.0217 -0.02015,0.03101 -0.0124,0.0093 -0.03101,0.0093 -0.0217,0 -0.03772,-0.0155 -0.0155,-0.0155 -0.0155,-0.03617 0,-0.03101 0.02842,-0.07751 0.02894,-0.04651 0.08372,-0.07441 0.05529,-0.02791 0.119889,-0.02791 0.100253,0 0.164331,0.06098 0.06408,0.06046 0.06408,0.146761 0,0.04393 -0.0186,0.08165 -0.01809,0.03721 -0.08785,0.103353 -0.05478,0.05219 -0.213424,0.187069 z"
         style="font-weight:bold;font-size:1.0583334px;fill:#502d16;stroke-width:0.26458332"
         id="path969"
         inkscape:connector-curvature="0" />
      <path
         d="m 98.654888,74.141988 q 0.04703,0.03204 0.07028,0.07441 0.02326,0.04186 0.02326,0.09405 0,0.05633 -0.03101,0.104387 -0.03049,0.04754 -0.08888,0.07235 -0.05839,0.02429 -0.152962,0.02429 -0.12299,0 -0.185002,-0.03824 -0.03462,-0.0217 -0.03462,-0.05168 0,-0.02274 0.01499,-0.03824 0.0155,-0.01602 0.03721,-0.01602 0.01499,0 0.03101,0.01034 0.02274,0.0155 0.04289,0.02067 0.03101,0.0072 0.08527,0.0072 0.0925,0 0.133842,-0.02377 0.04134,-0.02429 0.04134,-0.06821 0,-0.03256 -0.02429,-0.06253 -0.02377,-0.03049 -0.06408,-0.04703 -0.02325,-0.0093 -0.07855,-0.01292 -0.02635,-0.0016 -0.04082,-0.01602 -0.01395,-0.01499 -0.01395,-0.03669 0,-0.02274 0.0155,-0.03824 0.0155,-0.0155 0.03927,-0.0155 0.05271,0 0.05633,-5.17e-4 0.02067,-0.0021 0.04134,-0.01344 0.02067,-0.01137 0.03307,-0.03101 0.01292,-0.02015 0.01292,-0.04134 0,-0.03359 -0.02997,-0.05788 -0.02945,-0.02481 -0.08888,-0.02481 -0.07648,0 -0.116789,0.04444 -0.01189,0.01292 -0.01912,0.01654 -0.01085,0.0057 -0.02429,0.0057 -0.0217,0 -0.03721,-0.0155 -0.0155,-0.0155 -0.0155,-0.03824 0,-0.03566 0.04754,-0.06925 0.06925,-0.04909 0.173116,-0.04909 0.09819,0 0.157613,0.05581 0.05943,0.05581 0.05943,0.134359 0,0.04082 -0.01757,0.07648 -0.01757,0.03514 -0.05271,0.06511 z"
         style="font-weight:bold;font-size:1.0583334px;fill:#502d16;stroke-width:0.26458332"
         id="path971"
         inkscape:connector-curvature="0" />
      <path
         d="m 99.247617,73.933215 h -0.242362 q -0.0021,0.03101 -0.01602,0.04496 -0.01395,0.01344 -0.03669,0.01344 -0.02377,0 -0.03876,-0.01602 -0.01447,-0.01602 -0.01447,-0.05426 v -0.09405 h 0.45992 v 0.105936 l -0.171566,0.510563 q -0.01085,0.03204 -0.02429,0.04289 -0.01292,0.01033 -0.03152,0.01033 -0.02222,0 -0.03824,-0.0155 -0.0155,-0.0155 -0.0155,-0.03566 0,-0.01137 0.0083,-0.03617 z"
         style="font-weight:bold;font-size:1.0583334px;fill:#502d16;stroke-width:0.26458332"
         id="path973"
         inkscape:connector-curvature="0" />
    </g>
    <text
       xml:space="preserve"
       style="font-style:normal;font-weight:normal;font-size:2.82222223px;line-height:1.25;font-family:sans-serif;text-align:center;letter-spacing:0px;word-spacing:0px;text-anchor:middle;fill:#000000;fill-opacity:1;stroke:none;stroke-width:0.24291903"
       x="87.681122"
       y="77.38073"
       id="text4939"><tspan
         sodipodi:role="line"
         id="tspan4937"
         x="87.681122"
         y="77.38073"
         style="font-size:2.82222223px;text-align:center;text-anchor:middle;stroke-width:0.24291903">measurement unit</tspan></text>
    <g
       style="display:inline;fill:#999999"
       id="g4903"
       transform="matrix(1.2454691,0,0,1.2454691,-41.982733,-20.051724)">
      <rect
         style="display:inline;opacity:1;fill:#999999;fill-opacity:0.40392157;stroke:#808080;stroke-width:0.20302935;stroke-linejoin:round;stroke-miterlimit:4;stroke-dasharray:none;stroke-dashoffset:0;stroke-opacity:1"
         id="rect4505"
         width="9.3231468"
         height="5.1370182"
         x="93.960999"
         y="59.325108"
         ry="0.48159546" />
      <rect
         style="display:inline;opacity:1;fill:#999999;fill-opacity:1;stroke:#808080;stroke-width:0.29486698;stroke-linejoin:round;stroke-miterlimit:4;stroke-dasharray:none;stroke-dashoffset:0;stroke-opacity:1"
         id="rect4516"
         width="1.2313521"
         height="0.20522533"
         x="94.92865"
         y="60.546799"
         ry="0.10261267" />
      <rect
         ry="0.10261267"
         y="60.546799"
         x="96.879059"
         height="0.20522533"
         width="1.2313521"
         id="rect4518"
         style="display:inline;opacity:1;fill:#999999;fill-opacity:1;stroke:#808080;stroke-width:0.29486698;stroke-linejoin:round;stroke-miterlimit:4;stroke-dasharray:none;stroke-dashoffset:0;stroke-opacity:1" />
      <rect
         style="display:inline;opacity:1;fill:#999999;fill-opacity:1;stroke:#808080;stroke-width:0.29486698;stroke-linejoin:round;stroke-miterlimit:4;stroke-dasharray:none;stroke-dashoffset:0;stroke-opacity:1"
         id="rect4520"
         width="1.2313521"
         height="0.20522533"
         x="98.829529"
         y="60.546799"
         ry="0.10261267" />
      <rect
         ry="0.10261267"
         y="61.326969"
         x="96.879112"
         height="0.20522533"
         width="1.2313521"
         id="rect4522"
         style="display:inline;opacity:1;fill:#999999;fill-opacity:1;stroke:#808080;stroke-width:0.29486698;stroke-linejoin:round;stroke-miterlimit:4;stroke-dasharray:none;stroke-dashoffset:0;stroke-opacity:1" />
      <rect
         style="display:inline;opacity:1;fill:#999999;fill-opacity:1;stroke:#808080;stroke-width:0.29486698;stroke-linejoin:round;stroke-miterlimit:4;stroke-dasharray:none;stroke-dashoffset:0;stroke-opacity:1"
         id="rect4524"
         width="1.2313521"
         height="0.20522533"
         x="98.829529"
         y="61.326969"
         ry="0.10261267" />
      <rect
         style="display:inline;opacity:1;fill:#999999;fill-opacity:1;stroke:#808080;stroke-width:0.29486698;stroke-linejoin:round;stroke-miterlimit:4;stroke-dasharray:none;stroke-dashoffset:0;stroke-opacity:1"
         id="rect4526"
         width="1.2313521"
         height="0.20522533"
         x="94.92865"
         y="61.326969"
         ry="0.10261267" />
      <circle
         transform="rotate(90)"
         style="display:inline;opacity:1;fill:#999999;fill-opacity:1;stroke:#808080;stroke-width:0.11057511;stroke-linejoin:round;stroke-miterlimit:4;stroke-dasharray:none;stroke-dashoffset:0;stroke-opacity:1"
         id="path4528"
         cx="60.620754"
         cy="-101.19009"
         r="0.29643664" />
      <circle
         transform="rotate(90)"
         r="0.29643664"
         cy="-101.19009"
         cx="61.791004"
         id="circle4530"
         style="display:inline;opacity:1;fill:#999999;fill-opacity:1;stroke:#808080;stroke-width:0.11057511;stroke-linejoin:round;stroke-miterlimit:4;stroke-dasharray:none;stroke-dashoffset:0;stroke-opacity:1" />
      <circle
         transform="rotate(90)"
         style="display:inline;opacity:1;fill:#999999;fill-opacity:1;stroke:#808080;stroke-width:0.11057511;stroke-linejoin:round;stroke-miterlimit:4;stroke-dasharray:none;stroke-dashoffset:0;stroke-opacity:1"
         id="circle4532"
         cx="62.961246"
         cy="-101.19009"
         r="0.29643664" />
      <circle
         r="0.29643664"
         cy="-102.14677"
         cx="60.620754"
         id="circle4866"
         style="display:inline;opacity:1;fill:#999999;fill-opacity:1;stroke:#808080;stroke-width:0.11057511;stroke-linejoin:round;stroke-miterlimit:4;stroke-dasharray:none;stroke-dashoffset:0;stroke-opacity:1"
         transform="rotate(90)" />
      <circle
         style="display:inline;opacity:1;fill:#999999;fill-opacity:1;stroke:#808080;stroke-width:0.11057511;stroke-linejoin:round;stroke-miterlimit:4;stroke-dasharray:none;stroke-dashoffset:0;stroke-opacity:1"
         id="circle4868"
         cx="61.791004"
         cy="-102.14677"
         r="0.29643664"
         transform="rotate(90)" />
      <circle
         r="0.29643664"
         cy="-102.14677"
         cx="62.961246"
         id="circle4870"
         style="display:inline;opacity:1;fill:#999999;fill-opacity:1;stroke:#808080;stroke-width:0.11057511;stroke-linejoin:round;stroke-miterlimit:4;stroke-dasharray:none;stroke-dashoffset:0;stroke-opacity:1"
         transform="rotate(90)" />
      <rect
         ry="0.10261267"
         y="62.1343"
         x="94.92865"
         height="0.20522533"
         width="1.2313521"
         id="rect4872"
         style="display:inline;opacity:1;fill:#999999;fill-opacity:1;stroke:#808080;stroke-width:0.29486698;stroke-linejoin:round;stroke-miterlimit:4;stroke-dasharray:none;stroke-dashoffset:0;stroke-opacity:1" />
      <rect
         style="display:inline;opacity:1;fill:#999999;fill-opacity:1;stroke:#808080;stroke-width:0.29486698;stroke-linejoin:round;stroke-miterlimit:4;stroke-dasharray:none;stroke-dashoffset:0;stroke-opacity:1"
         id="rect4874"
         width="1.2313521"
         height="0.20522533"
         x="96.879059"
         y="62.1343"
         ry="0.10261267" />
      <rect
         ry="0.10261267"
         y="62.1343"
         x="98.829529"
         height="0.20522533"
         width="1.2313521"
         id="rect4876"
         style="display:inline;opacity:1;fill:#999999;fill-opacity:1;stroke:#808080;stroke-width:0.29486698;stroke-linejoin:round;stroke-miterlimit:4;stroke-dasharray:none;stroke-dashoffset:0;stroke-opacity:1" />
      <rect
         style="display:inline;opacity:1;fill:#999999;fill-opacity:1;stroke:#808080;stroke-width:0.29486698;stroke-linejoin:round;stroke-miterlimit:4;stroke-dasharray:none;stroke-dashoffset:0;stroke-opacity:1"
         id="rect4878"
         width="1.2313521"
         height="0.20522533"
         x="96.879112"
         y="62.914471"
         ry="0.10261267" />
      <rect
         ry="0.10261267"
         y="62.914471"
         x="98.829529"
         height="0.20522533"
         width="1.2313521"
         id="rect4880"
         style="display:inline;opacity:1;fill:#999999;fill-opacity:1;stroke:#808080;stroke-width:0.29486698;stroke-linejoin:round;stroke-miterlimit:4;stroke-dasharray:none;stroke-dashoffset:0;stroke-opacity:1" />
      <rect
         ry="0.10261267"
         y="62.914471"
         x="94.92865"
         height="0.20522533"
         width="1.2313521"
         id="rect4882"
         style="display:inline;opacity:1;fill:#999999;fill-opacity:1;stroke:#808080;stroke-width:0.29486698;stroke-linejoin:round;stroke-miterlimit:4;stroke-dasharray:none;stroke-dashoffset:0;stroke-opacity:1" />
    </g>
    <text
       xml:space="preserve"
       style="font-style:normal;font-weight:normal;font-size:10.58333302px;line-height:1.25;font-family:sans-serif;letter-spacing:0px;word-spacing:0px;fill:#000000;fill-opacity:1;stroke:none;stroke-width:0.26458332"
       x="87.994926"
       y="56.116219"
       id="text986"><tspan
         sodipodi:role="line"
         id="tspan984"
         x="87.994926"
         y="56.116219"
         style="font-size:2.82222223px;stroke-width:0.26458332">custom</tspan></text>
    <text
       id="text990"
       y="59.291222"
       x="87.994926"
       style="font-style:normal;font-weight:normal;font-size:10.58333302px;line-height:1.25;font-family:sans-serif;letter-spacing:0px;word-spacing:0px;fill:#000000;fill-opacity:1;stroke:none;stroke-width:0.26458332"
       xml:space="preserve"><tspan
         style="font-size:2.82222223px;stroke-width:0.26458332"
         y="59.291222"
         x="87.994926"
         id="tspan988"
         sodipodi:role="line">electronics</tspan></text>
  </g>
</svg>
