<?xml version="1.0" encoding="UTF-8" standalone="no"?>
<!-- Created with Inkscape (http://www.inkscape.org/) -->

<svg
   xmlns:dc="http://purl.org/dc/elements/1.1/"
   xmlns:cc="http://creativecommons.org/ns#"
   xmlns:rdf="http://www.w3.org/1999/02/22-rdf-syntax-ns#"
   xmlns:svg="http://www.w3.org/2000/svg"
   xmlns="http://www.w3.org/2000/svg"
   xmlns:sodipodi="http://sodipodi.sourceforge.net/DTD/sodipodi-0.dtd"
   xmlns:inkscape="http://www.inkscape.org/namespaces/inkscape"
   width="150mm"
   height="60mm"
   viewBox="0 0 150 60"
   version="1.1"
   id="svg5342"
   inkscape:version="0.92.2 (5c3e80d, 2017-08-06)"
   sodipodi:docname="nmiv_contact.svg">
  <defs
     id="defs5336">
    <marker
       inkscape:isstock="true"
       style="overflow:visible;"
       id="marker4627"
       refX="0.0"
       refY="0.0"
       orient="auto"
       inkscape:stockid="Arrow1Mend">
      <path
         transform="scale(0.4) rotate(180) translate(10,0)"
         style="fill-rule:evenodd;stroke:#000000;stroke-width:1pt;stroke-opacity:1;fill:#000000;fill-opacity:1"
         d="M 0.0,0.0 L 5.0,-5.0 L -12.5,0.0 L 5.0,5.0 L 0.0,0.0 z "
         id="path4625" />
    </marker>
    <marker
       inkscape:isstock="true"
       style="overflow:visible;"
       id="marker3227"
       refX="0.0"
       refY="0.0"
       orient="auto"
       inkscape:stockid="Arrow1Mend">
      <path
         transform="scale(0.4) rotate(180) translate(10,0)"
         style="fill-rule:evenodd;stroke:#000000;stroke-width:1pt;stroke-opacity:1;fill:#000000;fill-opacity:1"
         d="M 0.0,0.0 L 5.0,-5.0 L -12.5,0.0 L 5.0,5.0 L 0.0,0.0 z "
         id="path3225" />
    </marker>
    <marker
       inkscape:stockid="Arrow1Mend"
       orient="auto"
       refY="0.0"
       refX="0.0"
       id="marker3125"
       style="overflow:visible;"
       inkscape:isstock="true"
       inkscape:collect="always">
      <path
         id="path3123"
         d="M 0.0,0.0 L 5.0,-5.0 L -12.5,0.0 L 5.0,5.0 L 0.0,0.0 z "
         style="fill-rule:evenodd;stroke:#000000;stroke-width:1pt;stroke-opacity:1;fill:#000000;fill-opacity:1"
         transform="scale(0.4) rotate(180) translate(10,0)" />
    </marker>
    <marker
       inkscape:isstock="true"
       style="overflow:visible;"
       id="marker2699"
       refX="0.0"
       refY="0.0"
       orient="auto"
       inkscape:stockid="Arrow1Mend"
       inkscape:collect="always">
      <path
         transform="scale(0.4) rotate(180) translate(10,0)"
         style="fill-rule:evenodd;stroke:#000000;stroke-width:1pt;stroke-opacity:1;fill:#000000;fill-opacity:1"
         d="M 0.0,0.0 L 5.0,-5.0 L -12.5,0.0 L 5.0,5.0 L 0.0,0.0 z "
         id="path2697" />
    </marker>
    <marker
       inkscape:stockid="Arrow1Mend"
       orient="auto"
       refY="0.0"
       refX="0.0"
       id="marker2123"
       style="overflow:visible;"
       inkscape:isstock="true"
       inkscape:collect="always">
      <path
         id="path2121"
         d="M 0.0,0.0 L 5.0,-5.0 L -12.5,0.0 L 5.0,5.0 L 0.0,0.0 z "
         style="fill-rule:evenodd;stroke:#000000;stroke-width:1pt;stroke-opacity:1;fill:#000000;fill-opacity:1"
         transform="scale(0.4) rotate(180) translate(10,0)" />
    </marker>
    <marker
       inkscape:isstock="true"
       style="overflow:visible;"
       id="marker1817"
       refX="0.0"
       refY="0.0"
       orient="auto"
       inkscape:stockid="Arrow1Mend"
       inkscape:collect="always">
      <path
         transform="scale(0.4) rotate(180) translate(10,0)"
         style="fill-rule:evenodd;stroke:#000000;stroke-width:1pt;stroke-opacity:1;fill:#000000;fill-opacity:1"
         d="M 0.0,0.0 L 5.0,-5.0 L -12.5,0.0 L 5.0,5.0 L 0.0,0.0 z "
         id="path1815" />
    </marker>
    <marker
       inkscape:stockid="Arrow1Mend"
       orient="auto"
       refY="0.0"
       refX="0.0"
       id="Arrow1Mend"
       style="overflow:visible;"
       inkscape:isstock="true"
       inkscape:collect="always">
      <path
         id="path6130"
         d="M 0.0,0.0 L 5.0,-5.0 L -12.5,0.0 L 5.0,5.0 L 0.0,0.0 z "
         style="fill-rule:evenodd;stroke:#000000;stroke-width:1pt;stroke-opacity:1;fill:#000000;fill-opacity:1"
         transform="scale(0.4) rotate(180) translate(10,0)" />
    </marker>
  </defs>
  <sodipodi:namedview
     id="base"
     pagecolor="#ffffff"
     bordercolor="#666666"
     borderopacity="1.0"
     inkscape:pageopacity="0.0"
     inkscape:pageshadow="2"
     inkscape:zoom="2.256526"
     inkscape:cx="284.10624"
     inkscape:cy="102.53654"
     inkscape:document-units="mm"
     inkscape:current-layer="layer2"
     showgrid="false"
     inkscape:window-width="1858"
     inkscape:window-height="1177"
     inkscape:window-x="54"
     inkscape:window-y="-8"
     inkscape:window-maximized="1" />
  <metadata
     id="metadata5339">
    <rdf:RDF>
      <cc:Work
         rdf:about="">
        <dc:format>image/svg+xml</dc:format>
        <dc:type
           rdf:resource="http://purl.org/dc/dcmitype/StillImage" />
        <dc:title></dc:title>
      </cc:Work>
    </rdf:RDF>
  </metadata>
  <g
     inkscape:label="Layer 1"
     inkscape:groupmode="layer"
     id="layer1"
     transform="translate(0,-237)"
     style="display:inline">
    <rect
       style="display:inline;opacity:1;fill:#b3b3b3;fill-opacity:1;stroke:none;stroke-width:0.43918312;stroke-linejoin:bevel;stroke-miterlimit:4;stroke-dasharray:none;stroke-dashoffset:3.00472426;stroke-opacity:1"
       id="rect4932"
       width="138.42322"
       height="6.187181"
       x="5.6750145"
       y="289.87485" />
    <path
       style="display:inline;fill:#b3b3b3;stroke:none;stroke-width:0.26734331px;stroke-linecap:butt;stroke-linejoin:miter;stroke-opacity:1"
       d="m 136.63551,251.24141 h -4.21013 l -15.26175,-4.73639 1.47355,-2.73659 z"
       id="path6493"
       inkscape:connector-curvature="0" />
    <g
       id="g890"
       style="display:inline"
       transform="matrix(0.99968501,0,0,0.99968501,-76.403799,5.0895832)">
      <path
         style="display:inline;fill:#84a9e0;fill-opacity:1;stroke:none;stroke-width:0.3160176px;stroke-linecap:butt;stroke-linejoin:miter;stroke-opacity:0"
         d="m 107.1933,284.64645 1.58284,-38.53765 h 7.97257 l 1.58278,38.53765 z"
         id="path886"
         inkscape:connector-curvature="0" />
      <rect
         style="opacity:1;fill:#84a9e0;fill-opacity:1;stroke:none;stroke-width:0.25255838;stroke-linejoin:bevel;stroke-miterlimit:4;stroke-dasharray:none;stroke-dashoffset:3.00472426;stroke-opacity:0"
         id="rect888"
         width="3.9421437"
         height="2.2174559"
         x="110.80639"
         y="283.67426" />
    </g>
    <g
       transform="matrix(0.99890928,0.03937534,-0.03937534,0.99890928,-33.032235,0.85587725)"
       style="display:inline"
       id="g898">
      <path
         inkscape:connector-curvature="0"
         id="path894"
         d="m 107.1933,284.64645 1.58284,-38.53765 h 7.97257 l 1.58278,38.53765 z"
         style="display:inline;fill:#84a9e0;fill-opacity:1;stroke:none;stroke-width:0.3160176px;stroke-linecap:butt;stroke-linejoin:miter;stroke-opacity:0" />
      <rect
         y="283.67426"
         x="110.80639"
         height="2.2174559"
         width="3.9421437"
         id="rect896"
         style="opacity:1;fill:#84a9e0;fill-opacity:1;stroke:none;stroke-width:0.25255838;stroke-linejoin:bevel;stroke-miterlimit:4;stroke-dasharray:none;stroke-dashoffset:3.00472426;stroke-opacity:0" />
    </g>
    <path
       style="display:inline;fill:#b3b3b3;stroke:none;stroke-width:0.26734331px;stroke-linecap:butt;stroke-linejoin:miter;stroke-opacity:1"
       d="M 66.496533,268.47023 H 62.28642 l -15.261669,-4.73641 1.473542,-2.73658 z"
       id="path900"
       inkscape:connector-curvature="0" />
    <g
       transform="matrix(0.99968501,0,0,0.99968501,-45.180538,5.0895832)"
       style="display:inline;opacity:0.35100002"
       id="g906">
      <path
         inkscape:connector-curvature="0"
         id="path902"
         d="m 107.1933,284.64645 1.58284,-38.53765 h 7.97257 l 1.58278,38.53765 z"
         style="display:inline;fill:#84a9e0;fill-opacity:1;stroke:none;stroke-width:0.3160176px;stroke-linecap:butt;stroke-linejoin:miter;stroke-opacity:0" />
      <rect
         y="283.67426"
         x="110.80639"
         height="2.2174559"
         width="3.9421437"
         id="rect904"
         style="opacity:1;fill:#84a9e0;fill-opacity:1;stroke:none;stroke-width:0.25255838;stroke-linejoin:bevel;stroke-miterlimit:4;stroke-dasharray:none;stroke-dashoffset:3.00472426;stroke-opacity:0" />
    </g>
    <g
       id="g912"
       style="display:inline"
       transform="matrix(0.99968501,0,0,0.99968501,-10.357259,5.0895832)">
      <path
         style="display:inline;fill:#84a9e0;fill-opacity:1;stroke:none;stroke-width:0.3160176px;stroke-linecap:butt;stroke-linejoin:miter;stroke-opacity:0"
         d="m 107.1933,284.64645 1.58284,-38.53765 h 7.97257 l 1.58278,38.53765 z"
         id="path908"
         inkscape:connector-curvature="0" />
      <rect
         style="opacity:1;fill:#84a9e0;fill-opacity:1;stroke:none;stroke-width:0.25255838;stroke-linejoin:bevel;stroke-miterlimit:4;stroke-dasharray:none;stroke-dashoffset:3.00472426;stroke-opacity:0"
         id="rect910"
         width="3.9421437"
         height="2.2174559"
         x="110.80639"
         y="283.67426" />
    </g>
    <path
       inkscape:connector-curvature="0"
       id="path914"
       d="m 104.93824,250.5952 h -4.21013 l -15.261679,-4.7364 1.473543,-2.73659 z"
       style="display:inline;fill:#b3b3b3;stroke:none;stroke-width:0.26734331px;stroke-linecap:butt;stroke-linejoin:miter;stroke-opacity:1" />
    <g
       id="g934"
       style="display:inline"
       transform="matrix(0.99890928,0.03937534,-0.03937534,0.99890928,30.886022,0.8558886)">
      <path
         style="display:inline;fill:#84a9e0;fill-opacity:1;stroke:none;stroke-width:0.3160176px;stroke-linecap:butt;stroke-linejoin:miter;stroke-opacity:0"
         d="m 107.1933,284.64645 1.58284,-38.53765 h 7.97257 l 1.58278,38.53765 z"
         id="path930"
         inkscape:connector-curvature="0" />
      <rect
         style="opacity:1;fill:#84a9e0;fill-opacity:1;stroke:none;stroke-width:0.25255838;stroke-linejoin:bevel;stroke-miterlimit:4;stroke-dasharray:none;stroke-dashoffset:3.00472426;stroke-opacity:0"
         id="rect932"
         width="3.9421437"
         height="2.2174559"
         x="110.80639"
         y="283.67426" />
    </g>
    <g
       id="g940"
       style="display:inline;opacity:0.35100002"
       transform="matrix(0.99968501,0,0,0.99968501,18.737746,5.0895832)">
      <path
         style="display:inline;fill:#84a9e0;fill-opacity:1;stroke:none;stroke-width:0.3160176px;stroke-linecap:butt;stroke-linejoin:miter;stroke-opacity:0"
         d="m 107.1933,284.64645 1.58284,-38.53765 h 7.97257 l 1.58278,38.53765 z"
         id="path936"
         inkscape:connector-curvature="0" />
      <rect
         style="opacity:1;fill:#84a9e0;fill-opacity:1;stroke:none;stroke-width:0.25255838;stroke-linejoin:bevel;stroke-miterlimit:4;stroke-dasharray:none;stroke-dashoffset:3.00472426;stroke-opacity:0"
         id="rect938"
         width="3.9421437"
         height="2.2174559"
         x="110.80639"
         y="283.67426" />
    </g>
    <path
       inkscape:connector-curvature="0"
       id="path942"
       d="m 30.439199,244.88549 h -4.210112 l -15.261669,-4.7364 1.473543,-2.73659 z"
       style="display:inline;fill:#b3b3b3;stroke:none;stroke-width:0.26734331px;stroke-linecap:butt;stroke-linejoin:miter;stroke-opacity:1" />
  </g>
  <g
     inkscape:groupmode="layer"
     id="layer2"
     inkscape:label="Arrows">
    <path
       style="fill:none;stroke:#000000;stroke-width:0.26491651;stroke-linecap:butt;stroke-linejoin:miter;stroke-miterlimit:4;stroke-dasharray:0.26491652, 0.26491652;stroke-dashoffset:0;stroke-opacity:1;marker-end:url(#Arrow1Mend)"
       d="M 24.393989,2.2677231 V 9.0748786 H 35.881114"
       id="path965"
       inkscape:connector-curvature="0"
       sodipodi:nodetypes="ccc" />
    <path
       style="fill:none;stroke:#000000;stroke-width:0.26449996;stroke-linecap:butt;stroke-linejoin:miter;stroke-miterlimit:4;stroke-dasharray:0.26449998, 0.26449998;stroke-dashoffset:0;stroke-opacity:1;marker-end:url(#marker1817)"
       d="m 60.294192,28.097611 h 6.681287 v -2.695958 h -6.798502"
       id="path1807"
       inkscape:connector-curvature="0"
       sodipodi:nodetypes="cccc" />
    <path
       sodipodi:nodetypes="ccccc"
       inkscape:connector-curvature="0"
       id="path2119"
       d="m 60.176977,24.343653 v -3.123046 h 6.798502 V 18.52465 h -6.798502"
       style="fill:none;stroke:#000000;stroke-width:0.26449996;stroke-linecap:butt;stroke-linejoin:miter;stroke-miterlimit:4;stroke-dasharray:0.26449998, 0.26449998;stroke-dashoffset:0;stroke-opacity:1;marker-end:url(#marker2123)" />
    <path
       style="fill:none;stroke:#000000;stroke-width:0.26449996;stroke-linecap:butt;stroke-linejoin:miter;stroke-miterlimit:4;stroke-dasharray:0.26449998, 0.26449998;stroke-dashoffset:0;stroke-opacity:1;marker-end:url(#marker2699)"
       d="M 93.503996,23.285652 V 20.162606 H 100.3025 V 17.466649 H 93.503996"
       id="path2695"
       inkscape:connector-curvature="0"
       sodipodi:nodetypes="ccccc" />
    <path
       style="fill:none;stroke:#000000;stroke-width:0.26449996;stroke-linecap:butt;stroke-linejoin:miter;stroke-miterlimit:4;stroke-dasharray:0.26449998, 0.26449998;stroke-dashoffset:0;stroke-opacity:1;marker-end:url(#marker3125)"
       d="m 93.503995,16.408648 v -3.579664 h 7.581225"
       id="path3115"
       inkscape:connector-curvature="0" />
    <path
       style="fill:none;stroke:#000000;stroke-width:0.26449996;stroke-linecap:butt;stroke-linejoin:miter;stroke-miterlimit:4;stroke-dasharray:0.26449998, 0.26449998;stroke-dashoffset:0;stroke-opacity:1;marker-end:url(#marker3227)"
       d="M 134.14,6.5054621 V 11.897379"
       id="path3217"
       inkscape:connector-curvature="0"
       sodipodi:nodetypes="cc" />
    <path
       inkscape:connector-curvature="0"
       id="path4623"
       d="M 35.881114,10.421461 H 24.393989 v 13.03158 h 11.487125"
       style="fill:none;stroke:#000000;stroke-width:0.26491651;stroke-linecap:butt;stroke-linejoin:miter;stroke-miterlimit:4;stroke-dasharray:0.26491652, 0.26491652;stroke-dashoffset:0;stroke-opacity:1;marker-end:url(#marker4627)"
       sodipodi:nodetypes="cccc" />
  </g>
  <g
     inkscape:groupmode="layer"
     id="layer10"
     inkscape:label="Labels"
     transform="translate(0,-237)"
     style="display:inline">
    <text
       xml:space="preserve"
       style="font-style:normal;font-variant:normal;font-weight:normal;font-stretch:normal;font-size:4.36941862px;line-height:6.3020463px;font-family:'Courier New';-inkscape-font-specification:'Courier New';text-align:end;letter-spacing:0px;word-spacing:0px;text-anchor:end;display:inline;fill:#000000;fill-opacity:1;stroke:none;stroke-width:0.25208184"
       x="23.504572"
       y="294.2009"
       id="text5092-9"><tspan
         sodipodi:role="line"
         id="tspan5090-16"
         x="23.504572"
         y="294.2009"
         style="font-style:normal;font-variant:normal;font-weight:normal;font-stretch:normal;font-size:3.3610909px;font-family:sans-serif;-inkscape-font-specification:sans-serif;text-align:end;text-anchor:end;stroke-width:0.25208184">substrate</tspan></text>
    <text
       xml:space="preserve"
       style="font-style:normal;font-variant:normal;font-weight:normal;font-stretch:normal;font-size:4.36941862px;line-height:6.3020463px;font-family:'Courier New';-inkscape-font-specification:'Courier New';letter-spacing:0px;word-spacing:0px;display:inline;fill:#000000;fill-opacity:1;stroke:none;stroke-width:0.25208184"
       x="-284.93613"
       y="37.287121"
       id="text5092-00"
       transform="rotate(-90)"><tspan
         sodipodi:role="line"
         id="tspan5090-3"
         x="-284.93613"
         y="37.287121"
         style="font-style:normal;font-variant:normal;font-weight:normal;font-stretch:normal;font-size:3.3610909px;font-family:sans-serif;-inkscape-font-specification:sans-serif;stroke-width:0.25208184">ZnO nanorod</tspan></text>
    <text
       id="text952"
       y="244.60625"
       x="15.561275"
       style="font-style:normal;font-variant:normal;font-weight:normal;font-stretch:normal;font-size:4.36941862px;line-height:6.3020463px;font-family:'Courier New';-inkscape-font-specification:'Courier New';text-align:end;letter-spacing:0px;word-spacing:0px;text-anchor:end;display:inline;fill:#000000;fill-opacity:1;stroke:none;stroke-width:0.25208184"
       xml:space="preserve"><tspan
         style="font-style:normal;font-variant:normal;font-weight:normal;font-stretch:normal;font-size:3.3610909px;font-family:sans-serif;-inkscape-font-specification:sans-serif;text-align:end;text-anchor:end;stroke-width:0.25208184"
         y="244.60625"
         x="15.561275"
         sodipodi:role="line"
         id="tspan954">probe</tspan></text>
    <text
       xml:space="preserve"
       style="font-style:normal;font-weight:normal;font-size:10.58333302px;line-height:1.25;font-family:sans-serif;letter-spacing:0px;word-spacing:0px;fill:#000000;fill-opacity:1;stroke:none;stroke-width:0.26458332"
       x="24.388521"
       y="282.2262"
       id="text4131"><tspan
         sodipodi:role="line"
         id="tspan4129"
         x="24.388521"
         y="291.88168"
         style="stroke-width:0.26458332"></tspan></text>
    <text
       id="text952-3"
       y="285.46478"
       x="29.350729"
       style="font-style:normal;font-variant:normal;font-weight:normal;font-stretch:normal;font-size:4.36941862px;line-height:6.3020463px;font-family:'Courier New';-inkscape-font-specification:'Courier New';text-align:end;letter-spacing:0px;word-spacing:0px;text-anchor:end;display:inline;fill:#000000;fill-opacity:1;stroke:none;stroke-width:0.25208184"
       xml:space="preserve"><tspan
         style="font-style:normal;font-variant:normal;font-weight:normal;font-stretch:normal;font-size:3.3610909px;font-family:sans-serif;-inkscape-font-specification:sans-serif;text-align:end;text-anchor:end;stroke-width:0.25208184"
         y="285.46478"
         x="29.350729"
         sodipodi:role="line"
         id="tspan954-0">1)</tspan></text>
    <text
       xml:space="preserve"
       style="font-style:normal;font-variant:normal;font-weight:normal;font-stretch:normal;font-size:4.36941862px;line-height:6.3020463px;font-family:'Courier New';-inkscape-font-specification:'Courier New';text-align:end;letter-spacing:0px;word-spacing:0px;text-anchor:end;display:inline;fill:#000000;fill-opacity:1;stroke:none;stroke-width:0.25208184"
       x="60.888466"
       y="285.46478"
       id="text4163"><tspan
         id="tspan4161"
         sodipodi:role="line"
         x="60.888466"
         y="285.46478"
         style="font-style:normal;font-variant:normal;font-weight:normal;font-stretch:normal;font-size:3.3610909px;font-family:sans-serif;-inkscape-font-specification:sans-serif;text-align:end;text-anchor:end;stroke-width:0.25208184">2)</tspan></text>
    <text
       id="text4167"
       y="285.46478"
       x="95.429802"
       style="font-style:normal;font-variant:normal;font-weight:normal;font-stretch:normal;font-size:4.36941862px;line-height:6.3020463px;font-family:'Courier New';-inkscape-font-specification:'Courier New';text-align:end;letter-spacing:0px;word-spacing:0px;text-anchor:end;display:inline;fill:#000000;fill-opacity:1;stroke:none;stroke-width:0.25208184"
       xml:space="preserve"><tspan
         style="font-style:normal;font-variant:normal;font-weight:normal;font-stretch:normal;font-size:3.3610909px;font-family:sans-serif;-inkscape-font-specification:sans-serif;text-align:end;text-anchor:end;stroke-width:0.25208184"
         y="285.46478"
         x="95.429802"
         sodipodi:role="line"
         id="tspan4165">3)</tspan></text>
    <text
       xml:space="preserve"
       style="font-style:normal;font-variant:normal;font-weight:normal;font-stretch:normal;font-size:4.36941862px;line-height:6.3020463px;font-family:'Courier New';-inkscape-font-specification:'Courier New';text-align:end;letter-spacing:0px;word-spacing:0px;text-anchor:end;display:inline;fill:#000000;fill-opacity:1;stroke:none;stroke-width:0.25208184"
       x="124.46448"
       y="285.46478"
       id="text4171"><tspan
         id="tspan4169"
         sodipodi:role="line"
         x="124.46448"
         y="285.46478"
         style="font-style:normal;font-variant:normal;font-weight:normal;font-stretch:normal;font-size:3.3610909px;font-family:sans-serif;-inkscape-font-specification:sans-serif;text-align:end;text-anchor:end;stroke-width:0.25208184">4)</tspan></text>
  </g>
</svg>
