-9.960938000000000514e+00 -1.202286999999999928e+01
-9.921875000000000000e+00 -1.755053999999999892e+00
-9.882813000000000514e+00 -6.300192999999999488e-01
-9.843750000000000000e+00 -3.300100999999999729e-01
-9.804688000000000514e+00 -7.500228999999999924e-02
-9.765625000000000000e+00 5.249999999999999806e-02
-9.726563000000000514e+00 1.650000000000000078e-01
-9.687500000000000000e+00 1.650000000000000078e-01
-9.648438000000000514e+00 1.575000000000000011e-01
-9.609375000000000000e+00 1.650000000000000078e-01
-9.570313000000000514e+00 1.875000000000000000e-01
-9.531250000000000000e+00 1.875000000000000000e-01
-9.492188000000000514e+00 2.025000000000000133e-01
-9.453125000000000000e+00 1.950000000000000067e-01
-9.414063000000000514e+00 2.025000000000000133e-01
-9.375000000000000000e+00 2.099999999999999922e-01
-9.335938000000000514e+00 2.174999999999999989e-01
-9.296875000000000000e+00 2.174999999999999989e-01
-9.257813000000000514e+00 2.174999999999999989e-01
-9.218750000000000000e+00 2.099999999999999922e-01
-9.179688000000000514e+00 2.250000000000000056e-01
-9.140625000000000000e+00 2.099999999999999922e-01
-9.101563000000000514e+00 2.099999999999999922e-01
-9.062500000000000000e+00 2.099999999999999922e-01
-9.023438000000000514e+00 2.025000000000000133e-01
-8.984375000000000000e+00 2.250000000000000056e-01
-8.945313000000000514e+00 2.099999999999999922e-01
-8.906250000000000000e+00 2.099999999999999922e-01
-8.867188000000000514e+00 2.099999999999999922e-01
-8.828125000000000000e+00 2.025000000000000133e-01
-8.789063000000000514e+00 2.099999999999999922e-01
-8.750000000000000000e+00 2.025000000000000133e-01
-8.710938000000000514e+00 2.250000000000000056e-01
-8.671875000000000000e+00 2.250000000000000056e-01
-8.632813000000000514e+00 2.099999999999999922e-01
-8.593750000000000000e+00 2.174999999999999989e-01
-8.554688000000000514e+00 2.099999999999999922e-01
-8.515625000000000000e+00 2.099999999999999922e-01
-8.476563000000000514e+00 2.250000000000000056e-01
-8.437500000000000000e+00 2.250000000000000056e-01
-8.398438000000000514e+00 2.099999999999999922e-01
-8.359375000000000000e+00 2.174999999999999989e-01
-8.320313000000000514e+00 2.174999999999999989e-01
-8.281250000000000000e+00 2.325000000000000122e-01
-8.242188000000000514e+00 2.250000000000000056e-01
-8.203125000000000000e+00 2.099999999999999922e-01
-8.164063000000000514e+00 2.250000000000000056e-01
-8.125000000000000000e+00 2.250000000000000056e-01
-8.085938000000000514e+00 2.325000000000000122e-01
-8.046875000000000000e+00 2.099999999999999922e-01
-8.007813000000000514e+00 2.250000000000000056e-01
-7.968750000000000000e+00 2.250000000000000056e-01
-7.929687999999999626e+00 2.099999999999999922e-01
-7.890625000000000000e+00 2.250000000000000056e-01
-7.851562999999999626e+00 2.325000000000000122e-01
-7.812500000000000000e+00 2.099999999999999922e-01
-7.773437999999999626e+00 2.250000000000000056e-01
-7.734375000000000000e+00 2.099999999999999922e-01
-7.695312999999999626e+00 2.099999999999999922e-01
-7.656250000000000000e+00 2.099999999999999922e-01
-7.617187999999999626e+00 2.174999999999999989e-01
-7.578125000000000000e+00 2.099999999999999922e-01
-7.539062999999999626e+00 2.099999999999999922e-01
-7.500000000000000000e+00 2.174999999999999989e-01
-7.460937999999999626e+00 2.174999999999999989e-01
-7.421875000000000000e+00 2.174999999999999989e-01
-7.382812999999999626e+00 2.099999999999999922e-01
-7.343750000000000000e+00 2.099999999999999922e-01
-7.304687999999999626e+00 2.325000000000000122e-01
-7.265625000000000000e+00 2.474999999999999978e-01
-7.226562999999999626e+00 2.399999999999999911e-01
-7.187500000000000000e+00 2.474999999999999978e-01
-7.148437999999999626e+00 2.250000000000000056e-01
-7.109375000000000000e+00 2.174999999999999989e-01
-7.070312999999999626e+00 2.099999999999999922e-01
-7.031250000000000000e+00 2.250000000000000056e-01
-6.992187999999999626e+00 2.250000000000000056e-01
-6.953125000000000000e+00 2.325000000000000122e-01
-6.914062999999999626e+00 2.250000000000000056e-01
-6.875000000000000000e+00 2.174999999999999989e-01
-6.835937999999999626e+00 2.325000000000000122e-01
-6.796875000000000000e+00 2.250000000000000056e-01
-6.757812999999999626e+00 2.325000000000000122e-01
-6.718750000000000000e+00 2.250000000000000056e-01
-6.679687999999999626e+00 2.250000000000000056e-01
-6.640625000000000000e+00 2.325000000000000122e-01
-6.601562999999999626e+00 2.174999999999999989e-01
-6.562500000000000000e+00 2.325000000000000122e-01
-6.523437999999999626e+00 2.250000000000000056e-01
-6.484375000000000000e+00 2.250000000000000056e-01
-6.445312999999999626e+00 2.399999999999999911e-01
-6.406250000000000000e+00 2.399999999999999911e-01
-6.367187999999999626e+00 2.250000000000000056e-01
-6.328125000000000000e+00 2.250000000000000056e-01
-6.289062999999999626e+00 2.250000000000000056e-01
-6.250000000000000000e+00 2.250000000000000056e-01
-6.210937999999999626e+00 2.174999999999999989e-01
-6.171875000000000000e+00 2.325000000000000122e-01
-6.132812999999999626e+00 2.099999999999999922e-01
-6.093750000000000000e+00 1.950000000000000067e-01
-6.054687999999999626e+00 2.174999999999999989e-01
-6.015625000000000000e+00 2.250000000000000056e-01
-5.976562999999999626e+00 2.250000000000000056e-01
-5.937500000000000000e+00 2.250000000000000056e-01
-5.898437999999999626e+00 2.025000000000000133e-01
-5.859375000000000000e+00 2.099999999999999922e-01
-5.820312999999999626e+00 2.174999999999999989e-01
-5.781250000000000000e+00 2.174999999999999989e-01
-5.742187999999999626e+00 2.099999999999999922e-01
-5.703125000000000000e+00 2.174999999999999989e-01
-5.664062999999999626e+00 2.174999999999999989e-01
-5.625000000000000000e+00 2.250000000000000056e-01
-5.585937999999999626e+00 2.399999999999999911e-01
-5.546875000000000000e+00 2.250000000000000056e-01
-5.507812999999999626e+00 2.099999999999999922e-01
-5.468750000000000000e+00 2.250000000000000056e-01
-5.429687999999999626e+00 2.250000000000000056e-01
-5.390625000000000000e+00 2.099999999999999922e-01
-5.351562999999999626e+00 2.474999999999999978e-01
-5.312500000000000000e+00 2.250000000000000056e-01
-5.273437999999999626e+00 2.250000000000000056e-01
-5.234375000000000000e+00 2.250000000000000056e-01
-5.195312999999999626e+00 2.174999999999999989e-01
-5.156250000000000000e+00 2.099999999999999922e-01
-5.117187999999999626e+00 1.950000000000000067e-01
-5.078125000000000000e+00 2.099999999999999922e-01
-5.039062999999999626e+00 1.950000000000000067e-01
-5.000000000000000000e+00 1.875000000000000000e-01
-4.960937999999999626e+00 2.099999999999999922e-01
-4.921875000000000000e+00 1.950000000000000067e-01
-4.882812999999999626e+00 1.875000000000000000e-01
-4.843750000000000000e+00 1.799999999999999933e-01
-4.804687999999999626e+00 1.875000000000000000e-01
-4.765625000000000000e+00 2.025000000000000133e-01
-4.726562999999999626e+00 1.950000000000000067e-01
-4.687500000000000000e+00 1.950000000000000067e-01
-4.648437999999999626e+00 1.799999999999999933e-01
-4.609375000000000000e+00 1.875000000000000000e-01
-4.570312999999999626e+00 2.025000000000000133e-01
-4.531250000000000000e+00 1.799999999999999933e-01
-4.492187999999999626e+00 1.950000000000000067e-01
-4.453125000000000000e+00 1.875000000000000000e-01
-4.414062999999999626e+00 2.099999999999999922e-01
-4.375000000000000000e+00 2.025000000000000133e-01
-4.335937999999999626e+00 2.025000000000000133e-01
-4.296875000000000000e+00 1.875000000000000000e-01
-4.257812999999999626e+00 1.799999999999999933e-01
-4.218750000000000000e+00 1.875000000000000000e-01
-4.179687999999999626e+00 1.875000000000000000e-01
-4.140625000000000000e+00 1.875000000000000000e-01
-4.101562999999999626e+00 2.099999999999999922e-01
-4.062500000000000000e+00 1.950000000000000067e-01
-4.023437999999999626e+00 1.799999999999999933e-01
-3.984375000000000000e+00 1.950000000000000067e-01
-3.945313000000000070e+00 2.025000000000000133e-01
-3.906250000000000000e+00 2.174999999999999989e-01
-3.867188000000000070e+00 2.025000000000000133e-01
-3.828125000000000000e+00 1.950000000000000067e-01
-3.789063000000000070e+00 2.025000000000000133e-01
-3.750000000000000000e+00 2.174999999999999989e-01
-3.710938000000000070e+00 2.025000000000000133e-01
-3.671875000000000000e+00 1.950000000000000067e-01
-3.632813000000000070e+00 2.099999999999999922e-01
-3.593750000000000000e+00 1.950000000000000067e-01
-3.554688000000000070e+00 2.174999999999999989e-01
-3.515625000000000000e+00 2.174999999999999989e-01
-3.476563000000000070e+00 2.025000000000000133e-01
-3.437500000000000000e+00 1.724999999999999867e-01
-3.398438000000000070e+00 2.025000000000000133e-01
-3.359375000000000000e+00 1.950000000000000067e-01
-3.320313000000000070e+00 1.950000000000000067e-01
-3.281250000000000000e+00 2.099999999999999922e-01
-3.242188000000000070e+00 2.099999999999999922e-01
-3.203125000000000000e+00 2.099999999999999922e-01
-3.164063000000000070e+00 2.099999999999999922e-01
-3.125000000000000000e+00 1.950000000000000067e-01
-3.085938000000000070e+00 2.025000000000000133e-01
-3.046875000000000000e+00 1.950000000000000067e-01
-3.007813000000000070e+00 2.025000000000000133e-01
-2.968750000000000000e+00 2.025000000000000133e-01
-2.929688000000000070e+00 1.950000000000000067e-01
-2.890625000000000000e+00 2.025000000000000133e-01
-2.851563000000000070e+00 1.950000000000000067e-01
-2.812500000000000000e+00 2.099999999999999922e-01
-2.773438000000000070e+00 1.950000000000000067e-01
-2.734375000000000000e+00 1.950000000000000067e-01
-2.695313000000000070e+00 1.950000000000000067e-01
-2.656250000000000000e+00 2.025000000000000133e-01
-2.617188000000000070e+00 2.099999999999999922e-01
-2.578125000000000000e+00 2.174999999999999989e-01
-2.539063000000000070e+00 2.174999999999999989e-01
-2.500000000000000000e+00 2.025000000000000133e-01
-2.460938000000000070e+00 2.174999999999999989e-01
-2.421875000000000000e+00 2.325000000000000122e-01
-2.382813000000000070e+00 2.174999999999999989e-01
-2.343750000000000000e+00 2.099999999999999922e-01
-2.304688000000000070e+00 2.099999999999999922e-01
-2.265625000000000000e+00 2.174999999999999989e-01
-2.226563000000000070e+00 2.099999999999999922e-01
-2.187500000000000000e+00 2.099999999999999922e-01
-2.148438000000000070e+00 2.099999999999999922e-01
-2.109375000000000000e+00 2.025000000000000133e-01
-2.070313000000000070e+00 2.174999999999999989e-01
-2.031250000000000000e+00 2.174999999999999989e-01
-1.992188000000000070e+00 2.099999999999999922e-01
-1.953125000000000000e+00 2.174999999999999989e-01
-1.914063000000000070e+00 2.174999999999999989e-01
-1.875000000000000000e+00 2.025000000000000133e-01
-1.835938000000000070e+00 2.099999999999999922e-01
-1.796875000000000000e+00 2.174999999999999989e-01
-1.757813000000000070e+00 2.099999999999999922e-01
-1.718750000000000000e+00 2.099999999999999922e-01
-1.679688000000000070e+00 2.099999999999999922e-01
-1.640625000000000000e+00 2.099999999999999922e-01
-1.601563000000000070e+00 2.174999999999999989e-01
-1.562500000000000000e+00 2.099999999999999922e-01
-1.523438000000000070e+00 2.099999999999999922e-01
-1.484375000000000000e+00 1.950000000000000067e-01
-1.445313000000000070e+00 2.174999999999999989e-01
-1.406250000000000000e+00 2.025000000000000133e-01
-1.367188000000000070e+00 2.099999999999999922e-01
-1.328125000000000000e+00 2.025000000000000133e-01
-1.289063000000000070e+00 2.174999999999999989e-01
-1.250000000000000000e+00 2.099999999999999922e-01
-1.210938000000000070e+00 2.099999999999999922e-01
-1.171875000000000000e+00 1.875000000000000000e-01
-1.132813000000000070e+00 2.174999999999999989e-01
-1.093750000000000000e+00 2.174999999999999989e-01
-1.054688000000000070e+00 2.099999999999999922e-01
-1.015625000000000000e+00 2.099999999999999922e-01
-9.765625000000000000e-01 2.025000000000000133e-01
-9.375000000000000000e-01 2.250000000000000056e-01
-8.984375000000000000e-01 2.174999999999999989e-01
-8.593750000000000000e-01 2.250000000000000056e-01
-8.203125000000000000e-01 2.174999999999999989e-01
-7.812500000000000000e-01 2.174999999999999989e-01
-7.421875000000000000e-01 2.099999999999999922e-01
-7.031250000000000000e-01 2.025000000000000133e-01
-6.640625000000000000e-01 2.250000000000000056e-01
-6.250000000000000000e-01 2.099999999999999922e-01
-5.859375000000000000e-01 2.025000000000000133e-01
-5.468750000000000000e-01 1.950000000000000067e-01
-5.078125000000000000e-01 1.950000000000000067e-01
-4.687500000000000000e-01 2.099999999999999922e-01
-4.296875000000000000e-01 2.174999999999999989e-01
-3.906250000000000000e-01 2.099999999999999922e-01
-3.515625000000000000e-01 2.325000000000000122e-01
-3.125000000000000000e-01 2.099999999999999922e-01
-2.734375000000000000e-01 2.099999999999999922e-01
-2.343750000000000000e-01 2.174999999999999989e-01
-1.953125000000000000e-01 2.250000000000000056e-01
-1.562500000000000000e-01 2.250000000000000056e-01
-1.171875000000000000e-01 2.099999999999999922e-01
-7.812500000000000000e-02 2.250000000000000056e-01
-3.906250000000000000e-02 2.099999999999999922e-01
-0.000000000000000000e+00 2.250000000000000056e-01
3.906250000000000000e-02 2.399999999999999911e-01
7.812500000000000000e-02 2.250000000000000056e-01
1.171875000000000000e-01 2.399999999999999911e-01
1.562500000000000000e-01 2.474999999999999978e-01
1.953125000000000000e-01 2.550000000000000044e-01
2.343750000000000000e-01 2.700000000000000178e-01
2.734375000000000000e-01 2.924999999999999822e-01
3.125000000000000000e-01 3.150000000000000022e-01
3.515625000000000000e-01 3.750000000000000000e-01
3.906250000000000000e-01 3.825000000000000067e-01
4.296875000000000000e-01 4.199999999999999845e-01
4.687500000000000000e-01 5.024999999999999467e-01
5.078125000000000000e-01 6.075000000000000400e-01
5.468750000000000000e-01 7.275000000000000355e-01
5.859375000000000000e-01 8.400001000000000273e-01
6.250000000000000000e-01 1.004999999999999893e+00
6.640625000000000000e-01 1.110000000000000098e+00
7.031250000000000000e-01 1.222499999999999920e+00
7.421875000000000000e-01 1.372500000000000053e+00
7.812500000000000000e-01 1.544999999999999929e+00
8.203125000000000000e-01 1.754999999999999893e+00
8.593750000000000000e-01 1.972499999999999920e+00
8.984375000000000000e-01 2.092499999999999805e+00
9.375000000000000000e-01 2.257499999999999840e+00
9.765625000000000000e-01 2.452500000000000124e+00
1.015625000000000000e+00 2.685000000000000053e+00
1.054688000000000070e+00 3.060000000000000053e+00
1.093750000000000000e+00 3.127499999999999947e+00
1.132813000000000070e+00 3.615000000000000213e+00
1.171875000000000000e+00 3.832500000000000018e+00
1.210938000000000070e+00 4.139999999999999680e+00
1.250000000000000000e+00 4.627500000000000391e+00
1.289063000000000070e+00 4.972500000000000142e+00
1.328125000000000000e+00 5.287499999999999645e+00
1.367188000000000070e+00 5.857499999999999929e+00
1.406250000000000000e+00 6.405000000000000249e+00
1.445313000000000070e+00 7.110000000000000320e+00
1.484375000000000000e+00 7.672500999999999571e+00
1.523438000000000070e+00 8.234999999999999432e+00
1.562500000000000000e+00 8.917500000000000426e+00
1.601563000000000070e+00 9.787501000000000673e+00
1.640625000000000000e+00 1.046250000000000036e+01
1.679688000000000070e+00 1.149000000000000021e+01
1.718750000000000000e+00 1.226999999999999957e+01
1.757813000000000070e+00 1.359750000000000014e+01
1.796875000000000000e+00 1.461749999999999972e+01
1.835938000000000070e+00 1.588499999999999979e+01
1.875000000000000000e+00 1.703999999999999915e+01
1.914063000000000070e+00 1.792500000000000071e+01
1.953125000000000000e+00 1.923000000000000043e+01
1.992188000000000070e+00 2.096999999999999886e+01
2.031250000000000000e+00 2.252250000000000085e+01
2.070313000000000070e+00 2.331749999999999901e+01
2.109375000000000000e+00 2.479500000000000171e+01
2.148438000000000070e+00 2.690249999999999986e+01
2.187500000000000000e+00 2.930999999999999872e+01
2.226563000000000070e+00 3.141000000000000014e+01
2.265625000000000000e+00 3.423749999999999716e+01
2.304688000000000070e+00 3.521999999999999886e+01
2.343750000000000000e+00 3.704249999999999687e+01
2.382813000000000070e+00 3.932999999999999829e+01
2.421875000000000000e+00 4.129500000000000171e+01
2.460938000000000070e+00 4.333500000000000085e+01
2.500000000000000000e+00 4.495499999999999829e+01
2.539063000000000070e+00 4.742249999999999943e+01
2.578125000000000000e+00 4.898250000000000171e+01
2.617188000000000070e+00 5.106000000000000227e+01
2.656250000000000000e+00 5.403000000000000114e+01
2.695313000000000070e+00 5.774249999999999972e+01
2.734375000000000000e+00 6.078750000000000142e+01
2.773438000000000070e+00 6.247500000000000142e+01
2.812500000000000000e+00 6.488249999999999318e+01
2.851563000000000070e+00 6.860250999999999522e+01
2.890625000000000000e+00 7.310250000000000625e+01
2.929688000000000070e+00 7.545000000000000284e+01
2.968750000000000000e+00 7.936499999999999488e+01
3.007813000000000070e+00 8.268750000000000000e+01
3.046875000000000000e+00 8.561249999999999716e+01
3.085938000000000070e+00 8.993250999999999351e+01
3.125000000000000000e+00 9.409499999999999886e+01
3.164063000000000070e+00 9.667499999999999716e+01
3.203125000000000000e+00 1.014599999999999937e+02
3.242188000000000070e+00 1.053750000000000000e+02
3.281250000000000000e+00 1.103250000000000028e+02
3.320313000000000070e+00 1.185900000000000034e+02
3.359375000000000000e+00 1.201350000000000051e+02
3.398438000000000070e+00 1.256474999999999937e+02
3.437500000000000000e+00 1.294275000000000091e+02
3.476563000000000070e+00 1.341599999999999966e+02
3.515625000000000000e+00 1.409025000000000034e+02
3.554688000000000070e+00 1.471349999999999909e+02
3.593750000000000000e+00 1.533300000000000125e+02
3.632813000000000070e+00 1.634774999999999920e+02
3.671875000000000000e+00 1.710674999999999955e+02
3.710938000000000070e+00 1.757775000000000034e+02
3.750000000000000000e+00 1.854449999999999932e+02
3.789063000000000070e+00 1.924124999999999943e+02
3.828125000000000000e+00 1.984199999999999875e+02
3.867188000000000070e+00 2.050200000000000102e+02
3.906250000000000000e+00 2.119350000000000023e+02
3.945313000000000070e+00 2.132775000000000034e+02
3.984375000000000000e+00 2.196974999999999909e+02
4.023437999999999626e+00 2.256450000000000102e+02
4.062500000000000000e+00 2.312475000000000023e+02
4.101562999999999626e+00 2.347874999999999943e+02
4.140625000000000000e+00 2.358000000000000114e+02
4.179687999999999626e+00 2.367975000000000136e+02
4.218750000000000000e+00 2.370900000000000034e+02
4.257812999999999626e+00 2.373224999999999909e+02
4.296875000000000000e+00 2.375024999999999977e+02
4.335937999999999626e+00 2.375550000000000068e+02
4.375000000000000000e+00 2.375774999999999864e+02
4.414062999999999626e+00 2.375774999999999864e+02
4.453125000000000000e+00 2.375774999999999864e+02
4.492187999999999626e+00 2.375774999999999864e+02
4.531250000000000000e+00 2.375774999999999864e+02
4.570312999999999626e+00 2.375774999999999864e+02
4.609375000000000000e+00 2.375774999999999864e+02
4.648437999999999626e+00 2.375774999999999864e+02
4.687500000000000000e+00 2.375774999999999864e+02
4.726562999999999626e+00 2.375774999999999864e+02
4.765625000000000000e+00 2.375774999999999864e+02
4.804687999999999626e+00 2.375774999999999864e+02
4.843750000000000000e+00 2.375774999999999864e+02
4.882812999999999626e+00 2.375774999999999864e+02
4.921875000000000000e+00 2.375774999999999864e+02
4.960937999999999626e+00 2.375774999999999864e+02
5.000000000000000000e+00 2.375774999999999864e+02
5.039062999999999626e+00 2.375774999999999864e+02
5.078125000000000000e+00 2.375774999999999864e+02
5.117187999999999626e+00 2.375774999999999864e+02
5.156250000000000000e+00 2.375774999999999864e+02
5.195312999999999626e+00 2.375774999999999864e+02
5.234375000000000000e+00 2.375774999999999864e+02
5.273437999999999626e+00 2.375774999999999864e+02
5.312500000000000000e+00 2.375774999999999864e+02
5.351562999999999626e+00 2.375774999999999864e+02
5.390625000000000000e+00 2.375774999999999864e+02
5.429687999999999626e+00 2.375774999999999864e+02
5.468750000000000000e+00 2.375774999999999864e+02
5.507812999999999626e+00 2.375774999999999864e+02
5.546875000000000000e+00 2.375774999999999864e+02
5.585937999999999626e+00 2.375774999999999864e+02
5.625000000000000000e+00 2.375774999999999864e+02
5.664062999999999626e+00 2.375774999999999864e+02
5.703125000000000000e+00 2.375774999999999864e+02
5.742187999999999626e+00 2.375774999999999864e+02
5.781250000000000000e+00 2.375774999999999864e+02
5.820312999999999626e+00 2.375774999999999864e+02
5.859375000000000000e+00 2.375774999999999864e+02
5.898437999999999626e+00 2.375774999999999864e+02
5.937500000000000000e+00 2.375774999999999864e+02
5.976562999999999626e+00 2.375774999999999864e+02
6.015625000000000000e+00 2.375774999999999864e+02
6.054687999999999626e+00 2.375774999999999864e+02
6.093750000000000000e+00 2.375774999999999864e+02
6.132812999999999626e+00 2.375774999999999864e+02
6.171875000000000000e+00 2.375774999999999864e+02
6.210937999999999626e+00 2.375774999999999864e+02
6.250000000000000000e+00 2.375774999999999864e+02
6.289062999999999626e+00 2.375774999999999864e+02
6.328125000000000000e+00 2.375774999999999864e+02
6.367187999999999626e+00 2.375774999999999864e+02
6.406250000000000000e+00 2.375774999999999864e+02
6.445312999999999626e+00 2.375774999999999864e+02
6.484375000000000000e+00 2.375774999999999864e+02
6.523437999999999626e+00 2.375774999999999864e+02
6.562500000000000000e+00 2.375774999999999864e+02
6.601562999999999626e+00 2.375774999999999864e+02
6.640625000000000000e+00 2.375774999999999864e+02
6.679687999999999626e+00 2.375774999999999864e+02
6.718750000000000000e+00 2.375774999999999864e+02
6.757812999999999626e+00 2.375774999999999864e+02
6.796875000000000000e+00 2.375774999999999864e+02
6.835937999999999626e+00 2.375774999999999864e+02
6.875000000000000000e+00 2.375774999999999864e+02
6.914062999999999626e+00 2.375774999999999864e+02
6.953125000000000000e+00 2.375774999999999864e+02
6.992187999999999626e+00 2.375774999999999864e+02
7.031250000000000000e+00 2.375774999999999864e+02
7.070312999999999626e+00 2.375774999999999864e+02
7.109375000000000000e+00 2.375774999999999864e+02
7.148437999999999626e+00 2.375774999999999864e+02
7.187500000000000000e+00 2.375774999999999864e+02
7.226562999999999626e+00 2.375774999999999864e+02
7.265625000000000000e+00 2.375774999999999864e+02
7.304687999999999626e+00 2.375774999999999864e+02
7.343750000000000000e+00 2.375774999999999864e+02
7.382812999999999626e+00 2.375774999999999864e+02
7.421875000000000000e+00 2.375774999999999864e+02
7.460937999999999626e+00 2.375774999999999864e+02
7.500000000000000000e+00 2.375774999999999864e+02
7.539062999999999626e+00 2.375774999999999864e+02
7.578125000000000000e+00 2.375774999999999864e+02
7.617187999999999626e+00 2.375774999999999864e+02
7.656250000000000000e+00 2.375774999999999864e+02
7.695312999999999626e+00 2.375774999999999864e+02
7.734375000000000000e+00 2.375774999999999864e+02
7.773437999999999626e+00 2.375774999999999864e+02
7.812500000000000000e+00 2.375774999999999864e+02
7.851562999999999626e+00 2.375774999999999864e+02
7.890625000000000000e+00 2.375774999999999864e+02
7.929687999999999626e+00 2.375774999999999864e+02
7.968750000000000000e+00 2.375774999999999864e+02
8.007813000000000514e+00 2.375774999999999864e+02
8.046875000000000000e+00 2.375774999999999864e+02
8.085938000000000514e+00 2.375774999999999864e+02
8.125000000000000000e+00 2.375774999999999864e+02
8.164063000000000514e+00 2.375774999999999864e+02
8.203125000000000000e+00 2.375774999999999864e+02
8.242188000000000514e+00 2.375774999999999864e+02
8.281250000000000000e+00 2.375774999999999864e+02
8.320313000000000514e+00 2.375774999999999864e+02
8.359375000000000000e+00 2.375774999999999864e+02
8.398438000000000514e+00 2.375774999999999864e+02
8.437500000000000000e+00 2.375774999999999864e+02
8.476563000000000514e+00 2.375774999999999864e+02
8.515625000000000000e+00 2.375774999999999864e+02
8.554688000000000514e+00 2.375774999999999864e+02
8.593750000000000000e+00 2.375774999999999864e+02
8.632813000000000514e+00 2.375774999999999864e+02
8.671875000000000000e+00 2.375774999999999864e+02
8.710938000000000514e+00 2.375774999999999864e+02
8.750000000000000000e+00 2.375774999999999864e+02
8.789063000000000514e+00 2.375774999999999864e+02
8.828125000000000000e+00 2.375774999999999864e+02
8.867188000000000514e+00 2.375774999999999864e+02
8.906250000000000000e+00 2.375774999999999864e+02
8.945313000000000514e+00 2.375774999999999864e+02
8.984375000000000000e+00 2.375774999999999864e+02
9.023438000000000514e+00 2.375774999999999864e+02
9.062500000000000000e+00 2.375774999999999864e+02
9.101563000000000514e+00 2.375774999999999864e+02
9.140625000000000000e+00 2.375774999999999864e+02
9.179688000000000514e+00 2.375774999999999864e+02
9.218750000000000000e+00 2.375774999999999864e+02
9.257813000000000514e+00 2.375774999999999864e+02
9.296875000000000000e+00 2.375774999999999864e+02
9.335938000000000514e+00 2.375774999999999864e+02
9.375000000000000000e+00 2.375774999999999864e+02
9.414063000000000514e+00 2.375774999999999864e+02
9.453125000000000000e+00 2.375774999999999864e+02
9.492188000000000514e+00 2.375774999999999864e+02
9.531250000000000000e+00 2.375774999999999864e+02
9.570313000000000514e+00 2.375774999999999864e+02
9.609375000000000000e+00 2.375774999999999864e+02
9.648438000000000514e+00 2.375774999999999864e+02
9.687500000000000000e+00 2.375774999999999864e+02
9.726563000000000514e+00 2.375774999999999864e+02
9.765625000000000000e+00 2.375774999999999864e+02
9.804688000000000514e+00 2.375774999999999864e+02
9.843750000000000000e+00 2.375774999999999864e+02
9.882813000000000514e+00 2.375774999999999864e+02
9.921875000000000000e+00 2.375774999999999864e+02
9.960938000000000514e+00 2.375774999999999864e+02
1.000000000000000000e+01 2.375774999999999864e+02
