#  Measurement ID: 2018_01_22__16:27_NMIV_527_nr3_neg
#  Start:	0.0 V
#  Stop:	-10.0 V
#  \# of points:	61
#  Averaging 3 measurements.
#  Measuring both ways.
# U [V] 			 I[A]
0.0000000e+00 3.4020000e-11
-1.6666667e-01 2.4700000e-12
-3.3333333e-01 -4.5666667e-13
-5.0000000e-01 -5.6666667e-13
-6.6666667e-01 -1.8800000e-12
-8.3333333e-01 -4.6833333e-12
-1.0000000e+00 -1.2273333e-11
-1.1666667e+00 -3.7900000e-11
-1.3333333e+00 -1.0996000e-10
-1.5000000e+00 -2.6475000e-10
-1.6666667e+00 -4.8853667e-10
-1.8333333e+00 -6.9641667e-10
-2.0000000e+00 -9.3786667e-10
-2.1666667e+00 -1.5742000e-09
-2.3333333e+00 -2.4743000e-09
-2.5000000e+00 -3.5143667e-09
-2.6666667e+00 -4.1119000e-09
-2.8333333e+00 -5.0918667e-09
-3.0000000e+00 -6.8493000e-09
-3.1666667e+00 -9.3786667e-09
-3.3333333e+00 -1.2401333e-08
-3.5000000e+00 -1.5348667e-08
-3.6666667e+00 -1.8195667e-08
-3.8333333e+00 -2.0141000e-08
-4.0000000e+00 -2.1910333e-08
-4.1666667e+00 -2.4831667e-08
-4.3333333e+00 -2.8851333e-08
-4.5000000e+00 -3.4676333e-08
-4.6666667e+00 -3.9771667e-08
-4.8333333e+00 -4.4724667e-08
-5.0000000e+00 -4.8551000e-08
-5.1666667e+00 -5.6198333e-08
-5.3333333e+00 -5.8598667e-08
-5.5000000e+00 -6.6969667e-08
-5.6666667e+00 -7.5133333e-08
-5.8333333e+00 -8.1504000e-08
-6.0000000e+00 -9.0223000e-08
-6.1666667e+00 -1.0249667e-07
-6.3333333e+00 -1.1545000e-07
-6.5000000e+00 -1.1834000e-07
-6.6666667e+00 -1.2042667e-07
-6.8333333e+00 -1.2768333e-07
-7.0000000e+00 -1.4570333e-07
-7.1666667e+00 -1.5328333e-07
-7.3333333e+00 -1.5759000e-07
-7.5000000e+00 -1.6145333e-07
-7.6666667e+00 -1.7806333e-07
-7.8333333e+00 -1.7810667e-07
-8.0000000e+00 -1.9949333e-07
-8.1666667e+00 -2.0731667e-07
-8.3333333e+00 -2.0432667e-07
-8.5000000e+00 -1.9233000e-07
-8.6666667e+00 -2.0521667e-07
-8.8333333e+00 -2.0195667e-07
-9.0000000e+00 -1.9615333e-07
-9.1666667e+00 -2.0244667e-07
-9.3333333e+00 -2.1014667e-07
-9.5000000e+00 -2.1584667e-07
-9.6666667e+00 -2.2328333e-07
-9.8333333e+00 -2.3125000e-07
-1.0000000e+01 -2.4924000e-07
-1.0000000e+01 -2.4548000e-07
-9.8333333e+00 -2.1933667e-07
-9.6666667e+00 -2.0089000e-07
-9.5000000e+00 -1.9702000e-07
-9.3333333e+00 -1.8112000e-07
-9.1666667e+00 -1.5394333e-07
-9.0000000e+00 -1.4370333e-07
-8.8333333e+00 -1.3176333e-07
-8.6666667e+00 -1.2232667e-07
-8.5000000e+00 -1.1921333e-07
-8.3333333e+00 -1.0828000e-07
-8.1666667e+00 -1.0049000e-07
-8.0000000e+00 -9.4716667e-08
-7.8333333e+00 -8.5963333e-08
-7.6666667e+00 -8.3545000e-08
-7.5000000e+00 -6.9245000e-08
-7.3333333e+00 -6.6400333e-08
-7.1666667e+00 -6.4030667e-08
-7.0000000e+00 -5.8216000e-08
-6.8333333e+00 -5.7172000e-08
-6.6666667e+00 -5.3573333e-08
-6.5000000e+00 -4.9877333e-08
-6.3333333e+00 -4.6381000e-08
-6.1666667e+00 -4.0897667e-08
-6.0000000e+00 -3.7128000e-08
-5.8333333e+00 -3.5508667e-08
-5.6666667e+00 -3.1239000e-08
-5.5000000e+00 -2.7585000e-08
-5.3333333e+00 -2.5458333e-08
-5.1666667e+00 -2.1867667e-08
-5.0000000e+00 -1.9985667e-08
-4.8333333e+00 -1.8817667e-08
-4.6666667e+00 -1.4794000e-08
-4.5000000e+00 -1.3103333e-08
-4.3333333e+00 -1.2091000e-08
-4.1666667e+00 -1.0176000e-08
-4.0000000e+00 -9.0629667e-09
-3.8333333e+00 -8.4379667e-09
-3.6666667e+00 -7.1046000e-09
-3.5000000e+00 -6.0077667e-09
-3.3333333e+00 -5.2480000e-09
-3.1666667e+00 -4.1116000e-09
-3.0000000e+00 -3.2016333e-09
-2.8333333e+00 -2.6443000e-09
-2.6666667e+00 -1.9932333e-09
-2.5000000e+00 -1.4712667e-09
-2.3333333e+00 -1.0923667e-09
-2.1666667e+00 -9.3926667e-10
-2.0000000e+00 -7.0498667e-10
-1.8333333e+00 -4.5398000e-10
-1.6666667e+00 -2.7237333e-10
-1.5000000e+00 -1.6526000e-10
-1.3333333e+00 -8.6753333e-11
-1.1666667e+00 -3.4160000e-11
-1.0000000e+00 -1.0566667e-11
-8.3333333e-01 -3.9266667e-12
-6.6666667e-01 -1.1066667e-12
-5.0000000e-01 -3.6666667e-14
-3.3333333e-01 3.1000000e-13
-1.6666667e-01 2.7233333e-12
0.0000000e+00 2.3670000e-11
