#  Measurement ID: 2017_07_25__14:43_NMIV_692_12#4_iv1n
#  Start:	0.0 V
#  Stop:	-20.0 V
#  \# of points:	41
#  Averaging 3 measurements.
#  Measuring both ways.
# U [V] 			 I[A]
0.0000000e+00 7.0333333e-13
-5.0000000e-01 -1.3166667e-12
-1.0000000e+00 -2.1800000e-12
-1.5000000e+00 -2.2333333e-12
-2.0000000e+00 -1.2700000e-12
-2.5000000e+00 -2.2166667e-12
-3.0000000e+00 -3.2100000e-12
-3.5000000e+00 -3.3833333e-12
-4.0000000e+00 -4.3200000e-12
-4.5000000e+00 -7.5300000e-12
-5.0000000e+00 -1.0546667e-11
-5.5000000e+00 -1.3773333e-11
-6.0000000e+00 -2.2470000e-11
-6.5000000e+00 -3.6393333e-11
-7.0000000e+00 -5.0560000e-11
-7.5000000e+00 -7.5186667e-11
-8.0000000e+00 -1.0951667e-10
-8.5000000e+00 -1.5915667e-10
-9.0000000e+00 -2.1540000e-10
-9.5000000e+00 -3.0416333e-10
-1.0000000e+01 -4.0759000e-10
-1.0500000e+01 -5.4863000e-10
-1.1000000e+01 -7.3281000e-10
-1.1500000e+01 -9.5516667e-10
-1.2000000e+01 -1.2693000e-09
-1.2500000e+01 -1.6778667e-09
-1.3000000e+01 -2.2145000e-09
-1.3500000e+01 -2.8670000e-09
-1.4000000e+01 -3.6817667e-09
-1.4500000e+01 -4.6727333e-09
-1.5000000e+01 -6.0250333e-09
-1.5500000e+01 -7.5487667e-09
-1.6000000e+01 -9.3986667e-09
-1.6500000e+01 -1.1853333e-08
-1.7000000e+01 -1.5056667e-08
-1.7500000e+01 -1.8080333e-08
-1.8000000e+01 -2.3240333e-08
-1.8500000e+01 -2.8802333e-08
-1.9000000e+01 -3.6716333e-08
-1.9500000e+01 -4.4770000e-08
-2.0000000e+01 -5.5990667e-08
-2.0000000e+01 -5.5353000e-08
-1.9500000e+01 -4.6615333e-08
-1.9000000e+01 -3.7545333e-08
-1.8500000e+01 -3.1173000e-08
-1.8000000e+01 -2.5155667e-08
-1.7500000e+01 -2.0488333e-08
-1.7000000e+01 -1.6358667e-08
-1.6500000e+01 -1.3383000e-08
-1.6000000e+01 -1.0530000e-08
-1.5500000e+01 -8.2970000e-09
-1.5000000e+01 -6.3991333e-09
-1.4500000e+01 -5.0873000e-09
-1.4000000e+01 -3.9034000e-09
-1.3500000e+01 -3.0301667e-09
-1.3000000e+01 -2.3834667e-09
-1.2500000e+01 -1.8362667e-09
-1.2000000e+01 -1.4007000e-09
-1.1500000e+01 -1.0558333e-09
-1.1000000e+01 -7.8222667e-10
-1.0500000e+01 -5.6638667e-10
-1.0000000e+01 -4.1184333e-10
-9.5000000e+00 -2.9551667e-10
-9.0000000e+00 -2.0984000e-10
-8.5000000e+00 -1.4588333e-10
-8.0000000e+00 -9.9076667e-11
-7.5000000e+00 -6.8603333e-11
-7.0000000e+00 -4.5030000e-11
-6.5000000e+00 -2.7856667e-11
-6.0000000e+00 -1.6743333e-11
-5.5000000e+00 -1.0876667e-11
-5.0000000e+00 -6.6600000e-12
-4.5000000e+00 -2.8366667e-12
-4.0000000e+00 -9.9666667e-13
-3.5000000e+00 -1.0833333e-12
-3.0000000e+00 7.6666667e-13
-2.5000000e+00 1.9566667e-12
-2.0000000e+00 1.2133333e-12
-1.5000000e+00 5.3333333e-14
-1.0000000e+00 6.0000000e-13
-5.0000000e-01 2.5333333e-12
0.0000000e+00 2.5866667e-12
